<?xml version="1.0" encoding="UTF-8" standalone="no"?>
<!-- Created with Inkscape (http://www.inkscape.org/) -->

<svg
   xmlns:dc="http://purl.org/dc/elements/1.1/"
   xmlns:cc="http://creativecommons.org/ns#"
   xmlns:rdf="http://www.w3.org/1999/02/22-rdf-syntax-ns#"
   xmlns:svg="http://www.w3.org/2000/svg"
   xmlns="http://www.w3.org/2000/svg"
   xmlns:sodipodi="http://sodipodi.sourceforge.net/DTD/sodipodi-0.dtd"
   xmlns:inkscape="http://www.inkscape.org/namespaces/inkscape"
   width="900"
   height="415"
   viewBox="0 0 900.00001 415.00001"
   id="svg5120"
   version="1.1"
   inkscape:version="0.91 r13725"
   inkscape:export-filename="/home/h4ck3r/Documents/dumotravail/travgit/manueldumo/images/entete/head.png"
   inkscape:export-xdpi="90"
   inkscape:export-ydpi="90"
   sodipodi:docname="head.svg">
  <defs
     id="defs5122" />
  <sodipodi:namedview
     id="base"
     pagecolor="#ffffff"
     bordercolor="#ff6666"
     borderopacity="1"
     inkscape:pageopacity="0.0"
     inkscape:pageshadow="2"
     inkscape:zoom="1.3054959"
     inkscape:cx="438.61171"
     inkscape:cy="14.261364"
     inkscape:document-units="px"
     inkscape:current-layer="g5125"
     showgrid="false"
     units="px"
     borderlayer="true"
     inkscape:window-width="1920"
     inkscape:window-height="1027"
     inkscape:window-x="0"
     inkscape:window-y="0"
     inkscape:window-maximized="1">
    <inkscape:grid
       type="xygrid"
       id="grid5779" />
  </sodipodi:namedview>
  <metadata
     id="metadata5125">
    <rdf:RDF>
      <cc:Work
         rdf:about="">
        <dc:format>image/svg+xml</dc:format>
        <dc:type
           rdf:resource="http://purl.org/dc/dcmitype/StillImage" />
        <dc:title />
      </cc:Work>
    </rdf:RDF>
  </metadata>
  <g
     inkscape:label="Calque 1"
     inkscape:groupmode="layer"
     id="layer1"
     transform="translate(0,-637.36216)">
    <rect
       style="opacity:1;fill:#0c5b7a;fill-opacity:1;stroke:none;stroke-width:2.06699991;stroke-miterlimit:4;stroke-dasharray:none;stroke-opacity:1"
       id="rect5793"
       width="1047.8777"
       height="554.57855"
       x="-72.003288"
       y="552.93506" />
    <path
       style="fill:#eb7239;fill-opacity:1;fill-rule:evenodd;stroke:none;stroke-width:1px;stroke-linecap:butt;stroke-linejoin:miter;stroke-opacity:1"
       d="M 519.1127,626.88167 -8.7246163,1417.8058 -4.1369333,625.92414 Z"
       id="path5789"
       inkscape:connector-curvature="0" />
    <rect
       style="opacity:1;fill:#8e9c48;fill-opacity:1;fill-rule:evenodd;stroke:none;stroke-width:0.5388729px;stroke-linecap:butt;stroke-linejoin:miter;stroke-opacity:1"
       id="rect3336"
       width="425.05621"
       height="436.10889"
       x="-579.58929"
       y="323.49255" />
    <flowRoot
       xml:space="preserve"
       id="flowRoot3814-6-3-2-3"
       style="font-style:normal;font-weight:normal;font-size:71.38657379px;line-height:125%;font-family:sans-serif;letter-spacing:0px;word-spacing:0px;fill:#ffffff;fill-opacity:1;stroke:none;stroke-width:1px;stroke-linecap:butt;stroke-linejoin:miter;stroke-opacity:1"
       transform="matrix(0.71585582,0.00418239,-0.00418239,0.71585582,-101.11787,605.00463)"><flowRegion
         id="flowRegion3816-3-6-9-6"><rect
           id="rect3818-2-7-3-7"
           width="604.40228"
           height="196.86845"
           x="100.65582"
           y="59.190723"
           style="fill:#ffffff;fill-opacity:1;stroke:none;stroke-opacity:1" /></flowRegion><flowPara
         style="font-style:normal;font-variant:normal;font-weight:500;font-stretch:normal;font-size:77.14039612px;font-family:Ubuntu;-inkscape-font-specification:'Ubuntu Medium';text-align:center;text-anchor:middle;fill:#ffffff;fill-opacity:1;stroke:none;stroke-opacity:1"
         id="flowPara4915-1-5">Libertés</flowPara><flowPara
         style="font-style:normal;font-variant:normal;font-weight:500;font-stretch:normal;font-size:77.14039612px;font-family:Ubuntu;-inkscape-font-specification:'Ubuntu Medium';text-align:center;text-anchor:middle;fill:#ffffff;fill-opacity:1;stroke:none;stroke-opacity:1"
         id="flowPara5183">numériques</flowPara></flowRoot>    <text
       xml:space="preserve"
       style="font-style:normal;font-weight:normal;font-size:24.92421722px;line-height:125%;font-family:sans-serif;letter-spacing:0px;word-spacing:0px;fill:#ffffff;fill-opacity:1;stroke:none;stroke-width:1px;stroke-linecap:butt;stroke-linejoin:miter;stroke-opacity:1"
       x="181.39859"
       y="808.0542"
       id="text5786-3-3"
       sodipodi:linespacing="125%"
       transform="matrix(0.97197417,0.00567879,-0.00601079,1.0287988,0,0)"><tspan
         sodipodi:role="line"
         id="tspan5788-6-5"
         x="181.39859"
         y="808.0542"
         style="font-style:normal;font-variant:normal;font-weight:500;font-stretch:normal;font-size:32.49395752px;font-family:Ubuntu;-inkscape-font-specification:'Ubuntu Medium';text-align:center;text-anchor:middle;fill:#ffffff;fill-opacity:1">Guide</tspan><tspan
         sodipodi:role="line"
         x="181.39859"
         y="848.67163"
         style="font-style:normal;font-variant:normal;font-weight:500;font-stretch:normal;font-size:32.49395752px;font-family:Ubuntu;-inkscape-font-specification:'Ubuntu Medium';text-align:center;text-anchor:middle;fill:#ffffff;fill-opacity:1"
         id="tspan5791">de bonnes pratiques</tspan><tspan
         sodipodi:role="line"
         x="181.39859"
         y="889.28912"
         style="font-style:normal;font-variant:normal;font-weight:500;font-stretch:normal;font-size:32.49395752px;font-family:Ubuntu;-inkscape-font-specification:'Ubuntu Medium';text-align:center;text-anchor:middle;fill:#ffffff;fill-opacity:1"
         id="tspan5767"> à l’usage des DuMo</tspan></text>
    <path
       inkscape:connector-curvature="0"
       d="m 1237.6393,666.41005 a 60,60 0 0 1 -120,0 60,60 0 1 1 120,0 z"
       id="path6147-5"
       style="display:inline;fill:#0c5b7a;fill-opacity:1;stroke:none" />
    <path
       inkscape:connector-curvature="0"
       d="m 1183.4021,981.78275 a 60,60 0 0 1 -120,0 60,60 0 1 1 120,0 z"
       id="path6147-4"
       style="display:inline;fill:#eb7239;fill-opacity:1;stroke:none" />
    <g
       id="g5125"
       transform="matrix(0.50442663,0,0,0.52836259,115.45893,629.54826)"
       style="fill:#000000">
      <ellipse
         style="opacity:1;fill:#ffffff;fill-opacity:1;stroke:none;stroke-width:2.06699991;stroke-miterlimit:4;stroke-dasharray:none;stroke-opacity:1"
         id="path5952"
         cx="1092.853"
         cy="407.91721"
         rx="416.69406"
         ry="379.59225" />
      <g
         id="g5156"
         transform="matrix(1.7309413,0,0,1.7309413,-351.8675,-487.69224)"
         style="fill:#000000">
        <path
           style="fill:#000000"
           d="m 791.1525,640.56547 c -0.52894,-1.58693 0.24366,-20.74977 1.1395,-28.26102 1.47482,-12.36612 3.5733,-24.85266 4.31308,-25.66449 0.1777,-0.19507 1.78031,0.88003 2.22161,1.04886 0.93033,0.35699 -0.26826,1.28157 -1.79403,12.66966 -0.48407,3.61288 -1.58253,13.50032 -2.44092,21.97201 -1.75796,17.35033 -1.90906,18.34774 -2.7785,18.34774 -0.34266,0 -0.63999,-0.0509 -0.66074,-0.11332 z m 229.4982,-9.43261 c -37.4803,-2.42963 -125.39052,-21.42413 -225.14802,-48.647 -11.45698,-3.12646 -21.11778,-5.68452 -21.46856,-5.68452 -0.51056,0 -0.58148,0.56512 -0.35529,2.83149 1.4684,14.71378 1.50144,30.9812 0.0868,42.69819 -1.55567,12.88389 -2.02619,9.52077 -2.50382,-17.89481 -0.3774,-21.66509 -0.75591,-27.6599 -1.81332,-28.71968 -0.2749,-0.27547 -5.63772,-1.95088 -11.91725,-3.72315 -12.04804,-3.40034 -12.59896,-3.68493 -11.09481,-5.73323 0.55317,-0.75342 0.87599,-0.7373 6.24626,0.31008 7.85098,1.53109 13.47731,2.91064 28.72543,7.04275 48.1212,13.04062 80.10474,21.10899 123.04007,31.03882 25.73282,5.95129 40.02463,8.97852 68.40776,14.48985 40.91225,7.94434 54.78765,10.93481 55.92665,12.05367 0.4783,0.46986 0.027,0.46637 -8.1318,-0.062 z m -21.97204,-24.02707 c -18.62027,-1.12834 -46.5519,-4.25851 -68.63434,-7.69154 -44.12472,-6.85999 -81.41914,-15.834 -128.88731,-31.01368 -23.83159,-7.62097 -49.36415,-16.72521 -55.37025,-19.74365 -3.80242,-1.91096 -4.15184,-1.81241 -3.81404,1.07579 0.15301,1.30818 0.39329,3.9074 0.53379,5.7762 0.24693,3.28125 0.2308,3.35455 -0.4694,2.13669 -2.01515,-3.50441 -3.37147,-13.9156 -1.81287,-13.9156 0.37379,0 0.67957,0.26509 0.67957,0.58904 0,0.32383 0.24479,0.83381 0.54415,1.13307 0.42351,0.4235 0.8584,0.23959 1.96182,-0.82987 l 1.41778,-1.37415 4.2673,1.6302 c 30.22981,11.54855 80.67511,27.20968 113.22139,35.15041 33.41612,8.15306 60.92313,12.8716 113.25776,19.42828 16.07123,2.01345 31.97269,4.05916 35.33649,4.54614 8.1958,1.18653 15.4418,2.72201 15.1411,3.20854 -0.2967,0.48023 -18.8877,0.40828 -27.37294,-0.10598 z m -40.09332,-46.00484 c -8.83758,-1.05087 -16.82206,-2.75594 -29.04194,-6.20205 -12.76868,-3.60081 -12.62387,-3.60184 -23.00306,0.15379 -7.33685,2.65469 -13.22711,3.7315 -20.44002,3.73657 -6.59129,0 -10.4758,-0.5552 -19.8998,-2.86847 -3.96825,-0.97408 -8.17344,-1.77103 -9.34495,-1.77103 -1.34063,0 -2.33897,-0.25178 -2.69391,-0.67958 -0.81521,-0.9822 -1.35904,-0.83551 -1.35904,0.36646 0,2.04548 -0.96212,2.61556 -6.36724,3.77242 -7.14133,1.5285 -21.63886,1.96678 -29.70603,0.89798 -8.68718,-1.151 -14.99033,-3.44318 -16.92003,-6.15335 -1.9971,-2.80466 -1.06753,-6.20071 3.00256,-10.97033 1.20773,-1.41518 2.56303,-3.09827 3.01177,-3.74007 3.41422,-4.88312 21.42762,-6.23369 32.99913,-2.47412 7.82143,2.54121 14.41888,7.12852 14.42986,10.03318 0,1.38485 -1.46573,0.87779 -5.58529,-1.92528 -2.33571,-1.58927 -4.48076,-2.71828 -5.16486,-2.71828 -1.32823,0 -6.00898,3.32197 -6.00898,4.26471 0,0.35235 0.91135,0.83652 2.15185,1.14344 1.18348,0.29271 3.91141,1.64204 6.06191,2.99847 4.33975,2.73713 5.17996,2.99364 4.73956,1.44687 -0.78262,-2.7485 -0.80011,-3.38387 -0.10036,-3.65256 0.8248,-0.31651 1.08649,0.0248 2.36291,3.08451 0.74615,1.78851 1.12866,2.22487 1.81214,2.06746 2.75934,-0.63503 8.87815,-0.11602 14.23073,1.20726 7.84796,1.94006 11.48858,2.4249 18.1795,2.42107 7.28793,0 12.64984,-1.05504 21.3434,-4.18319 8.84777,-3.18362 10.60061,-3.18678 22.31582,-0.0406 15.9713,4.28873 23.17918,5.64032 34.4305,6.45654 11.6456,0.84476 12.59004,0.95707 12.1071,1.43999 -0.24726,0.24727 -1.93755,0.84025 -3.75608,1.31777 -3.10324,0.81465 -9.50633,1.07973 -13.78752,0.57064 z m -107.8441,-6.09426 c 0.56624,-0.53141 -0.0326,-1.05357 -1.93995,-1.69053 -0.83032,-0.27737 -3.27665,-1.61836 -5.43643,-2.97999 -2.15959,-1.3615 -4.53276,-2.623 -5.27345,-2.80318 -0.74076,-0.18019 -1.67912,-0.73799 -2.08538,-1.23963 -0.7259,-0.8965 -0.7774,-0.87565 -3.02496,1.22666 -1.25776,1.17637 -2.86751,3.25071 -3.57764,4.60974 -0.71012,1.35903 -1.42951,2.47135 -1.59852,2.47192 -0.58397,0 -1.73123,-1.42499 -1.73123,-2.15338 0,-2.49244 5.34576,-8.74592 9.97422,-11.66762 0.99257,-0.62657 1.8046,-1.41563 1.8046,-1.75344 0,-0.6604 -3.66972,-1.80339 -7.45355,-2.32146 -1.23401,-0.16901 -4.9036,-0.30218 -8.15453,-0.29597 -5.82501,0.0113 -5.96338,0.0349 -9.5194,1.66003 -6.51641,2.97773 -11.11498,7.29781 -11.11498,10.44197 0,3.46506 6.39616,5.8921 18.37424,6.97205 5.07798,0.45779 30.17551,0.0687 30.75696,-0.47717 z M 972.1763,544.76047 c -5.99886,-0.35552 -11.14524,-1.84805 -22.11577,-6.41415 -9.86072,-4.10411 -14.86658,-5.42322 -36.26049,-9.55489 -13.25923,-2.56076 -19.05459,-4.61379 -23.13394,-8.19555 -0.83283,-0.73121 -1.79306,-1.32938 -2.13387,-1.32926 -0.34089,2.2e-4 -4.08542,1.84138 -8.3213,4.09163 l -7.70155,4.09129 -7.47497,-0.15796 c -7.02126,-0.14827 -7.83243,-0.26013 -13.36438,-1.84151 -23.48888,-1.03907 -9.19847,-5.50877 5.20979,-1.65072 0.87219,0.27264 4.23583,0.79954 7.47503,1.17084 l 5.88941,0.67518 0.92314,-1.1509 c 0.5076,-0.63288 1.29809,-1.15077 1.7567,-1.15077 0.45844,0 3.203,-1.30039 6.09886,-2.88978 6.94569,-3.81223 14.81704,-7.72165 16.92365,-8.4055 0.93057,-0.30196 2.10256,-0.41877 2.60465,-0.25946 1.45911,0.4632 0.39914,1.77769 -2.93909,3.64446 -3.36174,1.88007 -3.69414,2.24821 -2.89709,3.20865 1.9405,2.33819 9.43112,4.64481 23.43982,7.21786 20.07078,3.68651 25.08555,5.0249 37.22059,9.93367 11.53198,4.66483 13.01619,5.02621 23.33117,5.6821 9.62677,0.61215 10.8631,1.08674 6.22912,2.39119 -2.56021,0.72072 -7.18934,1.10521 -10.75948,0.89358 z m -231.27249,-5.74845 c 0,-0.78162 -14.25883,-0.56813 21.61804,-10.27439 10.33179,-2.79521 1.45942,1.37917 2.38636,2.30612 0.83303,0.83303 -6.87813,2.47525 -18.91815,7.0712 -2.5274,0.96473 -5.08625,1.41608 -5.08625,0.89707 z m 248.61173,-11.12137 c -1.43093,-1.12564 -2.76695,-4.22481 -4.24982,-9.8588 -0.641,-2.43561 -1.43572,-4.70954 -1.76592,-5.05332 -0.50706,-0.52769 -2.17328,0.14128 -10.71878,4.30384 l -10.11835,4.92872 -7.02206,-0.0992 c -14.88911,-0.21086 -32.80159,-1.82347 -41.9054,-3.77289 -9.10682,-1.94997 -11.55088,-4.31985 -9.5051,-9.21621 0.67403,-1.61317 0.66482,-1.65737 -0.45303,-2.16669 -0.62762,-0.28594 -1.14107,-0.79278 -1.14107,-1.12619 0,-1.23545 3.82392,-4.53227 8.07626,-6.96304 2.41901,-1.38282 4.3821,-2.80341 4.3821,-3.17122 0,-0.53761 -1.22466,-0.73526 -6.34244,-1.02347 -11.27685,-0.63503 -23.96381,-2.07591 -24.46368,-2.77838 -0.24917,-0.35022 -0.6782,-1.00972 -0.95346,-1.46569 -0.42437,-0.70292 -0.61086,-0.7372 -1.22719,-0.22573 -0.6318,0.5243 -0.7736,0.43511 -1.08514,-0.68262 -0.19724,-0.7072 -0.34696,-5.56702 -0.33283,-10.79952 0.0203,-7.46361 0.24284,-10.92917 1.03344,-16.08261 3.02172,-19.69603 11.47727,-54.97964 15.96343,-66.61277 1.44259,-3.74064 4.11036,-7.23133 5.52648,-7.23133 0.93045,0 2.30945,1.37841 1.83057,1.82963 -0.20295,0.19116 -0.77667,0.42094 -1.27495,0.51059 -0.60073,0.10814 -0.92344,0.54279 -0.95764,1.28982 -0.0282,0.61974 -0.68255,2.99933 -1.45395,5.28801 -3.50832,10.4106 -8.96588,32.60166 -12.99992,52.85944 -2.65197,13.31754 -6.30284,36.72703 -5.89399,37.79255 0.17556,0.45733 0.70509,0.55126 1.93939,0.34379 0.93382,-0.15696 4.95969,0.0236 8.94635,0.40174 8.55022,0.81037 22.00496,1.45972 39.00425,1.88244 l 12.27536,0.30523 0.27446,-7.19431 c 0.35451,-9.29647 1.56525,-16.34897 4.89028,-28.48682 3.98641,-14.55179 13.86554,-42.17502 17.05478,-47.68714 0.61442,-1.06204 1.01239,-2.20407 0.88421,-2.53787 -0.12798,-0.3338 -1.11718,-0.73098 -2.19814,-0.88264 -1.08096,-0.15166 -6.24649,-1.62136 -11.47894,-3.26604 -12.19925,-3.83441 -18.45059,-5.31814 -28.52892,-6.77125 -9.34421,-1.34726 -13.60901,-2.25727 -15.07235,-3.21606 -0.98435,-0.64494 -8.194,-0.21802 -7.4727,-1.3189 -1.43437,-2.31139 0.23185,-1.14221 41.00632,-3.9059 14.29501,-1.10297 23.33442,-0.98053 35.35756,0.47892 10.02633,1.21708 11.63209,1.56067 11.63209,2.48896 0,0.3279 -0.45867,0.71912 -1.01932,0.86935 -1.82467,0.48903 -8.73531,0.30114 -16.51052,-0.44886 -5.73343,-0.55306 -9.90658,-0.66281 -16.90052,-0.44447 -10.12934,0.31622 -22.93135,1.3076 -23.43884,1.81508 -0.38551,0.38556 0.74272,1.15934 1.70472,1.16898 4.07609,0.0409 30.5601,8.4659 32.74253,10.41593 1.31417,1.17422 1.48961,1.21633 2.4486,0.58796 1.20319,-0.78841 2.39907,-0.48443 2.39907,0.60987 0,0.41936 -1.91761,5.57333 -4.26125,11.45326 -7.22291,18.12097 -13.7419,37.62372 -17.20234,51.46356 -2.43597,9.74213 -3.93896,22.53402 -2.8192,23.99238 0.42651,0.55555 1.67709,0.39283 8.65323,-1.1263 4.48499,-0.97657 10.3461,-2.0182 13.0246,-2.31474 4.20053,-0.465 4.87008,-0.65194 4.87008,-1.3597 0,-0.9405 -2.15407,-2.20295 -3.75867,-2.20295 -0.59705,0 -1.72681,-0.32 -2.51091,-0.71112 l -1.42547,-0.7111 0.16612,-6.87717 c 0.18477,-7.65225 0.96426,-11.50349 4.36546,-21.56926 3.52122,-10.42069 10.40075,-25.894 13.08077,-29.421 0.79527,-1.04653 0.84893,-1.05419 2.01878,-0.28767 0.66108,0.4331 1.20184,0.95782 1.20184,1.16603 0,0.20823 -1.24291,3.08983 -2.76205,6.4036 -3.9033,8.51496 -8.12291,19.08411 -10.33843,25.89617 -2.90544,8.93306 -5.97664,21.20186 -5.4624,21.82146 0.26544,0.31985 2.7901,0.64414 6.44176,0.82747 8.45269,0.42432 16.99874,1.44641 25.81436,3.0873 8.5169,1.58528 8.9584,1.51581 8.9584,-1.41008 0,-2.34413 1.1244,-5.87773 3.4649,-10.88863 2.4074,-5.15377 5.5159,-10.23782 7.2088,-11.78969 l 1.2356,-1.13258 -0.302,1.57963 c -0.1659,0.86881 -2.4374,5.96541 -5.0475,11.32578 -3.8179,7.84085 -4.768,10.18897 -4.86,12.01131 l -0.1143,2.26516 4.004,-0.14823 c 3.6751,-0.13606 3.9912,-0.0803 3.8479,0.67955 -0.1838,0.97463 -4.679,2.24887 -9.5558,2.70869 -2.4565,0.23159 -3.2211,0.1459 -3.8603,-0.43253 -1.1536,-1.044 -26.20402,-4.83188 -27.33453,-4.13323 -0.73142,0.45203 -0.41141,1.51385 0.62025,2.05832 0.56065,0.29576 2.1127,1.53222 3.44922,2.74772 1.33621,1.21537 3.30998,2.81537 4.38591,3.55571 2.41755,1.66324 11.49834,6.32845 12.31853,6.32845 1.14912,0 1.12482,1.39376 -0.054,3.09443 -0.65216,0.94117 -1.18568,2.15712 -1.18568,2.70217 0,0.72884 -0.65942,1.3632 -2.49176,2.39727 -1.37046,0.7735 -2.4917,1.65433 -2.4917,1.95753 0,0.30331 0.60798,2.3498 1.35095,4.54806 2.33884,6.91896 4.86614,9.91597 10.37791,12.30636 1.9817,0.85942 2.7651,1.43131 2.6611,1.94288 -0.2212,1.08796 -3.3712,0.86911 -6.0327,-0.41934 -4.35139,-2.10647 -7.67967,-6.61497 -9.91176,-13.42691 -0.6666,-2.03409 -1.48029,-3.8013 -1.80816,-3.92713 -0.63455,-0.24343 -3.43362,1.25936 -3.43165,1.84263 0,1.1068 2.53866,9.52798 3.86934,12.85412 0.86127,2.1526 1.56599,4.04135 1.56599,4.1974 0,0.61237 -1.74972,0.23656 -2.82068,-0.60583 z m -26.22992,-8.56766 c 0.46716,-0.46714 0.92652,-1.08075 1.02074,-1.36353 0.0947,-0.28279 0.63671,-0.60381 1.20559,-0.71329 0.56886,-0.10937 2.22969,-0.92549 3.691,-1.81309 1.4612,-0.88771 5.02152,-2.72506 7.91163,-4.08307 4.17744,-1.96294 5.25496,-2.65841 5.25496,-3.39233 0,-0.64326 -0.29613,-0.92312 -0.97636,-0.92312 -0.95401,0 -0.9572,-0.0214 -0.13959,-0.92447 0.75671,-0.83607 0.78434,-1.17715 0.29011,-3.57037 -0.90902,-4.40092 -3.72876,-12.89359 -4.56891,-13.76077 -0.75831,-0.78263 -0.93529,-0.77147 -4.60568,0.29033 -2.09937,0.6073 -5.5263,1.48317 -7.61542,1.94648 -2.82509,0.62647 -3.96585,1.09665 -4.45178,1.83508 -0.89282,1.35655 -1.27133,8.65267 -0.65328,12.59478 0.58661,3.74255 1.26089,4.44603 3.91016,4.07958 1.00221,-0.13858 2.43363,-0.079 3.18113,0.13361 1.11289,0.31572 1.35905,0.62602 1.35905,1.71218 0,2.12531 -2.50594,2.56347 -14.95,2.61364 -10.75144,0.0439 -39.48479,-0.90766 -43.49096,-1.43953 -2.04425,-0.27139 -2.26254,-0.41111 -2.23805,-1.43322 0.0147,-0.62297 0.18152,-1.5913 0.37029,-2.15192 0.28109,-0.83473 0.17692,-1.0193 -0.57533,-1.0193 -1.23092,0 -2.21662,3.01889 -1.45204,4.44759 1.28667,2.40404 14.11385,4.54514 35.94804,6.00013 8.03513,0.53547 15.73054,1.1272 17.10094,1.31505 1.3704,0.18773 2.74645,0.37017 3.05799,0.40524 0.31142,0.0349 0.94849,-0.31842 1.41577,-0.78568 z m -6.81187,-9.96861 c 0.49816,-0.31571 0.51043,-1.01931 0.0688,-3.93255 -0.29576,-1.95143 -0.46685,-5.49587 -0.38012,-7.87635 l 0.15778,-4.32842 -1.78901,0.1105 c -0.98397,0.0609 -3.02257,0.44032 -4.53036,0.84386 -5.27068,1.41078 -6.44606,1.4914 -17.74857,1.21786 l -11.38287,-0.27557 -1.59907,1.59908 c -0.87961,0.8796 -4.08838,2.86825 -7.13084,4.41942 -6.18909,3.15532 -6.2643,3.35501 -1.80207,4.77887 1.37046,0.43726 3.30722,1.22575 4.30384,1.7522 1.71049,0.9035 2.86701,0.98468 20.61301,1.44731 10.34034,0.2696 19.20848,0.52128 19.70676,0.55938 0.4984,0.0384 1.17906,-0.10373 1.5127,-0.31526 z m 32.54051,-5.63412 c 0.69434,-0.70438 -0.36679,-7.074 -1.26476,-7.5912 -0.34279,-0.19742 -1.32534,-0.88242 -2.18348,-1.52218 -1.7513,-1.30559 -2.74344,-1.48701 -2.74344,-0.50188 0,1.38565 2.41386,10.00088 2.89396,10.3291 0.62714,0.4287 2.59053,0 3.29772,-0.71384 z m 6.90788,-1.2403 c 1.05033,-0.76087 1.8327,-1.61442 1.7386,-1.89676 -0.19361,-0.58079 -5.63809,-1.99372 -6.05933,-1.57247 -0.15034,0.1503 -0.0258,1.30367 0.27593,2.56302 0.65912,2.74794 1.30319,2.89215 4.0448,0.90621 z m -127.96749,16.74696 c -0.16734,-0.27082 -0.12843,-0.65262 0.0868,-0.84825 0.62854,-0.572 11.05561,-7.22913 14.64165,-9.34802 0.88287,-0.52171 3.56596,-2.19397 5.9622,-3.71604 5.45166,-3.46304 7.35778,-4.37792 8.33789,-4.00188 1.12209,0.43061 0.30565,1.25687 -4.30397,4.35547 -4.98487,3.35096 -23.16719,14.05124 -23.87633,14.05124 -0.29901,0 -0.6806,-0.22167 -0.848,-0.49252 z m -12.76266,-2.69088 c -6.76638,-16.35048 19.47066,-18.97014 6.64605,-20.38115 1.26028,0.36137 2.24167,0.22877 5.18346,-0.70055 1.99588,-0.63052 4.51557,-1.26792 5.59947,-1.41654 1.89128,-0.25921 1.95923,-0.32225 1.68637,-1.56458 -0.15635,-0.71203 -0.16034,-1.29452 -0.011,-1.29452 0.15138,0 1.48041,0.6083 2.95345,1.35192 3.09476,1.56222 11.56468,4.99051 12.32951,4.99051 0.87236,0 3.99383,1.50831 3.99383,1.92979 0,0.21807 -0.35672,0.29564 -0.79276,0.17252 -3.20979,-0.90677 -4.56197,-0.79752 -7.31235,0.59094 -1.5222,0.76843 -2.76756,1.69989 -2.76756,2.07006 0,0.46026 -0.47568,0.67304 -1.50447,0.67304 -1.62804,0 -6.28203,2.15372 -6.54483,3.02881 -0.0891,0.29541 0.4119,0.86617 1.11251,1.26837 l 1.27384,0.73132 -1.35905,-0.25212 c -0.74756,-0.13869 -1.9804,-0.37265 -2.73982,-0.52002 -1.65082,-0.32023 -4.73527,0.84386 -4.73527,1.78727 0,0.35946 0.84094,0.98999 1.86869,1.4012 2.79274,1.1174 1.77997,1.37741 -1.87574,0.48146 l -3.22129,-0.7894 -2.91606,1.23941 c -1.60392,0.6816 -2.91614,1.48937 -2.91614,1.79505 0,0.30567 -2.95787,0.24533 -1.21361,1.33983 1.74419,1.0944 -0.6655,1.15993 -0.6655,1.35139 0,0.83169 3.46437,2.34191 -2.07396,0.71621 z m 3.43509,-4.93808 c 0.94112,-0.48011 1.97721,-1.19362 2.3025,-1.58556 0.5108,-0.61552 0.36974,-0.80517 -1.03504,-1.39217 5.08044,1.47414 -8.46705,6.57128 -1.26746,2.97717 z m 7.73359,-4.01891 c 23.20004,-5.76236 -16.05441,-16.27097 -3.93122,0.0615 2.39483,0.84769 2.09072,0.85243 3.93122,-0.062 z m 7.32654,-3.51207 c 1.25408,-0.63549 2.20109,-1.40008 2.10435,-1.69887 -2.10435,1.69887 -13.82387,6.60007 -2.10435,1.69887 z m 8.90216,-4.12106 c 1.55726,-0.66097 2.83141,-1.45487 2.83141,-1.76427 0,-0.6674 -3.17598,-2.01988 -4.7435,-2.01988 -0.60545,0 -1.26383,-0.27818 -1.46322,-0.61813 -0.1992,-0.33996 -1.01067,-0.94961 -1.80336,-1.35463 -1.39385,-0.71227 -1.53504,-0.69198 -4.30384,0.61779 -1.5744,0.74484 -3.09249,1.3544 -3.37341,1.35462 -0.28096,2.3e-4 -0.7421,0.27918 -1.02491,0.61982 -0.38858,0.46815 -0.36329,0.74463 0.10375,1.13205 1.00662,0.83552 2.6063,0.74046 5.85036,-0.34739 3.46394,-1.16149 5.04822,-1.03903 2.51036,0.19416 -2.28974,1.11255 -2.49839,1.92764 -0.69447,2.71174 2.07954,0.90395 2.91078,0.83247 6.11095,-0.52588 z m 138.75523,-17.62581 c -0.027,-2.55587 5.9816,-18.58767 11.1901,-29.85847 2.5187,-5.45006 2.6434,-5.61748 3.5269,-4.7339 0.6059,0.60596 0.012,2.30074 -5.385,15.38364 -7.0432,17.07103 -7.6555,18.47129 -8.6075,19.68601 -0.6879,0.87768 -0.7105,0.86273 -0.7245,-0.47728 z M 920.76531,451.53823 c -0.0123,-3.96964 6.92021,-26.0493 8.17944,-26.0493 0.23106,0 0.42002,0.16992 0.42002,0.3776 0,0.82466 -3.7133,13.85376 -5.64503,19.80672 -2.40201,7.40269 -2.94609,8.48256 -2.95443,5.86498 z m -9.52174,-1.09273 c 0,-2.87598 3.76868,-17.47518 6.35933,-24.63477 1.38329,-3.82282 2.24823,-5.24694 2.24823,-3.70157 0,1.45438 -7.997,29.20255 -8.41621,29.20255 -0.10485,0 -0.19135,-0.38979 -0.19135,-0.86621 z m 110.67683,0.30253 c -0.2,-0.3129 -1.9946,-1.88734 -3.9879,-3.49877 -15.0519,-12.16797 -25.59628,-22.42041 -25.59628,-24.88742 0,-0.76782 3.12453,-1.55286 3.83478,-0.96347 0.47673,0.39569 1.86702,0.34331 5.7586,-0.21697 5.3596,-0.77162 9.8518,-0.76994 9.9651,0.004 0.1248,0.85103 -3.2338,2.10716 -7.4343,2.78065 -2.3079,0.37004 -4.391,0.8653 -4.62914,1.10061 -0.53696,0.53049 1.59334,2.55893 14.09514,13.42094 5.2718,4.58024 9.6993,8.62595 9.8392,8.99043 0.4005,1.04369 1.203,0.82558 6.6788,-1.8153 4.918,-2.37184 6.3217,-2.61282 5.6943,-0.97761 -0.2823,0.73553 -10.6167,5.95073 -12.6327,6.37496 -0.7413,0.15599 -1.3648,0.0334 -1.5856,-0.31177 z m 9.3183,-11.27757 c -5.2632,-3.45595 -8.2388,-5.8434 -12.7941,-10.26527 -4.4396,-4.30931 -5.1266,-5.28769 -4.3609,-6.21021 0.309,-0.37249 0.7582,-0.67727 0.9981,-0.67727 0.2399,0 1.9987,1.58685 3.9086,3.52633 1.9098,1.93951 6.5813,6.04079 10.381,9.114 3.7999,3.0732 6.9089,5.85739 6.9089,6.18708 0,1.3147 -0.9897,0.98596 -5.0416,-1.67466 z m -16.5775,-27.45935 c 0.309,-3.6614 2.8301,-10.98601 3.7814,-10.98601 0.358,0 0.7649,0.29719 0.9043,0.6604 0.4877,1.27081 -3.7303,13.38357 -4.6606,13.38357 -0.1557,0 -0.1669,-1.37609 -0.025,-3.05796 z m -33.87734,-6.79105 c -2.7324,-0.20752 -3.12454,-0.53255 -2.74241,-2.27259 l 0.29393,-1.33838 9.83186,-0.29419 c 5.40745,-0.1618 12.78786,-0.41997 16.40086,-0.5737 6.294,-0.26781 6.6048,-0.23948 7.4279,0.67723 0.8538,0.95103 0.8491,0.96078 -0.7666,1.63587 -0.894,0.37352 -3.5229,0.8814 -5.8422,1.12861 -4.7095,0.502 -19.86562,1.41753 -21.36911,1.29084 -0.53296,-0.0449 -1.98838,-0.15906 -3.23423,-0.25369 z m 34.43034,-7.12494 c -3.127,-0.7278 -21.60974,-7.47177 -22.33453,-8.14941 -0.48323,-0.45193 -0.48323,-0.63708 0,-1.03193 0.99496,-0.8128 5.09734,0.1329 14.15983,3.26426 9.0162,3.11536 11.2581,4.15103 11.48,5.30359 0.1994,1.03507 -0.7426,1.20992 -3.3053,0.61349 z"
           id="path4203"
           inkscape:connector-curvature="0"
           sodipodi:nodetypes="csccssscccssscscsccsssccccssssscsscccssssccccsscsscssscccscsssccccccccscsscccccsccsscssscccscccssscscccccccscccccsssccssscscccsccscssssscccccscsccccscscsccsccssssccsscsscsssscssccssccssccscccssscccccccscscscccscscscccccccssccscccssscccccccccscsccscsccsccccccscsccsscccccssccccsccccccccsccccscsscsscssscccscsscccscscccccccccccccccscccscccccccccsccccssccscssscsscssscscsccccsccsscsscscsccsscssccscssscscss" />
        <path
           style="fill:#000000"
           d="m 721.29289,657.57274 c 16.24883,-2.83614 24.73128,-10.6113 26.38509,-24.18488 0.48634,-3.99151 0.75363,-4.53834 2.05263,-4.19868 24.91789,-4.43329 11.16928,-40.60203 -3.57515,-43.95482 -2.61064,-0.48978 -2.9559,-0.38201 -2.71672,0.84802 0.15069,0.77502 1.35255,1.79438 2.6708,2.26535 29.19978,6.87164 2.18026,44.55369 0.85002,35.27279 -1.09155,-8.22567 -8.75902,-19.60147 -15.54519,-23.06349 -4.08838,-2.08576 -9.33481,-2.85889 -9.33481,-1.37564 0,0.6991 1.50151,1.51669 3.92739,2.13839 8.63475,2.21302 16.81829,13.58262 18.08552,25.12681 1.31873,12.01344 -2.6336,19.87257 -12.41121,24.67959 l -5.25616,2.58415 -12.59604,-0.0747 c -11.39427,-0.0677 -13.47066,-0.30436 -21.76326,-2.48342 -16.89022,-4.43827 -32.27939,-11.58733 -38.60575,-17.93445 -3.90093,-3.91379 -4.33526,-5.5333 -2.11716,-7.8943 l 1.78471,-1.89968 -1.71045,0 c -0.94075,0 -2.41844,0.70797 -3.28377,1.57328 -8.01712,8.01714 18.19691,24.58297 48.37968,30.57336 7.91951,1.57176 21.13025,2.63915 24.77983,2.0022 z m -82.97496,-84.01873 c 1.86183,-2.8415 2.4604,-7.55643 0.95932,-7.55643 -0.73658,0 -1.38792,1.02636 -1.69707,2.67425 -0.72119,3.84434 -2.40108,5.02866 -4.47306,3.15357 -0.89293,-0.80814 -2.12993,-2.68126 -2.74889,-4.1627 -0.61896,-1.48136 -1.35365,-2.46508 -1.63266,-2.18605 -0.27901,0.27895 -0.9486,0.14097 -1.48797,-0.30664 -0.69811,-0.57938 -1.73903,-0.35156 -3.61236,0.79051 -1.44743,0.88248 -2.91886,1.60582 -3.26987,1.60739 -0.351,0 -0.39931,-1.58999 -0.10734,-3.53699 0.56804,-3.78801 -0.48027,-4.82081 -2.00378,-1.97412 -0.99125,1.85211 -1.27275,6.45762 -0.47372,7.7505 0.91694,1.48364 3.84023,1.04445 6.90352,-1.03705 l 2.86571,-1.94731 0.8132,2.33269 c 1.96491,5.63659 7.54105,8.09781 9.96497,4.39838 z m -16.14437,-18.87546 c 0,-0.61486 -1.14404,-1.30713 -2.61665,-1.5834 -3.74233,-0.70201 -5.54975,-2.22035 -4.93792,-4.14806 0.63029,-1.98585 3.63788,-3.40271 7.22295,-3.40271 1.71074,0 2.91117,-0.44352 3.19378,-1.17999 0.24905,-0.64899 0.94594,-1.17999 1.54864,-1.17999 1.26735,0 1.4643,-1.25276 0.30916,-1.96665 -1.38979,-0.85896 -0.866,-5.51812 0.82433,-7.33248 1.29255,-1.38743 1.91679,-1.56553 3.15812,-0.9012 1.85821,0.9945 4.99891,5.82248 5.73996,8.82367 0.70099,2.8389 2.86417,2.87792 2.86417,0.052 0,-5.08372 -5.91085,-12.83493 -9.78753,-12.83493 -4.37712,0 -8.4865,6.79282 -6.79723,11.23588 0.71552,1.88201 0.6037,1.96752 -3.23799,2.47712 -4.61884,0.61273 -8.49705,3.80901 -8.49705,7.00309 0,2.92214 4.08578,6.03039 7.92697,6.03039 2.109,0 3.08629,-0.34597 3.08629,-1.09244 z m 80.78526,-0.98719 c 0.51653,-0.21011 0.74415,-0.89019 0.50583,-1.51117 -0.29689,-0.77368 -1.707,-1.13697 -4.47911,-1.15379 -2.64729,-0.0157 -5.39389,-0.6848 -7.94571,-1.93449 -2.14495,-1.05043 -4.04655,-1.7633 -4.22579,-1.58403 -0.79551,0.79548 4.61005,5.04967 7.40102,5.82453 3.16134,0.87775 7.07374,1.03839 8.74376,0.35895 z m 27.85242,-3.41993 c 8.08923,-4.27551 11.57899,-14.3203 7.8378,-22.56019 -1.27359,-2.805 -3.5059,-4.98004 -5.11118,-4.98004 -0.93056,0 -0.37528,1.60621 1.52161,4.40146 1.45489,2.14388 1.96665,3.93071 1.96665,6.86653 0,9.14438 -6.50553,15.42949 -16.04728,15.50352 -3.00727,0.0236 -3.12242,0.10329 -1.69891,1.17999 2.11663,1.60093 8.12999,1.38649 11.53131,-0.41127 z m -82.56508,-7.42026 c 5.70298,-5.45722 9.94408,-8.49351 23.09215,-16.53209 4.75843,-2.90922 10.33566,-6.57373 12.39385,-8.14335 3.21116,-2.44888 3.58555,-3.0104 2.63859,-3.9573 -0.94696,-0.94699 -2.11158,-0.44926 -8.20764,3.50788 -3.90725,2.53635 -10.89443,6.91255 -15.52706,9.72487 -9.11693,5.53454 -15.07208,10.42766 -18.57327,15.26091 -2.14412,2.95989 -2.85856,5.22044 -1.63269,5.16608 0.32449,-0.0142 2.94172,-2.27652 5.81607,-5.027 z m 19.43929,-23.82577 c 2.07782,-4.07286 5.3518,-14.28994 8.006,-24.98413 1.18395,-4.77032 2.44467,-8.67333 2.8016,-8.67333 0.35693,0 0.86975,1.06198 1.1396,2.35997 1.25039,6.01434 6.23943,11.69011 9.9071,11.27082 1.42682,-0.16307 2.53817,-0.90679 3.02988,-2.02754 0.42709,-0.97349 1.04659,-1.76999 1.37665,-1.76999 1.27869,0 0.47783,1.37344 -2.49167,4.27307 -3.26633,3.18944 -3.57404,3.22106 -8.90479,0.9152 -1.62249,-0.70186 -2.94998,-0.94313 -2.94998,-0.53611 0,0.40694 1.32749,1.84125 2.94998,3.18732 l 2.94998,2.44745 -1.96665,1.53164 c -1.08167,0.84244 -3.38265,2.27832 -5.11331,3.19085 l -3.14664,1.65915 2.67177,-0.47105 c 1.46947,-0.25905 4.3227,-1.48687 6.3405,-2.72846 l 3.66874,-2.25732 7.03274,2.36329 c 8.39124,2.81986 21.02692,3.75166 29.90591,2.20547 14.26765,-2.48458 25.93408,-14.23101 30.79193,-31.00295 0.98699,-3.40757 1.81696,-7.12904 1.8444,-8.26985 l 0.0498,-2.07419 0.84501,1.96665 c 0.51592,1.20068 0.87947,9.39564 0.93347,21.04209 0.56329,7.43671 -0.75797,27.29428 1.25753,11.40769 1.40383,-11.10018 1.11228,-28.35292 -0.76105,-45.03636 -2.14758,-19.12586 -2.78229,-22.47516 -5.92594,-31.27066 -2.8292,-7.91577 -4.76278,-11.51161 -5.83411,-10.84947 -0.36463,0.22537 -1.10042,-0.11738 -1.63508,-0.76157 -1.05295,-1.26872 -3.13946,-1.59487 -3.13946,-0.4908 0,0.3743 0.65909,1.52479 1.46463,2.55666 3.06993,3.93235 6.36829,10.7509 7.94736,16.42934 1.6682,5.99891 3.10847,20.45319 2.03801,20.45319 -0.32295,0 -1.52684,-0.65387 -2.67529,-1.45304 -6.24209,-4.34355 -14.13093,-4.28974 -18.8812,0.12877 -1.67668,1.55956 -4.84007,6.8265 -4.84007,8.05849 0,0.27697 1.96079,-1.28847 4.35732,-3.47877 6.57622,-6.01026 11.74888,-6.23343 19.20999,-0.8286 l 3.368,2.43976 -0.53941,5.62997 c -1.33478,13.93114 -7.20611,27.37338 -14.87557,34.05717 -9.67194,8.429 -23.31526,10.61056 -40.2203,6.43126 -8.99877,-2.22467 -8.9834,-2.20799 -5.53895,-6.02055 l 2.92993,-3.24308 6.80455,0.46027 c 7.0859,0.47939 11.56508,-0.45075 10.90014,-2.26346 -0.19742,-0.53815 -0.8457,-0.82513 -1.44061,-0.63767 -1.67963,0.52918 -11.17844,0.42157 -12.65042,-0.14325 -1.11494,-0.42786 -0.54409,-1.80326 3.73134,-8.99028 2.77621,-4.6668 6.70503,-12.08799 8.73073,-16.4915 3.28963,-7.15098 3.83398,-7.912 5.09575,-7.12399 2.03161,1.26872 2.6937,0.1309 1.22664,-2.1081 -1.20916,-1.84543 -1.04807,-2.37784 4.20224,-13.88828 5.91571,-12.96912 8.74737,-18.26163 11.24549,-21.01825 1.32822,-1.46571 1.38957,-1.76998 0.35681,-1.76998 -2.26472,0 -5.51569,4.95345 -11.61647,17.69987 -3.31336,6.92263 -6.24603,13.19555 -6.51704,13.93981 -0.46051,1.26471 -0.71374,1.25299 -3.86974,-0.17937 -6.03138,-2.73734 -10.31752,-1.68054 -12.8214,3.16144 -1.3282,2.56845 -1.61148,7.43355 -0.38883,6.67797 0.43266,-0.26739 0.78665,-1.14617 0.78665,-1.95273 0,-2.57985 3.80643,-6.30722 6.441,-6.30722 2.19512,0 7.71891,2.07695 7.71891,2.90231 0,2.19345 -16.21055,32.5139 -17.96198,33.59634 -1.16874,0.72232 -13.02414,-5.63076 -15.73268,-8.43081 l -2.62155,-2.7102 1.19621,-6.58224 c 3.42781,-18.86177 6.06836,-42.37123 5.40013,-48.07853 -0.51445,-4.39382 -1.74565,-3.56499 -1.75287,1.17999 -0.01,6.31854 -3.45998,32.85421 -5.95825,45.82303 -3.08677,16.02365 -8.79616,39.03586 -11.29832,45.5388 -1.32872,3.45321 -0.35964,3.3975 1.41515,-0.0814 z m 18.26495,-25.18347 c -3.21022,-3.89452 -3.04928,-4.6535 0.53272,-2.51228 4.06327,2.42881 4.40653,2.8028 3.86579,4.21202 -0.7276,1.89609 -1.76499,1.4952 -4.39851,-1.69974 z m 91.26128,-34.94428 c 1.32649,-18.57843 -0.5826,-38.42928 -3.6958,-38.42928 -0.81348,0 -1.04557,0.47404 -0.72564,1.482 1.93986,6.11196 2.55568,28.39124 1.18445,42.8514 -1.8787,28.43452 -0.63626,43.82702 3.23699,-5.90412 z m -121.61016,35.06598 c 5.97166,-3.11369 10.67569,-8.32484 11.84247,-13.119 0.81858,-3.36353 -1.66341,-2.76834 -3.50442,0.84031 -2.68257,5.25829 -11.78621,11.94294 -16.26474,11.94294 -0.61312,0 -1.11477,0.35399 -1.11477,0.78666 0,1.23222 6.42823,0.91167 9.04146,-0.45091 z m -15.56618,-9.49847 c 4.3939,-1.55625 12.54163,-10.1211 11.18417,-11.75673 -0.74612,-0.89908 -1.70567,-0.27329 -5.34113,3.48334 -2.43739,2.51857 -6.1131,5.5587 -8.16825,6.75576 -2.05516,1.19715 -3.73665,2.31995 -3.73665,2.49514 0,0.62728 2.81042,0.17417 6.06186,-0.97751 z m 92.75797,-7.35371 c 2.21492,-1.67905 4.23537,-3.59543 4.48987,-4.25867 0.70243,-1.83048 -1.3739,-3.38312 -5.79096,-4.33041 -5.09713,-1.09315 -5.47936,-1.07694 -5.47936,0.2323 0,0.63129 1.48321,1.46005 3.53998,1.97798 1.94698,0.49024 3.53997,1.1088 3.53997,1.37469 0,0.26581 -1.23899,1.85472 -2.75331,3.53085 -2.61661,2.89633 -3.45611,4.67026 -2.16333,4.57129 0.3245,-0.0251 2.40221,-1.41898 4.61714,-3.09803 z m -103.37903,-2.68629 c 3.3213,-1.18582 10.24262,-5.46777 11.72477,-7.25364 0.80263,-0.96705 0.79316,-1.32035 -0.0492,-1.84104 -0.68558,-0.42369 -2.68815,0.56783 -5.84937,2.89619 -2.6438,1.94721 -6.13439,4.21831 -7.75687,5.04682 -4.66299,2.38122 -3.48352,3.08473 1.93075,1.15167 z m -6.86099,-12.05441 c 2.22711,-0.56403 9.84686,-5.55225 9.84686,-6.44621 0,-1.7405 -1.8559,-1.64797 -4.56949,0.22781 -1.59708,1.104 -4.85078,3.07829 -7.23042,4.38738 -3.93527,2.16481 -4.11317,2.37311 -1.96666,2.3031 1.29799,-0.0424 3.06187,-0.2548 3.91971,-0.47208 z"
           id="path4284-3"
           inkscape:connector-curvature="0"
           sodipodi:nodetypes="csccsccsscsscsssscsssccsssccccccscsscssscsscsccsssssssssscccscccssssscssssscssscscssscssscscccsccccssssccccssccsssscsssscssssccsccsscssssscsssssssccsssssccsccscscccssssssccscscsssscsccscccsccccssscc" />
        <path
           style="fill:#000000"
           d="m 751.11902,573.93238 c -0.58818,-4.38511 -3.75741,-2.99768 0.50822,-5.20349 3.00687,-1.5549 7.35439,-2.22536 4.49705,0.0378 -5.16003,4.08685 -3.77118,3.96805 -0.39768,10.24104 1.87295,3.48272 8.31222,9.61502 13.13794,12.51171 15.42922,4.71704 -2.70873,13.34943 -17.74553,-17.58701 z m 18.96355,-30.2907 c -7.13984,-3.67458 -7.52168,-13.30098 -1.32871,-33.49849 2.74696,-8.95873 4.34205,-13.01082 6.48245,-16.46727 1.39406,-2.25133 1.50023,-2.3038 2.61612,-1.29395 1.14343,1.03482 1.14336,1.08021 -0.006,2.69259 -2.26195,3.17656 -6.64359,15.68101 -8.81812,25.16531 -2.29231,9.99784 -1.79851,17.01203 1.37477,19.5273 3.12158,2.47427 11.20682,0.84325 22.99736,-4.6391 9.95013,-4.62666 10.18536,-4.71175 9.50422,-3.43894 -3.6904,6.89557 -26.50605,15.20381 -32.82331,11.95255 z m 42.35706,-16.56813 c -0.9418,-0.9418 -0.25574,-2.04309 2.09606,-3.36489 4.35731,-2.44898 5.22366,-5.74002 2.68151,-10.18689 -2.09594,-3.66628 -1.96562,-5.12681 0.61405,-6.8836 1.1736,-0.79922 2.13565,-1.62948 2.13792,-1.84492 0.0104,-0.97466 -5.24926,-2.357 -8.96809,-2.357 -12.9896,0 -18.05272,3.87599 -16.11647,12.33786 0.98144,4.28934 1.07246,5.61988 0.40951,5.98741 -1.06733,0.59167 -2.97774,-4.35884 -3.27265,-8.48049 -0.62411,-8.72236 3.98526,-12.50841 15.86128,-13.02831 l 4.02336,-0.17611 0.38926,-2.89923 c 0.21418,-1.59461 0.94609,-4.1982 1.62663,-5.78572 0.93714,-2.18633 1.08858,-3.21286 0.62437,-4.2318 -0.45727,-1.00367 -0.39263,-1.5282 0.25488,-2.06557 1.73818,-1.4425 21.12627,3.89603 31.36322,8.63598 4.37757,2.02696 5.00667,2.50213 4.35375,3.28884 -0.4197,0.50572 -1.11196,0.91956 -1.53829,0.91956 -0.81602,0 -1.93683,2.43335 -4.33994,9.42231 -1.57716,4.58657 -1.86512,6.65652 -0.51627,3.7108 1.78588,-3.90016 0.88797,1.09549 -1.31748,7.33012 -1.18846,3.35962 -2.29913,6.8054 -2.46806,7.65733 -0.28355,1.42963 -0.56219,1.54892 -3.61674,1.54892 -3.22619,0 -3.30956,-0.0433 -3.30956,-1.72949 0,-3.60805 7.50051,-27.11358 9.19816,-28.82572 1.05777,-1.06683 0.60412,-1.38026 -4.76958,-3.295 -4.10838,-1.46401 -18.47932,-5.56587 -19.58055,-5.58891 -0.48385,-0.01 -3.20335,6.99379 -3.54497,9.12978 -0.23689,1.48148 -0.76943,2.51325 -1.38127,2.67622 -0.62075,0.16536 -0.44727,0.29199 0.46034,0.33615 4.86952,0.23694 9.23352,3.17974 9.23352,6.22651 0,1.85207 -1.09097,2.98506 -1.78819,1.85702 -0.28939,-0.46834 -0.87489,-0.22205 -1.79171,0.75396 l -1.36181,1.44953 1.55456,2.92385 c 2.93265,5.51549 1.6709,10.28843 -3.52477,13.33324 -3.05302,1.78928 -3.09207,1.80217 -3.67598,1.21826 z m 26.40488,-4.01599 c 0.36003,-0.9735 0.23738,-1.56571 -0.42468,-2.0498 -0.8216,-0.60082 -0.73241,-1.31893 0.75955,-6.1138 0.92982,-2.98818 2.76137,-8.28779 4.07001,-11.77699 2.55069,-6.80075 2.86456,-8.17923 1.54069,-6.76733 -1.76248,1.8798 -9.32861,25.55886 -8.69461,27.21102 0.5113,1.33243 2.18317,1.02646 2.74904,-0.5031 z m 17.101,-1.2006 c -0.39675,-0.74139 -0.75003,-2.96309 -0.78501,-4.93714 -0.0565,-3.21394 0.11558,-3.74373 1.65019,-5.06596 2.02099,-1.74127 2.60184,-1.82832 3.12375,-0.46822 0.2372,0.61831 -0.10411,1.46597 -0.88226,2.19092 -1.75598,1.63602 -1.51325,6.54695 0.36986,7.48062 1.74302,0.86421 1.14842,2.14772 -0.99502,2.14772 -1.18993,0 -1.99386,-0.43668 -2.48151,-1.34794 z m 8.00848,-0.65299 c 0,-0.146 1.64929,-1.42235 3.66506,-2.83634 2.01576,-1.41397 3.6651,-2.71983 3.6651,-2.9018 0,-0.18203 -0.69576,-1.15785 -1.54615,-2.16849 -1.81626,-2.15847 -1.65241,-3.07339 1.32584,-7.40304 2.52576,-3.67184 2.56278,-4.59335 0.22031,-5.47756 -1.9052,-0.71914 -2.19169,-1.35411 -1.26874,-2.81201 0.45703,-0.72195 0.85413,-0.73301 2.4583,-0.0686 2.21257,0.91644 3.69715,2.77799 3.69715,4.6358 0,0.7131 -1.10674,3.00883 -2.45934,5.1017 l -2.45947,3.80524 1.51761,1.80364 c 2.12657,2.52718 1.2804,4.63025 -2.66634,6.62734 -2.17661,1.10141 -6.14933,2.19579 -6.14933,1.69405 z m -5.56595,-12.3535 c -2.09655,-1.13947 -3.22951,-3.86102 -2.45511,-5.89776 0.58476,-1.53815 3.97051,-4.79223 4.98609,-4.79223 0.2949,0 0.72431,-1.0308 0.95408,-2.29066 0.22983,-1.25986 1.20435,-4.43973 2.16567,-7.06635 0.96132,-2.62663 1.74775,-4.89743 1.74775,-5.04623 0,-0.3557 -8.67607,4.01446 -12.81594,6.45538 -2.80914,1.65636 -3.36844,1.79875 -4.11858,1.04858 -0.75021,-0.75018 -0.46814,-1.13398 2.07752,-2.82626 4.84257,-3.2192 14.83987,-7.98884 16.74489,-7.98884 1.70822,0 2.36414,0.78683 1.23677,1.48355 -0.29717,0.18368 -0.66974,1.09329 -0.82787,2.02129 -0.15807,0.92805 -1.26677,4.33795 -2.4637,7.57768 l -2.17629,5.89029 2.72669,0.76343 c 1.96094,0.54902 2.66996,1.03916 2.52484,1.74524 -0.15629,0.75947 -0.82749,0.94302 -2.96481,0.81077 -2.07377,-0.12833 -3.28629,0.18173 -4.86124,1.24319 -2.94257,1.98298 -2.94994,3.14712 -0.0326,5.16596 1.35334,0.93654 2.47094,1.90894 2.48371,2.16092 0.0393,0.76764 -3.23651,0.46356 -4.93195,-0.45795 z m -47.57737,-29.65154 c -5.1969,-0.62274 -7.78258,-1.59887 -6.8104,-2.57103 0.51135,-0.5114 3.22601,-0.63698 9.4148,-0.43546 13.71956,0.4467 22.55284,0.24061 25.04687,-0.58447 3.27948,-1.08478 4.29918,-3.37954 4.36498,-9.82209 l 0.0534,-5.19217 -11.91147,-0.30541 c -12.59403,-0.32295 -14.84398,-0.75654 -11.90809,-2.29482 1.27206,-0.66656 5.28677,-1.00081 15.81642,-1.31692 12.73142,-0.3822 14.35541,-0.55091 16.6045,-1.72539 6.26891,-3.2735 9.9579,-13.27079 10.00805,-27.12226 l 0.0208,-5.88781 -2.29064,-0.44571 c -4.21828,-0.82086 -16.16056,-0.33261 -23.36335,0.95517 -8.45243,1.51123 -18.24623,4.0009 -21.94185,5.57784 -2.14548,0.91547 -2.80103,0.99049 -3.19697,0.36572 -0.27398,-0.43224 -0.4135,-1.06078 -0.31,-1.39675 0.49999,-1.62374 15.86884,-6.15932 26.97454,-7.96063 6.18418,-1.00307 18.52758,-1.19126 21.53628,-0.32839 1.9389,0.55604 1.98095,0.52679 1.9734,-1.3744 -0.0301,-7.51165 -2.28746,-27.50252 -3.97867,-35.23352 -0.47778,-2.18376 -1.29619,-6.51109 -1.81877,-9.61625 -1.53929,-9.14695 -1.43407,-9.06185 -5.07714,-4.10394 -1.71847,2.33866 -5.65417,8.78764 -8.74592,14.33103 -6.76964,12.13732 -7.96491,13.78777 -10.61965,14.66389 -3.79506,1.25248 -6.20622,-0.83735 -11.28023,-9.77715 -1.43007,-2.51972 -3.29187,-5.79415 -4.13724,-7.27642 l -1.53706,-2.69509 -0.8046,1.53566 c -1.03739,1.97992 -2.20815,7.37347 -4.51066,20.77921 -2.03731,11.86244 -2.57328,13.77095 -4.02349,14.32744 -1.8076,0.69367 -3.00366,-1.62613 -7.06809,-13.70866 -2.22873,-6.62526 -4.18899,-11.63355 -4.35618,-11.12961 -0.16718,0.50394 -0.74712,4.36233 -1.28875,8.57428 -1.07631,8.37012 -3.01054,16.60428 -4.40687,18.76093 -1.00178,1.54714 -3.3898,1.82807 -4.47051,0.52593 -0.38734,-0.46668 -1.52906,-3.00932 -2.5372,-5.65029 l -1.83307,-4.80183 0.37389,14.81293 c 0.32864,13.01847 0.26133,14.81294 -0.55574,14.81294 -0.51134,0 -1.11179,-0.29473 -1.33439,-0.65488 -0.22258,-0.36023 -0.63454,-6.06395 -0.91534,-12.67499 -0.28081,-6.6111 -0.70491,-16.16717 -0.94241,-21.23582 -0.39784,-8.48981 -0.34654,-9.24841 0.65128,-9.63129 1.67408,-0.64241 2.53316,0.51232 3.63011,4.8791 1.4221,5.66148 4.65205,15.69665 5.25924,16.33999 1.11344,1.17972 3.61832,-10.97098 4.83341,-23.44615 0.92647,-9.5115 0.99934,-9.77349 2.71887,-9.77349 0.79232,0 1.71286,0.34361 2.04558,0.76356 0.33273,0.41995 2.47813,6.60956 4.7676,13.75464 2.28943,7.14509 4.36333,12.78011 4.60869,12.52228 0.24542,-0.25784 1.1647,-5.00433 2.04302,-10.54772 2.65351,-16.74809 4.5656,-21.99034 8.02095,-21.99034 1.87562,0 4.28456,2.96276 7.89768,9.71344 1.67985,3.1385 4.08051,6.84113 5.3349,8.22811 l 2.28065,2.52168 1.71171,-1.84854 c 0.94149,-1.01667 3.99771,-5.96451 6.79155,-10.99516 10.6774,-19.22573 14.86338,-24.01083 17.98614,-20.56029 1.55456,1.71775 2.10766,3.86345 4.0446,15.68955 0.99043,6.04734 2.05757,12.36957 2.37151,14.04938 0.31393,1.67982 1.04966,8.96412 1.63498,16.18733 0.58533,7.22321 1.33769,13.47672 1.67194,13.89667 0.33425,0.41996 0.36795,0.7638 0.0748,0.76405 -0.29312,3.1e-4 -0.59146,3.50501 -0.66304,7.78825 -0.27023,16.16826 -5.31796,26.46561 -14.27751,29.12631 -1.77267,0.5265 -3.56388,0.9572 -3.98027,0.9572 -0.54947,0 -0.73996,1.46644 -0.69442,5.34486 0.0344,2.93969 -0.28034,6.36664 -0.69986,7.61551 -0.9159,2.7271 -3.55788,5.08849 -6.65576,5.94887 -2.58489,0.71787 -21.63407,0.71884 -27.6217,0 z m -17.09729,-5.29752 c -0.95218,-1.21051 -1.26115,-2.3565 -1.14496,-4.24664 0.10897,-1.77162 -0.1741,-2.95709 -0.89666,-3.75552 -0.58073,-0.64169 -1.30323,-2.02922 -1.60554,-3.08341 -0.47584,-1.65917 -0.39681,-1.9167 0.58819,-1.9167 0.6258,0 1.31006,0.54261 1.52056,1.2058 0.96141,3.02905 7.98763,5.60081 15.66849,5.73501 2.63891,0.0465 4.79838,0.24587 4.79887,0.44397 0,0.65494 -3.08064,1.77786 -4.87996,1.77786 -1.03246,0 -2.10146,0.47358 -2.56732,1.13745 -1.53081,2.1815 -5.46007,4.36013 -7.86374,4.36013 -1.78919,0 -2.60955,-0.37592 -3.61793,-1.65795 z m 6.93535,-2.55766 1.7494,-1.1534 -2.66566,-0.60051 c -1.46617,-0.33035 -3.14678,-0.801 -3.73472,-1.04594 -0.81279,-0.33866 -1.06898,-0.14888 -1.06898,0.79171 0,3.34106 2.41309,4.18824 5.71996,2.00814 z m 22.04983,-23.25332 c -5.5592,-0.83978 -8.69031,-3.24687 -10.37722,-7.97735 -1.1445,-3.20967 -0.76955,-7.19475 0.86727,-9.2161 1.71896,-2.12279 2.51423,-0.97606 1.42461,2.05397 -1.40478,3.90664 -0.6302,6.90795 2.57746,9.9863 2.93994,2.82147 6.17123,3.90182 11.75769,3.93107 2.28372,0.0122 3.22085,0.20506 2.63099,0.54206 -1.50841,0.86178 -5.60261,1.17526 -8.8808,0.68005 z m 5.79696,-3.73951 c -1.53161,-2.86174 2.50637,-7.24783 5.89069,-6.39839 2.22424,0.55824 3.64136,3.08421 2.78489,4.96401 -1.28232,2.81446 -7.39609,3.82528 -8.67558,1.43438 z m 5.54459,-1.7864 c 0.67422,-0.36078 1.01326,-0.99947 0.81074,-1.52711 -0.44241,-1.15291 -1.49287,-1.15371 -3.00201,0 -1.02632,0.78303 -1.06255,0.98711 -0.26948,1.51775 1.13652,0.76051 1.06223,0.76014 2.46075,0.0116 z m 4.7818,1.89379 c -1.19563,-0.96812 -1.23368,-1.20447 -0.45591,-2.82271 0.46691,-0.97142 1.57316,-2.1721 2.45836,-2.66828 1.44315,-0.80895 1.77445,-0.79397 3.20692,0.14458 1.99937,1.31008 2.10563,3.60464 0.22307,4.8184 -2.32122,1.49656 -4.03109,1.66277 -5.43244,0.52801 z m 3.81551,-3.59421 c -0.80312,-0.26773 -2.50624,0.95451 -2.50624,1.79863 0,0.30255 0.72473,0.0753 1.61055,-0.50516 0.88575,-0.58036 1.28888,-1.16244 0.89569,-1.29347 z"
           id="path4284-7"
           inkscape:connector-curvature="0"
           sodipodi:nodetypes="csssccscccssscccscsccsscsscccssscscsscsssccccsscccscsccssscccssscsscscscscsssscccsccsccscsssccccscccccccscscccscscccsssccscssscsssscsscsssccccsscsscccsssssssscccsssssscscsccccsscscssccscssccccsccccscccccsccsccccscccssccscc" />
        <path
           style="fill:#000000"
           d="m 800.00876,605.15971 c -4.16176,-1.50164 -4.39324,1.95024 -4.38186,-2.85196 0.008,-3.38512 1.41926,-7.55149 2.10833,-3.97238 1.24469,6.46365 1.78017,5.1767 8.90204,5.0784 3.95406,-0.0546 12.3658,-2.93766 17.16239,-5.88226 11.30447,-11.51181 10.59337,8.56303 -23.79114,7.62806 z"
           id="path4284-7-9"
           inkscape:connector-curvature="0"
           sodipodi:nodetypes="ssssccs" />
      </g>
      <g
         style="display:inline"
         transform="matrix(0.95463543,0,0,0.91138836,-988.18007,-80.813704)"
         id="g8397">
        <g
           transform="matrix(0.39107371,0,0,0.39107371,1300.1245,187.64057)"
           id="g8315"
           style="display:inline">
          <circle
             cx="1759.5632"
             cy="1707.8019"
             r="21.129873"
             id="circle8317"
             style="fill:#6a5687;fill-opacity:1;fill-rule:evenodd;stroke:none" />
          <circle
             cx="1776.9066"
             cy="1759.9482"
             r="16.316362"
             id="circle8319"
             style="fill:#6a5687;fill-opacity:1;fill-rule:evenodd;stroke:none" />
          <g
             transform="matrix(0.56727776,0,0,0.56727776,1736.3128,1008.848)"
             id="g8321">
            <path
               inkscape:connector-curvature="0"
               d="m 287.78154,1212.3276 c 2.76039,4.2363 4.55473,9.711 5.67187,17.3457 -9.08991,-2.179 -15.9695,-2.8324 -31.39843,-12.5879 16.0776,13.4563 25.98494,19.2954 31.91992,24.6152 5.75253,6.2066 16.11437,16.71 26.0332,32.336 0.0455,-19.5669 -7.9199,-43.4393 -18.37109,-60.3692 -0.003,0.01 -0.005,0.012 -0.008,0.018 -3.91631,-0.1069 -8.73502,-0.633 -13.84765,-1.3574 z"
               id="path8323"
               style="fill:#cc2d18;fill-opacity:1;stroke:none" />
            <path
               inkscape:connector-curvature="0"
               d="m 4.9651301,1122.9389 c -3.79982,-0.1406 -5.88547001,0.8381 -1.78906,3.8106 16.7595199,7.7237 34.5063199,14.006 49.5644499,24.6719 33.69135,23.864 55.37723,58.4543 66.46875,98.4355 6.63564,40.3068 0.0317,64.2786 22.10547,108.1035 22.07382,43.825 71.71335,103.2602 134.39844,114.3594 12.58787,3.0001 63.29024,10.6743 40.60156,2.6465 -16.13898,-5.5991 -37.24591,-15.2812 -51.67578,-28.6973 -30.94439,-28.7704 -58.45315,-65.2483 -69.43555,-106.0488 -7.2155,-26.8061 -4.20256,-61.8565 4.48047,-83.1602 8.68303,-21.3036 27.82755,-56.3045 51.59375,-51.7265 11.36409,2.5628 36.39233,7.9703 50.35156,8.3515 5.66369,-12.7733 -6.6566,-30.2254 -21.41601,-42.1582 26.01765,-13.3188 50.76041,-19.3467 64.16211,-23.3359 10.52489,-3.233 -18.08078,-0.9539 -32.64844,1.4883 -19.54258,2.8312 -37.27438,4.636 -54.75781,8.7304 -33.54364,-16.6691 -67.11231,-3.7587 -90.36914,17.0254 -7.15694,6.396 -12.93752,13.4636 -17.70508,21.25 -5.03395,-7.9246 -10.69176,-15.1134 -16.81055,-21.1328 -30.81146,-30.799 -73.33032,-36.025 -115.04492,-49.7051 -2.76128,-1.5069 -8.2743899,-2.7675 -12.0742199,-2.9082 z"
               id="path8325"
               style="fill:#000000;fill-opacity:1;stroke:#000000;stroke-width:5;stroke-linecap:round;stroke-linejoin:round;stroke-miterlimit:4;stroke-dasharray:none;stroke-opacity:1" />
            <path
               inkscape:connector-curvature="0"
               d="m 147.86326,1225.4986 c 1.04993,-16.9499 7.97375,-33.4802 19.31711,-46.1187 11.34339,-12.6385 27.03191,-21.3022 43.77021,-24.1714 7.14908,-1.2254 14.47378,-1.4215 21.6782,-0.5804 1.2493,0.2197 2.41978,0.865 3.27244,1.8042 0.85268,0.9392 1.38227,2.1663 1.48067,3.431 0.13018,1.673 -0.49202,3.3576 -1.53783,4.6699 -1.04581,1.3122 -2.48997,2.2706 -4.04121,2.9104 -3.10251,1.2797 -6.54959,1.3191 -9.88565,1.6849 -6.66467,0.7307 -13.11669,2.8246 -19.28526,5.4515 -10.78592,4.5931 -20.865,10.8631 -29.68084,18.5906 -10.3202,9.0461 -18.88698,20.0852 -25.08784,32.328 l 0,0"
               id="path8327"
               style="fill:#ffffff;fill-rule:evenodd;stroke:none" />
          </g>
          <g
             transform="matrix(0.53961891,-0.17497284,0.17497284,0.53961891,1879.4566,1391.3753)"
             id="g8329">
            <circle
               cx="-152.42935"
               cy="703.35065"
               r="16.450064"
               id="circle8331"
               style="fill:#cc2d18;fill-opacity:1;fill-rule:evenodd;stroke:none" />
            <circle
               cx="-180.22865"
               cy="743.88922"
               r="13.85203"
               id="circle8333"
               style="fill:#cc2d18;fill-opacity:1;fill-rule:evenodd;stroke:none" />
          </g>
          <circle
             cx="1799.385"
             cy="1803.9832"
             r="11.849051"
             id="circle8335"
             style="fill:#6a5687;fill-opacity:1;fill-rule:evenodd;stroke:none" />
        </g>
        <text
           sodipodi:linespacing="125%"
           x="2059.0378"
           y="889.37793"
           id="text7971"
           xml:space="preserve"
           style="font-style:normal;font-weight:normal;font-size:92.6884079px;line-height:125%;font-family:Sans;letter-spacing:0px;word-spacing:0px;fill:#000000;fill-opacity:1;stroke:none"><tspan
             x="2059.0378"
             y="889.37793"
             id="tspan7973"
             style="font-style:normal;font-variant:normal;font-weight:bold;font-stretch:normal;font-size:50px;font-family:'DejaVu Sans';-inkscape-font-specification:'DejaVu Sans Bold';fill:#6a5687;fill-opacity:1">Frama<tspan
   id="tspan7975"
   style="fill:#cc2d18;fill-opacity:1">book</tspan></tspan></text>
      </g>
    </g>
  </g>
</svg>
