<?xml version="1.0" encoding="UTF-8" standalone="no"?>
<!-- Created with Inkscape (http://www.inkscape.org/) -->

<svg
   xmlns:dc="http://purl.org/dc/elements/1.1/"
   xmlns:cc="http://creativecommons.org/ns#"
   xmlns:rdf="http://www.w3.org/1999/02/22-rdf-syntax-ns#"
   xmlns:svg="http://www.w3.org/2000/svg"
   xmlns="http://www.w3.org/2000/svg"
   xmlns:sodipodi="http://sodipodi.sourceforge.net/DTD/sodipodi-0.dtd"
   xmlns:inkscape="http://www.inkscape.org/namespaces/inkscape"
   width="10cm"
   height="7cm"
   viewBox="0 0 354.33071 248.0315"
   id="svg2"
   version="1.1"
   inkscape:version="0.91 r13725"
   sodipodi:docname="libreofficeoptionsPDF.svg"
   inkscape:export-filename="/media/h4ck3r/GrosDisque/Fichiersdetravail/Projets_Libres/LIVRESENCOURS/manueldumo/images/libreofficeoptionsPDF.png"
   inkscape:export-xdpi="300"
   inkscape:export-ydpi="300">
  <defs
     id="defs4" />
  <sodipodi:namedview
     id="base"
     pagecolor="#ffffff"
     bordercolor="#666666"
     borderopacity="1.0"
     inkscape:pageopacity="0.0"
     inkscape:pageshadow="2"
     inkscape:zoom="2.8"
     inkscape:cx="152.8641"
     inkscape:cy="118.52145"
     inkscape:document-units="px"
     inkscape:current-layer="layer1"
     showgrid="false"
     units="cm"
     inkscape:window-width="1920"
     inkscape:window-height="1026"
     inkscape:window-x="0"
     inkscape:window-y="0"
     inkscape:window-maximized="1"
     fit-margin-top="0.1"
     fit-margin-left="0.1"
     fit-margin-bottom="0.1"
     fit-margin-right="0.1"
     borderlayer="true" />
  <metadata
     id="metadata7">
    <rdf:RDF>
      <cc:Work
         rdf:about="">
        <dc:format>image/svg+xml</dc:format>
        <dc:type
           rdf:resource="http://purl.org/dc/dcmitype/StillImage" />
        <dc:title></dc:title>
      </cc:Work>
    </rdf:RDF>
  </metadata>
  <g
     inkscape:label="Calque 1"
     inkscape:groupmode="layer"
     id="layer1"
     transform="translate(-2.3897126,-804.60701)">
    <rect
       style="opacity:1;fill:#ffffff;fill-opacity:1;stroke:none;stroke-width:1.5;stroke-linejoin:round;stroke-miterlimit:4;stroke-dasharray:none;stroke-dashoffset:0;stroke-opacity:1"
       id="rect4247"
       width="380"
       height="282.85715"
       x="-9.2174311"
       y="783.35278" />
    <rect
       style="opacity:1;fill:#ffffff;fill-opacity:1;stroke:#000000;stroke-width:2.17006135;stroke-linejoin:round;stroke-miterlimit:4;stroke-dasharray:none;stroke-dashoffset:0;stroke-opacity:1"
       id="rect4136"
       width="345.957"
       height="234.16438"
       x="7.539979"
       y="813.77496"
       ry="12.324443" />
    <g
       id="g4189"
       transform="matrix(0.78524089,-0.5949063,0.80354003,0.58135839,56.114636,560.13388)">
      <path
         id="rect4148-3"
         d="m -50.981051,395.15911 c -0.75694,0.0838 -1.434454,0.75709 -1.518209,1.51016 l -0.388852,3.4964 -3.474457,0.38443 c -0.756947,0.0838 -1.433255,0.75696 -1.517009,1.51005 -0.08376,0.75307 0.457799,1.29153 1.214747,1.20777 l 3.474455,-0.38445 -0.40609,3.6514 c -0.08376,0.75307 0.459006,1.29139 1.215946,1.20765 0.756934,-0.0838 1.433249,-0.75697 1.517003,-1.51004 l 0.406091,-3.65139 3.708741,-0.41038 c 0.756941,-0.0838 1.433249,-0.75694 1.517003,-1.51003 0.08376,-0.75308 -0.457799,-1.29153 -1.214739,-1.20777 l -3.708743,0.41036 0.388854,-3.49639 c 0.08376,-0.75309 -0.457807,-1.29153 -1.214741,-1.20777 z"
         style="opacity:1;fill:#000000;fill-opacity:1;stroke:none;stroke-width:3.54330707;stroke-linejoin:round;stroke-miterlimit:4;stroke-dasharray:none;stroke-dashoffset:0;stroke-opacity:1"
         inkscape:connector-curvature="0" />
      <flowRoot
         xml:space="preserve"
         id="flowRoot4194"
         style="font-style:normal;font-weight:normal;font-size:40px;line-height:125%;font-family:sans-serif;letter-spacing:0px;word-spacing:0px;fill:#000000;fill-opacity:1;stroke:none;stroke-width:1px;stroke-linecap:butt;stroke-linejoin:miter;stroke-opacity:1"
         transform="matrix(0.7095156,0.72605006,-0.81974231,0.80107419,144.93128,321.08726)"><flowRegion
           id="flowRegion4196"><rect
             id="rect4198"
             width="145.46196"
             height="150.00766"
             x="43.941635"
             y="98.140587" /></flowRegion><flowPara
           id="flowPara4200" /></flowRoot>      <text
         xml:space="preserve"
         style="font-style:normal;font-weight:normal;font-size:43.14716339px;line-height:125%;font-family:sans-serif;letter-spacing:0px;word-spacing:0px;fill:#000000;fill-opacity:1;stroke:none;stroke-width:1px;stroke-linecap:butt;stroke-linejoin:miter;stroke-opacity:1"
         x="272.64438"
         y="102.37432"
         id="text4218"
         sodipodi:linespacing="125%"
         transform="matrix(0.65776337,0.6730918,-0.75995013,0.74264366,0,0)"><tspan
           sodipodi:role="line"
           id="tspan4220"
           x="272.64438"
           y="102.37432" /></text>
      <text
         xml:space="preserve"
         style="font-style:normal;font-weight:normal;font-size:10.53830242px;line-height:125%;font-family:sans-serif;letter-spacing:0px;word-spacing:0px;fill:#000000;fill-opacity:1;stroke:none;stroke-width:1px;stroke-linecap:butt;stroke-linejoin:miter;stroke-opacity:1"
         x="95.209496"
         y="261.88177"
         id="text4234"
         sodipodi:linespacing="125%"
         transform="matrix(0.57007573,0.5833607,-0.87684378,0.85687528,0,0)"><tspan
           sodipodi:role="line"
           id="tspan4236"
           x="95.209496"
           y="261.88177"
           style="font-style:normal;font-variant:normal;font-weight:bold;font-stretch:normal;font-family:sans-serif;-inkscape-font-specification:'sans-serif Bold'">Options PDF</tspan></text>
      <flowRoot
         xml:space="preserve"
         id="flowRoot4238"
         style="font-style:normal;font-weight:normal;font-size:40px;line-height:125%;font-family:sans-serif;letter-spacing:0px;word-spacing:0px;fill:#000000;fill-opacity:1;stroke:none;stroke-width:1px;stroke-linecap:butt;stroke-linejoin:miter;stroke-opacity:1"
         transform="matrix(0.63151566,0.64623242,-0.9855042,0.96306117,-503.58899,152.81781)"><flowRegion
           id="flowRegion4240"><rect
             id="rect4242"
             width="282.84271"
             height="423.25391"
             x="224.25386"
             y="-79.024719" /></flowRegion><flowPara
           style="font-style:normal;font-variant:normal;font-weight:bold;font-stretch:normal;font-size:7.5px;line-height:150%;font-family:sans-serif;-inkscape-font-specification:'sans-serif Bold'"
           id="flowPara4248">Plage</flowPara><flowPara
           style="font-size:7.5px;line-height:150%"
           id="flowPara4250">    Tout</flowPara><flowPara
           style="font-size:7.5px;line-height:150%"
           id="flowPara4252">    Pages :</flowPara><flowPara
           style="font-size:7.5px;line-height:150%"
           id="flowPara4254">    Sélection</flowPara><flowPara
           style="font-style:normal;font-variant:normal;font-weight:bold;font-stretch:normal;font-size:7.5px;line-height:150%;font-family:sans-serif;-inkscape-font-specification:'sans-serif Bold'"
           id="flowPara4256">Images</flowPara><flowPara
           style="font-size:7.5px;line-height:150%"
           id="flowPara4258">    Compression sans perte</flowPara><flowPara
           style="font-size:7.5px;line-height:150%"
           id="flowPara4260">    Compression JPEG</flowPara><flowPara
           style="font-size:7.5px;line-height:150%"
           id="flowPara4262">    Qualité</flowPara><flowPara
           style="font-size:7.5px;line-height:150%"
           id="flowPara4264">    Réduire la résolution des images</flowPara><flowPara
           style="font-style:normal;font-variant:normal;font-weight:bold;font-stretch:normal;font-size:7.5px;line-height:150%;font-family:sans-serif;-inkscape-font-specification:'sans-serif Bold'"
           id="flowPara4266">Filigrane</flowPara><flowPara
           style="font-size:7.5px;line-height:150%"
           id="flowPara4268">    Signer avec un filigrane</flowPara><flowPara
           style="font-size:7.5px;line-height:150%"
           id="flowPara4270">    Texte :</flowPara><flowPara
           style="font-size:7.5px;line-height:150%"
           id="flowPara4246" /></flowRoot>      <flowRoot
         xml:space="preserve"
         id="flowRoot4238-6"
         style="font-style:normal;font-weight:normal;font-size:40px;line-height:125%;font-family:sans-serif;letter-spacing:0px;word-spacing:0px;fill:#000000;fill-opacity:1;stroke:none;stroke-width:1px;stroke-linecap:butt;stroke-linejoin:miter;stroke-opacity:1"
         transform="matrix(0.63151566,0.64623242,-0.9855042,0.96306117,-412.45164,246.67105)"><flowRegion
           id="flowRegion4240-7"><rect
             id="rect4242-5"
             width="282.84271"
             height="423.25391"
             x="224.25386"
             y="-79.024719" /></flowRegion><flowPara
           style="font-style:normal;font-variant:normal;font-weight:bold;font-stretch:normal;font-size:7.5px;line-height:150%;font-family:sans-serif;-inkscape-font-specification:'sans-serif Bold'"
           id="flowPara4246-0">Général</flowPara><flowPara
           style="font-size:7.5px;line-height:150%"
           id="flowPara4424">    PDF hybride (fichier ODF incorporé)</flowPara><flowPara
           style="font-size:7.5px;line-height:150%"
           id="flowPara4426">    Archive PDF/A-1a (ISO 19005-1)</flowPara><flowPara
           style="font-size:7.5px;line-height:150%"
           id="flowPara4428">    PDF marqué (ajouter la structure du document)</flowPara><flowPara
           style="font-size:7.5px;line-height:150%"
           id="flowPara4430">    Créer un formulaire PDF</flowPara><flowPara
           style="font-size:7.5px;line-height:150%"
           id="flowPara4432">    Format d'envoi :</flowPara><flowPara
           style="font-size:7.5px;line-height:150%"
           id="flowPara4434">    Autoriser les doublons de noms de champ</flowPara><flowPara
           style="font-size:7.5px;line-height:150%"
           id="flowPara4436">    Exporter les repères de texte</flowPara><flowPara
           style="font-size:7.5px;line-height:150%"
           id="flowPara4438">    Exporter les substituants</flowPara><flowPara
           style="font-size:7.5px;line-height:150%"
           id="flowPara4440">    Exporter les commentaires</flowPara><flowPara
           style="font-size:7.5px;line-height:150%"
           id="flowPara4442">    Exporter les pages vides insérées</flowPara><flowPara
           style="font-size:7.5px;line-height:150%"
           id="flowPara4444">    Afficher le PDF après l'export</flowPara></flowRoot>      <flowRoot
         xml:space="preserve"
         id="flowRoot4446"
         style="font-style:normal;font-weight:normal;font-size:40px;line-height:125%;font-family:sans-serif;letter-spacing:0px;word-spacing:0px;fill:#000000;fill-opacity:1;stroke:none;stroke-width:1px;stroke-linecap:butt;stroke-linejoin:miter;stroke-opacity:1"
         transform="matrix(0.37268654,0.38137156,-0.70357344,0.68755086,-246.95505,152.39952)"><flowRegion
           id="flowRegion4448"><rect
             id="rect4450"
             width="594.69238"
             height="86.792892"
             x="44.285713"
             y="53.616436" /></flowRegion><flowPara
           id="flowPara4452"
           style="font-style:italic;font-variant:normal;font-weight:normal;font-stretch:normal;font-size:11.24207306px;font-family:sans-serif;-inkscape-font-specification:'sans-serif Italic'">Général      Vues initiales       Interface utilisateur      Liens     Sécurité    Signatures numériques</flowPara></flowRoot>      <path
         style="fill:none;fill-rule:evenodd;stroke:#000000;stroke-width:1.03178048;stroke-linecap:butt;stroke-linejoin:miter;stroke-miterlimit:4;stroke-dasharray:none;stroke-opacity:1"
         d="M -280.76003,212.66001 -67.019456,431.38158"
         id="path4456"
         inkscape:connector-curvature="0" />
      <path
         style="fill:none;fill-rule:evenodd;stroke:#000000;stroke-width:1.03443134px;stroke-linecap:butt;stroke-linejoin:miter;stroke-opacity:1"
         d="m -248.61697,228.7636 -8.59827,8.40246"
         id="path4458"
         inkscape:connector-curvature="0" />
      <path
         style="fill:none;fill-rule:evenodd;stroke:#000000;stroke-width:1.03443134px;stroke-linecap:butt;stroke-linejoin:miter;stroke-opacity:1"
         d="m -212.84729,265.36686 -8.29118,8.10237"
         id="path4460"
         inkscape:connector-curvature="0" />
      <path
         style="fill:none;fill-rule:evenodd;stroke:#000000;stroke-width:1.03443134px;stroke-linecap:butt;stroke-linejoin:miter;stroke-opacity:1"
         d="m -161.27721,318.75304 -7.67703,7.50219"
         id="path4462"
         inkscape:connector-curvature="0" />
      <path
         style="fill:none;fill-rule:evenodd;stroke:#000000;stroke-width:1.03443134px;stroke-linecap:butt;stroke-linejoin:miter;stroke-opacity:1"
         d="m -143.40227,335.50872 -8.44473,8.25242"
         id="path4464"
         inkscape:connector-curvature="0" />
      <path
         style="fill:none;fill-rule:evenodd;stroke:#000000;stroke-width:1.03443134px;stroke-linecap:butt;stroke-linejoin:miter;stroke-opacity:1"
         d="m -119.1268,359.12126 -9.36597,9.15267"
         id="path4466"
         inkscape:connector-curvature="0" />
      <g
         id="g4539"
         transform="matrix(1.0821746,-0.06548303,-0.06548303,1.0791573,-54.150597,60.277575)">
        <rect
           ry="0"
           transform="matrix(0.69891616,0.71520361,-0.7152036,0.69891616,0,0)"
           y="259.88065"
           x="82.757347"
           height="6.8215499"
           width="5.9161601"
           id="rect4468"
           style="opacity:1;fill:none;fill-opacity:1;stroke:#000000;stroke-width:1.03443134;stroke-linejoin:round;stroke-miterlimit:4;stroke-dasharray:none;stroke-dashoffset:0;stroke-opacity:1" />
        <rect
           transform="matrix(0.69891615,0.71520362,-0.7152036,0.69891616,0,0)"
           ry="0"
           y="273.48212"
           x="82.757347"
           height="6.8215504"
           width="5.9161601"
           id="rect4468-6"
           style="opacity:1;fill:none;fill-opacity:1;stroke:#000000;stroke-width:1.03443134;stroke-linejoin:round;stroke-miterlimit:4;stroke-dasharray:none;stroke-dashoffset:0;stroke-opacity:1" />
        <rect
           transform="matrix(0.69891615,0.71520362,-0.7152036,0.69891616,0,0)"
           ry="0"
           y="287.08362"
           x="82.757347"
           height="6.8215504"
           width="5.9161601"
           id="rect4468-2"
           style="opacity:1;fill:none;fill-opacity:1;stroke:#000000;stroke-width:1.03443134;stroke-linejoin:round;stroke-miterlimit:4;stroke-dasharray:none;stroke-dashoffset:0;stroke-opacity:1" />
        <rect
           transform="matrix(0.69891615,0.71520362,-0.7152036,0.69891616,0,0)"
           ry="0"
           y="300.68506"
           x="82.757347"
           height="6.8215504"
           width="5.9161601"
           id="rect4468-61"
           style="opacity:1;fill:none;fill-opacity:1;stroke:#000000;stroke-width:1.03443134;stroke-linejoin:round;stroke-miterlimit:4;stroke-dasharray:none;stroke-dashoffset:0;stroke-opacity:1" />
        <rect
           transform="matrix(0.69891615,0.71520362,-0.7152036,0.69891616,0,0)"
           ry="0"
           y="314.28656"
           x="82.757347"
           height="6.8215504"
           width="5.9161601"
           id="rect4468-8"
           style="opacity:1;fill:none;fill-opacity:1;stroke:#000000;stroke-width:1.03443134;stroke-linejoin:round;stroke-miterlimit:4;stroke-dasharray:none;stroke-dashoffset:0;stroke-opacity:1" />
        <rect
           transform="matrix(0.69891615,0.71520362,-0.7152036,0.69891616,0,0)"
           ry="0"
           y="327.88806"
           x="82.757347"
           height="6.8215504"
           width="5.9161601"
           id="rect4468-7"
           style="opacity:1;fill:none;fill-opacity:1;stroke:#000000;stroke-width:1.03443134;stroke-linejoin:round;stroke-miterlimit:4;stroke-dasharray:none;stroke-dashoffset:0;stroke-opacity:1" />
        <rect
           transform="matrix(0.69891615,0.71520362,-0.7152036,0.69891616,0,0)"
           ry="0"
           y="341.4895"
           x="82.757347"
           height="6.8215504"
           width="5.9161601"
           id="rect4468-9"
           style="opacity:1;fill:none;fill-opacity:1;stroke:#000000;stroke-width:1.03443134;stroke-linejoin:round;stroke-miterlimit:4;stroke-dasharray:none;stroke-dashoffset:0;stroke-opacity:1" />
        <rect
           transform="matrix(0.69891615,0.71520362,-0.7152036,0.69891616,0,0)"
           ry="0"
           y="355.091"
           x="82.757347"
           height="6.8215504"
           width="5.9161601"
           id="rect4468-20"
           style="opacity:1;fill:none;fill-opacity:1;stroke:#000000;stroke-width:1.03443134;stroke-linejoin:round;stroke-miterlimit:4;stroke-dasharray:none;stroke-dashoffset:0;stroke-opacity:1" />
        <rect
           transform="matrix(0.69891615,0.71520362,-0.7152036,0.69891616,0,0)"
           ry="0"
           y="368.69247"
           x="82.757347"
           height="6.8215504"
           width="5.9161601"
           id="rect4468-23"
           style="opacity:1;fill:none;fill-opacity:1;stroke:#000000;stroke-width:1.03443134;stroke-linejoin:round;stroke-miterlimit:4;stroke-dasharray:none;stroke-dashoffset:0;stroke-opacity:1" />
        <rect
           transform="matrix(0.69891615,0.71520362,-0.7152036,0.69891616,0,0)"
           ry="0"
           y="382.29395"
           x="82.757347"
           height="6.8215504"
           width="5.9161601"
           id="rect4468-75"
           style="opacity:1;fill:none;fill-opacity:1;stroke:#000000;stroke-width:1.03443134;stroke-linejoin:round;stroke-miterlimit:4;stroke-dasharray:none;stroke-dashoffset:0;stroke-opacity:1" />
        <rect
           transform="matrix(0.69891615,0.71520362,-0.7152036,0.69891616,0,0)"
           ry="0"
           y="395.89542"
           x="82.757347"
           height="6.8215504"
           width="5.9161601"
           id="rect4468-92"
           style="opacity:1;fill:none;fill-opacity:1;stroke:#000000;stroke-width:1.03443134;stroke-linejoin:round;stroke-miterlimit:4;stroke-dasharray:none;stroke-dashoffset:0;stroke-opacity:1" />
        <rect
           ry="0"
           y="353.97528"
           x="-44.600883"
           height="6.8215504"
           width="5.9161601"
           id="rect4468-92-2"
           style="opacity:1;fill:none;fill-opacity:1;stroke:#000000;stroke-width:1.03443134;stroke-linejoin:round;stroke-miterlimit:4;stroke-dasharray:none;stroke-dashoffset:0;stroke-opacity:1"
           transform="matrix(0.69891615,0.71520362,-0.7152036,0.69891616,0,0)" />
        <rect
           ry="0"
           y="381.25052"
           x="-44.751835"
           height="6.8215504"
           width="5.9161601"
           id="rect4468-92-8"
           style="opacity:1;fill:none;fill-opacity:1;stroke:#000000;stroke-width:1.03443134;stroke-linejoin:round;stroke-miterlimit:4;stroke-dasharray:none;stroke-dashoffset:0;stroke-opacity:1"
           transform="matrix(0.69891615,0.71520362,-0.7152036,0.69891616,0,0)" />
      </g>
      <path
         style="fill:none;fill-rule:evenodd;stroke:#000000;stroke-width:1.11581945px;stroke-linecap:butt;stroke-linejoin:miter;stroke-opacity:1"
         d="m -258.36191,377.4337 8.71572,-0.54104"
         id="path4554"
         inkscape:connector-curvature="0" />
      <path
         style="fill:none;fill-rule:evenodd;stroke:#000000;stroke-width:1.11581945px;stroke-linecap:butt;stroke-linejoin:miter;stroke-opacity:1"
         d="m -253.05573,372.40789 -1.26478,8.41455"
         id="path4556"
         inkscape:connector-curvature="0" />
      <path
         style="fill:none;fill-rule:evenodd;stroke:#000000;stroke-width:1.11581945px;stroke-linecap:butt;stroke-linejoin:miter;stroke-opacity:1"
         d="m -275.53482,394.57358 -1.35728,8.99681"
         id="path4558"
         inkscape:connector-curvature="0" />
      <path
         style="fill:none;fill-rule:evenodd;stroke:#000000;stroke-width:1.11581945px;stroke-linecap:butt;stroke-linejoin:miter;stroke-opacity:1"
         d="m -280.63832,399.56086 8.56096,-0.92118"
         id="path4560"
         inkscape:connector-curvature="0" />
      <path
         style="fill:none;fill-rule:evenodd;stroke:#000000;stroke-width:1.11581945px;stroke-linecap:butt;stroke-linejoin:miter;stroke-opacity:1"
         d="m -286.87888,405.3209 -1.15653,9.02623"
         id="path4562"
         inkscape:connector-curvature="0" />
      <path
         style="fill:none;fill-rule:evenodd;stroke:#000000;stroke-width:1.11581945px;stroke-linecap:butt;stroke-linejoin:miter;stroke-opacity:1"
         d="m -291.95761,410.50957 8.79334,-1.03544"
         id="path4564"
         inkscape:connector-curvature="0" />
      <g
         id="g4758"
         transform="matrix(0.75067491,-0.04542379,-0.04542379,0.74858191,-47.434286,121.20622)">
        <flowRoot
           transform="matrix(0.80929708,0.82815684,-1.1185916,1.0931177,-617.27658,227.48365)"
           style="font-style:normal;font-weight:normal;font-size:40px;line-height:125%;font-family:sans-serif;letter-spacing:0px;word-spacing:0px;fill:#000000;fill-opacity:1;stroke:none;stroke-width:1px;stroke-linecap:butt;stroke-linejoin:miter;stroke-opacity:1"
           id="flowRoot4238-9"
           xml:space="preserve"><flowRegion
             id="flowRegion4240-73"><rect
               y="-79.024719"
               x="224.25386"
               height="16.162432"
               width="43.941643"
               id="rect4242-6" /></flowRegion><flowPara
             id="flowPara4246-3"
             style="font-size:7.5px;line-height:150%">300 DPI</flowPara></flowRoot>        <rect
           transform="matrix(0.69891616,0.71520361,-0.7152036,0.69891616,0,0)"
           y="477.61111"
           x="-10.801645"
           height="18.712399"
           width="38.046322"
           id="rect4746"
           style="opacity:1;fill:none;fill-opacity:1;stroke:#000000;stroke-width:1.34574378;stroke-linejoin:round;stroke-miterlimit:4;stroke-dasharray:none;stroke-dashoffset:0;stroke-opacity:1" />
        <rect
           transform="matrix(0.69891616,0.71520361,-0.7152036,0.69891616,0,0)"
           y="478.16974"
           x="29.932737"
           height="18.153784"
           width="7.4438457"
           id="rect4748"
           style="opacity:1;fill:none;fill-opacity:1;stroke:#000000;stroke-width:1.34574378;stroke-linejoin:round;stroke-miterlimit:4;stroke-dasharray:none;stroke-dashoffset:0;stroke-opacity:1" />
        <path
           inkscape:connector-curvature="0"
           id="path4756"
           d="m -328.10381,367.56567 c 0.0202,-0.0734 0.39879,-1.00279 0.84107,-2.06533 0.44232,-1.06252 1.0101,-2.43171 1.26178,-3.04262 l 0.45756,-1.11073 1.89084,1.93491 1.89083,1.93489 -3.15629,1.23659 c -1.73596,0.68015 -3.17123,1.23867 -3.18949,1.24118 -0.0183,10e-4 -0.0172,-0.0554 0.004,-0.12892 z"
           style="opacity:1;fill:#000000;fill-opacity:1;stroke:#000000;stroke-width:0.08081315;stroke-linejoin:round;stroke-miterlimit:4;stroke-dasharray:none;stroke-dashoffset:0;stroke-opacity:1" />
      </g>
      <g
         id="g4758-6"
         transform="matrix(0.96162925,-0.05818876,-0.05818876,0.95894806,46.53201,21.042719)">
        <flowRoot
           transform="matrix(0.62208146,0.63657837,-0.8598265,0.84024554,-581.84525,225.28873)"
           style="font-style:normal;font-weight:normal;font-size:40px;line-height:125%;font-family:sans-serif;letter-spacing:0px;word-spacing:0px;fill:#000000;fill-opacity:1;stroke:none;stroke-width:1px;stroke-linecap:butt;stroke-linejoin:miter;stroke-opacity:1"
           id="flowRoot4238-9-1"
           xml:space="preserve"><flowRegion
             id="flowRegion4240-73-0"><rect
               y="-79.024719"
               x="224.25386"
               height="16.162432"
               width="43.941643"
               id="rect4242-6-6" /></flowRegion><flowPara
             id="flowPara4246-3-3"
             style="font-size:7.5px;line-height:150%">90 %</flowPara></flowRoot>        <rect
           transform="matrix(0.69891616,0.71520361,-0.7152036,0.69891616,0,0)"
           y="479.0029"
           x="-51.054832"
           height="14.383638"
           width="29.245024"
           id="rect4746-2"
           style="opacity:1;fill:none;fill-opacity:1;stroke:#000000;stroke-width:1.03443134;stroke-linejoin:round;stroke-miterlimit:4;stroke-dasharray:none;stroke-dashoffset:0;stroke-opacity:1" />
        <rect
           transform="matrix(0.69891616,0.71520361,-0.7152036,0.69891616,0,0)"
           y="479.43228"
           x="-19.743582"
           height="13.954248"
           width="5.7218523"
           id="rect4748-0"
           style="opacity:1;fill:none;fill-opacity:1;stroke:#000000;stroke-width:1.03443134;stroke-linejoin:round;stroke-miterlimit:4;stroke-dasharray:none;stroke-dashoffset:0;stroke-opacity:1" />
        <path
           inkscape:connector-curvature="0"
           id="path4756-6"
           d="m -362.09882,330.15334 c 0.0155,-0.0564 0.30654,-0.77081 0.64651,-1.58755 0.33999,-0.81673 0.77643,-1.86918 0.96989,-2.33877 l 0.35171,-0.85378 1.45343,1.4873 1.45342,1.48729 -2.42614,0.95053 c -1.33438,0.52281 -2.43763,0.95213 -2.45166,0.95406 -0.0141,0.001 -0.0132,-0.0426 0.003,-0.0991 z"
           style="opacity:1;fill:#000000;fill-opacity:1;stroke:#000000;stroke-width:0.06211855;stroke-linejoin:round;stroke-miterlimit:4;stroke-dasharray:none;stroke-dashoffset:0;stroke-opacity:1" />
      </g>
      <g
         id="g4758-5"
         transform="matrix(1.0126594,-0.06127663,-0.06127663,1.0098359,164.28676,60.550724)">
        <flowRoot
           transform="matrix(0.62208146,0.63657837,-0.8598265,0.84024554,-543.20503,262.7071)"
           style="font-style:normal;font-weight:normal;font-size:40px;line-height:125%;font-family:sans-serif;letter-spacing:0px;word-spacing:0px;fill:#000000;fill-opacity:1;stroke:none;stroke-width:1px;stroke-linecap:butt;stroke-linejoin:miter;stroke-opacity:1"
           id="flowRoot4238-9-5"
           xml:space="preserve"><flowRegion
             id="flowRegion4240-73-4"><rect
               y="-79.024719"
               x="224.25386"
               height="16.162432"
               width="43.941643"
               id="rect4242-6-7" /></flowRegion><flowPara
             id="flowPara4246-3-6"
             style="font-size:7.5px;line-height:150%">FDF</flowPara></flowRoot>        <rect
           transform="matrix(0.69891616,0.71520361,-0.7152036,0.69891616,0,0)"
           y="477.45547"
           x="0.49913576"
           height="14.383638"
           width="29.245024"
           id="rect4746-5"
           style="opacity:1;fill:none;fill-opacity:1;stroke:#000000;stroke-width:1.03443134;stroke-linejoin:round;stroke-miterlimit:4;stroke-dasharray:none;stroke-dashoffset:0;stroke-opacity:1" />
        <rect
           transform="matrix(0.69891616,0.71520361,-0.7152036,0.69891616,0,0)"
           y="477.88486"
           x="31.810387"
           height="13.954248"
           width="5.7218523"
           id="rect4748-6"
           style="opacity:1;fill:none;fill-opacity:1;stroke:#000000;stroke-width:1.03443134;stroke-linejoin:round;stroke-miterlimit:4;stroke-dasharray:none;stroke-dashoffset:0;stroke-opacity:1" />
        <path
           inkscape:connector-curvature="0"
           id="path4756-9"
           d="m -324.9602,365.94341 c 0.0155,-0.0564 0.30654,-0.77081 0.64651,-1.58755 0.33999,-0.81673 0.77643,-1.86918 0.96989,-2.33877 l 0.35171,-0.85378 1.45343,1.4873 1.45342,1.48729 -2.42614,0.95053 c -1.33438,0.52281 -2.43763,0.95213 -2.45166,0.95406 -0.0141,0.001 -0.0132,-0.0426 0.003,-0.0991 z"
           style="opacity:1;fill:#000000;fill-opacity:1;stroke:#000000;stroke-width:0.06211855;stroke-linejoin:round;stroke-miterlimit:4;stroke-dasharray:none;stroke-dashoffset:0;stroke-opacity:1" />
      </g>
    </g>
    <rect
       style="opacity:1;fill:none;fill-opacity:1;stroke:#000000;stroke-width:1;stroke-linejoin:round;stroke-miterlimit:4;stroke-dasharray:none;stroke-dashoffset:0;stroke-opacity:1"
       id="rect4803"
       width="40.886066"
       height="7.9390235"
       x="60.141724"
       y="882.59601"
       ry="0" />
    <rect
       style="opacity:1;fill:none;fill-opacity:1;stroke:#000000;stroke-width:1;stroke-linejoin:round;stroke-miterlimit:4;stroke-dasharray:none;stroke-dashoffset:0;stroke-opacity:1"
       id="rect4803-1"
       width="40.886066"
       height="7.9390235"
       x="49.803822"
       y="1003.5761"
       ry="0" />
    <path
       style="fill:none;fill-rule:evenodd;stroke:#000000;stroke-width:1px;stroke-linecap:butt;stroke-linejoin:miter;stroke-opacity:1"
       d="m 11.438845,965.48912 5.861582,5.18506"
       id="path4858"
       inkscape:connector-curvature="0" />
    <path
       style="fill:none;fill-rule:evenodd;stroke:#000000;stroke-width:1px;stroke-linecap:butt;stroke-linejoin:miter;stroke-opacity:1"
       d="m 11.718756,970.7258 6.160714,-5.26785"
       id="path4860"
       inkscape:connector-curvature="0" />
    <circle
       style="opacity:1;fill:none;fill-opacity:1;stroke:#000000;stroke-width:0.81527096;stroke-linejoin:round;stroke-miterlimit:4;stroke-dasharray:none;stroke-dashoffset:0;stroke-opacity:1"
       id="path4862"
       cx="15.871856"
       cy="903.84387"
       r="2.5477216" />
    <circle
       style="opacity:1;fill:none;fill-opacity:1;stroke:#000000;stroke-width:0.81527096;stroke-linejoin:round;stroke-miterlimit:4;stroke-dasharray:none;stroke-dashoffset:0;stroke-opacity:1"
       id="path4862-3"
       cx="15.961142"
       cy="890.76349"
       r="2.5477216" />
    <circle
       style="opacity:1;fill:none;fill-opacity:1;stroke:#000000;stroke-width:0.81527096;stroke-linejoin:round;stroke-miterlimit:4;stroke-dasharray:none;stroke-dashoffset:0;stroke-opacity:1"
       id="path4862-7"
       cx="15.961142"
       cy="878.17426"
       r="2.5477216" />
    <circle
       style="opacity:1;fill:none;fill-opacity:1;stroke:#000000;stroke-width:0.81527096;stroke-linejoin:round;stroke-miterlimit:4;stroke-dasharray:none;stroke-dashoffset:0;stroke-opacity:1"
       id="path4862-4"
       cx="16.139711"
       cy="931.03131"
       r="2.5477216" />
    <circle
       style="opacity:1;fill:none;fill-opacity:1;stroke:#000000;stroke-width:0.81527096;stroke-linejoin:round;stroke-miterlimit:4;stroke-dasharray:none;stroke-dashoffset:0;stroke-opacity:1"
       id="path4862-5"
       cx="16.139711"
       cy="942.28131"
       r="2.5477216" />
    <circle
       style="opacity:1;fill:none;fill-opacity:1;stroke:#000000;stroke-width:0.81527096;stroke-linejoin:round;stroke-miterlimit:4;stroke-dasharray:none;stroke-dashoffset:0;stroke-opacity:1"
       id="path4862-2"
       cx="16.139711"
       cy="954.06702"
       r="2.5477216" />
    <circle
       style="opacity:1;fill:#000000;fill-opacity:1;stroke:none;stroke-width:1;stroke-linejoin:round;stroke-miterlimit:4;stroke-dasharray:none;stroke-dashoffset:0;stroke-opacity:1"
       id="path4927"
       cx="16.155418"
       cy="942.2627"
       r="1.5367335" />
    <circle
       style="opacity:1;fill:#000000;fill-opacity:1;stroke:none;stroke-width:1;stroke-linejoin:round;stroke-miterlimit:4;stroke-dasharray:none;stroke-dashoffset:0;stroke-opacity:1"
       id="path4927-5"
       cx="15.916498"
       cy="878.21887"
       r="1.5367335" />
    <text
       xml:space="preserve"
       style="font-style:normal;font-weight:normal;font-size:40px;line-height:125%;font-family:sans-serif;letter-spacing:0px;word-spacing:0px;fill:#000000;fill-opacity:1;stroke:none;stroke-width:1px;stroke-linecap:butt;stroke-linejoin:miter;stroke-opacity:1"
       x="43.277317"
       y="1036.9391"
       id="text4944"
       sodipodi:linespacing="125%"><tspan
         sodipodi:role="line"
         id="tspan4946"
         x="43.277317"
         y="1036.9391"
         style="font-style:normal;font-variant:normal;font-weight:bold;font-stretch:normal;font-size:10px;font-family:sans-serif;-inkscape-font-specification:'sans-serif Bold'">Aide</tspan></text>
    <text
       xml:space="preserve"
       style="font-style:normal;font-weight:normal;font-size:40px;line-height:125%;font-family:sans-serif;letter-spacing:0px;word-spacing:0px;fill:#000000;fill-opacity:1;stroke:none;stroke-width:1px;stroke-linecap:butt;stroke-linejoin:miter;stroke-opacity:1"
       x="196.19968"
       y="1036.6315"
       id="text4944-4"
       sodipodi:linespacing="125%"><tspan
         sodipodi:role="line"
         id="tspan4946-7"
         x="196.19968"
         y="1036.6315"
         style="font-style:normal;font-variant:normal;font-weight:bold;font-stretch:normal;font-size:10px;font-family:sans-serif;-inkscape-font-specification:'sans-serif Bold'">Exporter</tspan></text>
    <text
       xml:space="preserve"
       style="font-style:normal;font-weight:normal;font-size:40px;line-height:125%;font-family:sans-serif;letter-spacing:0px;word-spacing:0px;fill:#000000;fill-opacity:1;stroke:none;stroke-width:1px;stroke-linecap:butt;stroke-linejoin:miter;stroke-opacity:1"
       x="261.11737"
       y="1036.9391"
       id="text4944-44"
       sodipodi:linespacing="125%"><tspan
         sodipodi:role="line"
         id="tspan4946-3"
         x="261.11737"
         y="1036.9391"
         style="font-style:normal;font-variant:normal;font-weight:bold;font-stretch:normal;font-size:10px;font-family:sans-serif;-inkscape-font-specification:'sans-serif Bold'">Annuler</tspan></text>
  </g>
</svg>
