<?xml version="1.0" encoding="UTF-8" standalone="no"?>
<!-- Created with Inkscape (http://www.inkscape.org/) -->

<svg
   xmlns:dc="http://purl.org/dc/elements/1.1/"
   xmlns:cc="http://creativecommons.org/ns#"
   xmlns:rdf="http://www.w3.org/1999/02/22-rdf-syntax-ns#"
   xmlns:svg="http://www.w3.org/2000/svg"
   xmlns="http://www.w3.org/2000/svg"
   xmlns:sodipodi="http://sodipodi.sourceforge.net/DTD/sodipodi-0.dtd"
   xmlns:inkscape="http://www.inkscape.org/namespaces/inkscape"
   width="297mm"
   height="146mm"
   viewBox="0 0 1052.3622 517.32296"
   id="svg2"
   version="1.1"
   inkscape:version="0.91 r13725"
   sodipodi:docname="securite_gege.svg"
   inkscape:export-filename="/home/h4ck3r/Téléchargements/manueldumo_20171110_17h00/images/securite_gege.svg.png"
   inkscape:export-xdpi="300"
   inkscape:export-ydpi="300">
  <defs
     id="defs4" />
  <sodipodi:namedview
     id="base"
     pagecolor="#ffffff"
     bordercolor="#ea6666"
     borderopacity="1"
     inkscape:pageopacity="0.0"
     inkscape:pageshadow="2"
     inkscape:zoom="0.92809369"
     inkscape:cx="494.82691"
     inkscape:cy="399.11825"
     inkscape:document-units="px"
     inkscape:current-layer="layer1"
     showgrid="false"
     borderlayer="true"
     height="100mm"
     inkscape:window-width="1920"
     inkscape:window-height="1027"
     inkscape:window-x="0"
     inkscape:window-y="0"
     inkscape:window-maximized="1" />
  <metadata
     id="metadata7">
    <rdf:RDF>
      <cc:Work
         rdf:about="">
        <dc:format>image/svg+xml</dc:format>
        <dc:type
           rdf:resource="http://purl.org/dc/dcmitype/StillImage" />
        <dc:title></dc:title>
      </cc:Work>
    </rdf:RDF>
  </metadata>
  <g
     inkscape:label="Calque 1"
     inkscape:groupmode="layer"
     id="layer1"
     transform="translate(0,-535.03924)">
    <rect
       style="opacity:1;fill:#ffffff;fill-opacity:1;stroke:none;stroke-width:1.00699997;stroke-miterlimit:4;stroke-dasharray:none;stroke-opacity:1"
       id="rect4404"
       width="1065.6252"
       height="533.35138"
       x="-4.3099089"
       y="526.55316" />
    <path
       style="fill:#000000"
       d="m 815.61809,1004.9897 c -0.63639,-0.1821 -4.28119,-0.8316 -8.09953,-1.4438 -3.81838,-0.612 -10.068,-2.3034 -13.88805,-3.7585 -15.49293,-5.902 -20.51507,-13.9613 -15.09692,-24.22634 l 2.25614,-4.27445 -2.8347,-2.37983 c -4.94321,-4.14989 -8.36847,-12.13768 -7.43584,-17.34055 0.99207,-5.53476 5.76911,-8.7782 18.30206,-12.42649 6.86671,-1.9988 19.3587,-3.25059 18.1685,-1.82049 -0.22005,0.26443 -4.5302,1.69741 -9.57808,3.18433 -16.95792,4.99515 -22.74524,7.9687 -23.88156,12.27059 -0.69849,2.64424 3.19222,11.47557 6.31752,14.33975 l 2.67914,2.45527 2.08215,-2.00215 c 5.12238,-4.92546 13.79093,-11.64544 17.70507,-13.72535 6.31705,-3.35661 6.82524,-1.3097 0.69717,2.80783 -11.16589,7.50262 -22.25618,19.06563 -23.36154,24.35748 -1.91453,9.1651 12.00167,16.6045 37.12558,19.8467 21.10959,2.7242 38.86561,-2.0426 48.29762,-12.9659 3.55484,-4.1169 4.19497,-5.8613 3.82286,-10.41844 -0.18731,-2.29386 1.57391,-3.16221 2.69087,-1.32684 1.19622,1.96568 1.87053,0.78724 1.88219,-3.2891 0.0241,-8.24908 -0.71831,-23.19887 -1.41956,-28.60045 -0.43012,-3.31341 -0.81969,-12.80185 -0.86559,-21.0854 -0.0808,-14.5683 -0.0322,-15.061 1.48815,-15.061 1.28411,0 1.57172,0.59789 1.57172,3.26773 l 0,3.26772 2.31416,-1.43789 c 1.6132,-1.00228 2.31416,-2.12364 2.31416,-3.70204 0,-1.73103 -0.30226,-2.12476 -1.28359,-1.67228 -0.86313,0.39789 -1.10093,0.23653 -0.7259,-0.49251 0.35402,-0.68827 0,-1.08439 -0.96743,-1.08439 -2.05567,0 -3.96556,-0.94019 -3.96556,-1.95228 0,-1.83911 5.86907,-0.38834 8.63288,2.13402 1.56609,1.42937 3.02741,2.59874 3.24736,2.59874 0.22,0 0.81809,-1.67645 1.32897,-3.72558 0.83377,-3.34373 0.77771,-3.85978 -0.54753,-5.03538 -1.27435,-1.13036 -1.51078,-1.12786 -1.72596,0.0185 -0.41295,2.19853 -1.67908,1.49397 -1.67908,-0.93425 0,-1.24436 -0.34712,-2.52013 -0.77139,-2.83527 -0.42426,-0.31502 -0.77466,-3.15484 -0.77862,-6.31078 -0.01,-8.23036 -2.38516,-12.56886 -16.55037,-30.23556 -6.59099,-8.22035 -11.98369,-15.53499 -11.98369,-16.25495 0,-2.86688 1.59223,-2.14488 5.14512,2.3332 l 3.72579,4.69616 -0.2613,-5.61409 c -0.18456,-3.96332 0.0144,-5.6141 0.67713,-5.6141 0.66046,0 0.79447,1.08171 0.45247,3.65143 -0.27969,2.1016 -0.1578,3.89502 0.28709,4.22543 0.42518,0.31578 0.77311,1.70843 0.77311,3.09488 0,1.8632 1.26332,4.02533 4.84189,8.2868 2.66306,3.17125 5.09296,5.76591 5.3997,5.76591 1.11196,0 0.51175,-4.23581 -0.98495,-6.95124 -2.21203,-4.01318 -1.98134,-11.42282 0.79781,-25.62308 1.98898,-10.16225 2.38705,-14.28878 2.64973,-27.4609 0.16991,-8.52583 1.20507,-26.51683 2.3002,-39.98011 1.09519,-13.46321 1.7965,-25.21571 1.55851,-26.11665 -0.23798,-0.90094 0.2771,-7.71225 1.14453,-15.13625 1.9424,-16.62332 2.14465,-32.04918 0.42013,-32.04918 -0.6364,0 -1.15705,0.41707 -1.15705,0.92682 0,0.50977 -0.51663,0.92684 -1.14797,0.92684 -0.74485,0 -1.32312,-1.31588 -1.64663,-3.74704 -0.42335,-3.1808 -0.92016,-3.9678 -3.28757,-5.20787 -2.6012,-1.36257 -3.38551,-1.32007 -11.65972,0.63189 -4.87905,1.15099 -9.30483,2.28792 -9.83519,2.52653 -0.6727,0.30265 -0.96422,2.94248 -0.96422,8.73084 0,5.61002 -0.26492,8.10032 -0.81791,7.68964 -0.53927,-0.40043 -0.63674,-3.10313 -0.28612,-7.93276 0.58872,-8.10905 0.48538,-8.26224 -4.23898,-6.28342 -1.84175,0.77143 -2.71286,0.77143 -3.355,0 -1.51216,-1.81692 0.51129,-3.07225 9.24871,-5.73783 4.57616,-1.39607 7.43854,-2.57891 6.36099,-2.62854 -2.25947,-0.10405 -9.64063,2.06605 -14.4696,4.25419 -2.22196,1.00683 -3.18026,1.92518 -2.90569,2.78473 0.22523,0.70536 -0.0184,1.47875 -0.54168,1.71866 -1.04848,0.48081 -0.94813,17.89824 0.11069,19.19833 0.31564,0.38755 0.1038,3.72415 -0.47062,7.41465 -0.57448,3.6905 -1.14504,14.0088 -1.26803,22.92955 -0.12292,8.92075 -0.34195,16.63662 -0.4867,17.14637 -0.38257,1.34654 0.89224,13.61044 1.35666,13.05241 0.21546,-0.25886 0.65185,-3.66269 0.96979,-7.56407 0.64249,-7.88461 1.84796,-9.94313 4.00157,-6.8333 1.95072,2.81689 2.43341,8.9709 1.88088,23.97918 -0.56902,15.45547 -1.05912,19.53658 -2.3461,19.53658 -0.67891,0 -0.82969,-4.33868 -0.59177,-17.03098 0.19197,-10.2409 0.0155,-17.68252 -0.44201,-18.66525 -0.59539,-1.27829 -0.87421,-0.44542 -1.28027,3.82364 -0.81406,8.55964 -1.27147,10.55548 -2.41945,10.55548 -1.6333,0 -2.47356,-2.62376 -3.8868,-12.13656 -0.71228,-4.79442 -1.57149,-9.08297 -1.90936,-9.53013 -0.71366,-0.94475 -1.76864,3.59101 -3.05028,13.11462 -1.79494,13.33822 -4.80966,12.15095 -9.61002,-3.78473 -0.73876,-2.45232 -1.47901,-4.2955 -1.64513,-4.09596 -0.16607,0.19953 0.0656,2.75234 0.51508,5.6729 0.44931,2.92055 0.67471,6.01496 0.50077,6.87645 -0.44287,2.19314 -3.23265,-5.3874 -4.45467,-12.10441 -0.53329,-2.9311 -1.22213,-5.32928 -1.53065,-5.32928 -0.30864,0 -0.9031,2.39818 -1.32099,5.32928 l -0.76001,5.32929 -0.0871,-7.41466 c -0.0477,-4.07806 0.2447,-8.04025 0.65035,-8.8049 1.17911,-2.22235 3.31003,0.0108 4.68979,4.91585 1.14269,4.06177 1.28049,4.20874 2.53496,2.70199 1.70936,-2.05333 2.12121,-1.31255 4.88238,8.78066 1.14258,4.17649 2.33513,7.40224 2.65008,7.16835 0.31496,-0.2339 0.78782,-2.81688 1.05079,-5.73995 1.28589,-14.29642 2.0104,-17.73036 4.13248,-19.58787 2.04964,-1.79414 2.05406,-1.82521 1.99834,-13.94113 -0.031,-6.67864 0.22431,-11.61261 0.56678,-10.96437 0.34241,0.64824 0.6279,1.97801 0.63439,2.95505 0.007,0.97703 0.20748,1.54131 0.44661,1.25396 0.23919,-0.28737 0.40554,-9.14317 0.36969,-19.67961 -0.0617,-18.26495 0.0132,-19.28929 1.61671,-21.99489 3.57851,-6.03831 15.14591,-9.76073 27.23248,-8.76351 6.9087,0.57001 7.01962,0.61786 9.87982,4.26099 2.05883,2.6224 2.89272,4.51129 2.89272,6.55259 l 0,2.86806 1.87995,-2.60046 c 1.80598,-2.49822 1.93493,-2.53548 3.27838,-0.94774 1.88748,2.23074 2.30566,18.1887 0.79442,30.32294 -0.60302,4.84271 -1.1652,12.14151 -1.2493,16.21955 -0.084,4.07806 -0.82969,15.96468 -1.65708,26.41469 -0.82739,10.45002 -1.86491,25.6732 -2.3056,33.82931 -0.4407,8.15612 -1.13482,16.60789 -1.54243,18.78169 -0.40755,2.17378 -0.74921,5.51038 -0.75915,7.41464 -0.0103,1.90427 -0.87639,8.6757 -1.92557,15.04767 -2.3114,14.03909 -2.35666,16.63968 -0.37055,21.31712 0.84853,1.99843 1.54277,4.27575 1.54277,5.06068 0,0.78493 0.34712,1.42714 0.77139,1.42714 0.42426,0 0.77138,0.80022 0.77138,1.77812 0,0.978 1.17434,4.72239 2.60964,8.32091 1.43524,3.59852 3.07314,8.42888 3.63963,10.7341 0.56994,2.31911 1.50038,4.19131 2.0829,4.19131 0.57919,0 0.90689,0.52135 0.72819,1.15854 -0.17864,0.63721 0.19392,1.61788 0.82802,2.17917 0.79776,0.70633 1.26493,3.34697 1.5167,8.57319 0.26831,5.56858 0.64185,7.55256 1.42191,7.55256 0.58183,0 1.05797,-0.83414 1.05797,-1.85366 0,-2.60543 1.2798,-2.3118 1.85146,0.42477 0.67937,3.25242 -1.56368,9.28703 -4.42629,11.90811 -3.10244,2.84074 -10.12338,7.13056 -11.67023,7.13056 -0.95543,0 -1.18267,1.30962 -1.18267,6.81666 0,11.58604 1.55346,30.55466 2.73555,33.40161 0.61675,1.48543 1.12138,3.7001 1.12138,4.92148 0,1.22138 0.53484,3.46348 1.18864,4.98244 1.50372,3.49388 0.91574,4.77162 -1.65518,3.59709 -3.1222,-1.42631 -5.53688,-0.20978 -6.14071,3.09363 -0.78316,4.2842 -8.24284,12.7584 -14.27648,16.2181 -8.66159,4.9664 -12.90333,5.9252 -27.71361,6.2641 -7.42459,0.1699 -14.01995,0.16 -14.65635,-0.022 z m 67.11062,-87.13917 c 0,-0.20854 -1.01677,0.0463 -2.25947,0.56721 -1.56569,0.65574 -2.73452,0.64091 -3.80627,-0.0482 -0.85066,-0.54701 -1.74307,-0.99459 -1.98312,-0.99459 -0.54501,0 -0.57959,4.15314 -0.0402,4.80154 0.40198,0.48297 8.08879,-3.62807 8.08879,-4.32598 z m 4.07872,-3.42595 c 0.80993,-1.30348 1.35178,-3.12369 1.20398,-4.04479 -0.20622,-1.28522 -0.76208,-0.7789 -2.38998,2.17686 -1.16676,2.11846 -2.12133,4.10392 -2.12133,4.41219 0,1.18291 1.89914,-0.27806 3.30733,-2.54426 z M 835.66236,748.4599 c -0.009,-1.62817 -0.16715,-1.79027 -0.72049,-0.73938 -0.3898,0.7403 -0.5376,1.67871 -0.32839,2.08538 0.66908,1.30073 1.06095,0.79779 1.04888,-1.346 z m 29.58462,186.06311 c 0.28118,-7.04364 0.51123,-16.57776 0.51123,-21.18699 0,-5.89204 0.24229,-8.08919 0.81596,-7.39992 1.79966,2.16231 0.83486,39.4085 -1.05716,40.81348 -0.52214,0.38778 -0.61175,-3.66572 -0.27003,-12.22657 z m -3.06085,7.31427 c -0.28749,-0.9651 -0.66328,-2.06748 -0.83503,-2.4498 -0.17175,-0.38232 0.0144,-0.69513 0.41473,-0.69513 0.76938,0 1.8533,3.80585 1.28009,4.49468 -0.18536,0.22262 -0.57218,-0.38473 -0.85979,-1.34975 z m -7.99872,-8.76059 c 0,-1.04954 -0.3107,-1.67756 -0.69056,-1.39553 -1.296,0.96233 -1.62359,-2.40717 -1.62359,-16.69881 0,-12.08439 0.17858,-14.29006 1.15705,-14.29006 0.83813,0 1.17279,1.08596 1.21397,3.93903 0.0316,2.16647 0.14401,9.88234 0.25051,17.14637 0.10661,7.26403 0.081,13.20735 -0.0569,13.20735 -0.1378,0 -0.25056,-0.85871 -0.25056,-1.90835 z m 4.17166,-0.41828 c -0.69154,-3.31083 0.24338,-19.10495 1.19887,-20.25302 0.66156,-0.79475 0.23884,21.52037 -0.4253,22.4573 -0.13304,0.1876 -0.48108,-0.80431 -0.77357,-2.20428 z m -43.01256,-9.80987 c -1.04699,-12.03619 -0.12459,-42.37944 1.3419,-44.14144 1.71303,-2.05821 1.96261,2.71719 1.29112,24.7008 -0.71676,23.46207 -1.67058,30.5047 -2.63302,19.44064 z m 44.72806,-15.75204 c -0.26808,-1.61074 -0.4469,-4.02336 -0.39727,-5.36153 0.0494,-1.33807 0.40152,-0.17953 0.78202,2.57464 0.74186,5.36988 0.42604,7.65766 -0.38475,2.78689 z m -4.14983,-15.20911 c -0.009,-2.03903 0.1424,-2.98227 0.33546,-2.09613 0.19307,0.88614 0.20007,2.55445 0.0155,3.70734 -0.18456,1.15287 -0.34252,0.42782 -0.35108,-1.61121 z m -55.34865,-24.31032 c -3.72918,-0.52469 -6.38966,-2.12319 -7.78148,-4.6754 -1.0648,-1.95256 -1.21392,-3.73708 -0.82475,-9.86965 0.26131,-4.11744 0.68253,-8.36178 0.93619,-9.43199 0.4226,-1.78378 0.0694,-1.995 -4.23634,-2.53581 -5.69013,-0.71458 -10.01607,-3.22426 -11.76357,-6.82463 -1.98467,-4.08927 -3.18836,-14.44559 -2.75071,-23.66765 0.43621,-9.1912 1.22615,-11.09548 3.80144,-9.16302 1.40382,1.05333 1.74112,1.01645 2.33329,-0.25498 1.00517,-2.15812 2.40704,-1.9228 1.44271,0.24218 -0.65576,1.47227 -0.32179,1.97119 2.25298,3.36626 2.54335,1.37792 4.28235,1.54113 10.96358,1.02887 5.5344,-0.42431 7.55372,-0.32179 6.66354,0.33838 -2.10622,1.56181 -22.25004,4.20281 -22.25004,2.91712 0,-0.3522 -0.68413,-0.64035 -1.52031,-0.64035 -1.19922,0 -1.62497,0.83896 -2.0161,3.97276 -0.60922,4.88144 1.39504,10.93364 3.32606,10.04333 5.12289,-2.36203 13.80253,-4.12931 23.38423,-4.7614 6.13404,-0.40466 10.14009,-0.96929 8.90233,-1.25476 -1.23781,-0.28545 -2.40704,-1.08419 -2.59826,-1.77487 -0.23666,-0.85464 0.1127,-1.10016 1.0934,-0.76872 0.7927,0.26795 2.24138,0.76417 3.21927,1.10275 0.97795,0.33866 1.64657,1.10163 1.48579,1.69554 -0.60503,2.23553 -5.07613,3.77165 -13.29187,4.5665 -4.66692,0.45155 -11.86972,1.69036 -16.00628,2.75287 -8.11446,2.08426 -8.53775,2.57743 -6.59944,7.68891 2.14764,5.6633 9.51444,7.11861 21.28686,4.20521 4.96372,-1.22842 8.3903,-1.66014 9.14549,-1.15232 0.95554,0.64247 0.58653,1.10876 -1.76669,2.23255 -1.63588,0.78122 -4.98618,1.95747 -7.44503,2.61394 -2.45891,0.65637 -4.59564,1.4363 -4.74832,1.73317 -0.15268,0.29677 -0.52662,4.36454 -0.83101,9.03957 -0.54087,8.30756 -0.50842,8.55391 1.43478,10.88879 1.79564,2.15747 2.57076,2.38937 8.00154,2.3941 3.30733,0 9.5775,-0.49011 13.93384,-1.09561 5.94885,-0.82682 8.14037,-0.83674 8.8037,-0.0398 0.6634,0.79697 0.38159,1.29034 -1.13189,1.98165 -3.43887,1.57098 -20.55435,3.71057 -24.84893,3.10637 z m -17.35623,-60.92554 c 0,-0.23689 -0.65949,-0.8549 -1.46563,-1.37328 -1.10954,-0.71349 -1.57224,-0.60875 -1.90431,0.43079 -0.31443,0.98466 0.10047,1.37328 1.46575,1.37328 1.04728,0 1.90419,-0.19379 1.90419,-0.43079 z m -4.93362,-3.02546 c -0.2563,-0.30797 -0.43868,0.2394 -0.40519,1.21647 0.0368,1.07967 0.21983,1.29933 0.46608,0.55991 0.22282,-0.66899 0.19547,-1.46838 -0.0609,-1.77638 z m 46.97421,56.105 c -2.1717,-1.47968 -2.67455,-2.6248 -2.68805,-6.12144 -0.0172,-4.3665 1.81827,-8.03999 4.89198,-9.79244 3.32117,-1.89361 5.08188,-1.91122 7.26674,-0.0723 2.31324,1.94672 2.22122,6.03274 -0.21403,9.51012 -1.06066,1.51453 -1.9285,3.38257 -1.9285,4.15118 0,0.76863 -1.09323,1.85534 -2.42927,2.41496 -2.93355,1.22879 -2.96417,1.22823 -4.89887,-0.0899 z m 3.47615,-5.38332 c 4.24679,-2.60318 6.14674,-7.43782 3.4175,-8.69617 -1.54891,-0.71413 -5.45651,1.70443 -6.48512,4.01363 -0.82935,1.86192 -1.09955,6.53917 -0.37785,6.53917 0.22902,0 1.77949,-0.83545 3.44547,-1.85663 z m 39.85953,-41.33157 c 0.20598,-11.67456 0.49198,-21.64364 0.63576,-22.1534 0.14378,-0.50976 0.28348,8.45734 0.31047,19.92687 0.027,11.46953 -0.259,21.43863 -0.63576,22.1534 -0.40428,0.76732 -0.53145,-7.39584 -0.31047,-19.92687 z m -23.46672,13.35638 c -1.59022,-1.91066 -1.76938,-1.93727 -3.12483,-0.46342 -1.94424,2.1141 -3.43227,1.96646 -5.38782,-0.5345 -2.28234,-2.91915 -4.24139,-8.75624 -3.19853,-9.5306 0.99702,-0.74036 0.92619,-0.83545 2.92149,3.91937 2.08657,4.97236 2.57023,5.2709 5.39011,3.32631 2.26763,-1.56365 2.40371,-1.54957 4.69656,0.48724 1.29876,1.15362 2.36132,1.77886 2.36132,1.38932 0,-1.05289 -4.14449,-10.8457 -4.85763,-11.47788 -0.82612,-0.73229 1.51291,-3.00062 2.40831,-2.33561 0.38716,0.2874 0.92717,2.2002 1.20007,4.25053 0.44392,3.33567 1.06842,4.22014 2.4688,3.49611 0.72359,-0.37399 2.58028,4.22069 2.6101,6.4588 0.0195,1.45365 -0.31174,1.89991 -1.12983,1.52278 -0.63634,-0.29343 -1.15705,-0.0723 -1.15705,0.49243 0,1.77637 -3.44071,1.11424 -5.20107,-1.00088 z m 16.23169,-5.38777 c 0,-2.80366 0.14452,-3.95062 0.32133,-2.54879 0.17674,1.40185 0.17674,3.69574 0,5.09758 -0.17681,1.40183 -0.32133,0.25488 -0.32133,-2.54879 z m -42.22199,-1.15854 c -0.15808,-0.63719 -0.48343,-1.88842 -0.72297,-2.7805 -0.28077,-1.04591 -0.0333,-1.62194 0.6974,-1.62194 0.62308,0 1.13287,0.46174 1.13287,1.02599 0,1.52779 1.26085,0.70663 8.67808,-5.65199 6.59869,-5.65682 7.92916,-7.42281 5.5926,-7.42281 -0.74548,0 -1.1609,-0.90672 -1.16768,-2.54878 -0.0276,-6.70832 0.43731,-6.46734 -13.75083,-7.12761 -7.06827,-0.32904 -17.45083,-1.11026 -23.07226,-1.73625 -8.40891,-0.93638 -10.22091,-0.92219 -10.22091,0.0797 0,0.83619 -0.89805,1.13279 -2.86537,0.94612 -2.08939,-0.19825 -2.93212,0.11595 -3.11163,1.16003 -0.20311,1.18105 1.36677,1.62556 8.963,2.53812 5.06505,0.60846 10.13268,1.52816 11.26136,2.04375 1.12867,0.5156 4.09181,0.9375 6.58478,0.9375 2.49292,0 4.69438,0.3128 4.89215,0.69511 0.52508,1.01498 -18.11738,0.35711 -19.93886,-0.70355 -0.84854,-0.4941 -4.3198,-1.00709 -7.71387,-1.14009 l -6.17109,-0.24172 0,-3.10489 c 0,-2.55962 0.54472,-3.57905 3.10157,-5.80447 l 3.10152,-2.69949 7.69789,0.91396 c 4.23375,0.50271 15.16097,1.34316 24.28262,1.86765 9.12165,0.52459 17.88653,1.38941 19.47749,1.92189 3.05062,1.0209 4.02409,3.66143 1.34994,3.66143 -2.01517,0 -2.04315,3.17339 -0.0625,7.07636 0.81108,1.59814 1.63611,3.68351 1.83343,4.63416 0.19742,0.95075 0.23338,-0.0446 0.0801,-2.2105 -0.20857,-2.94705 0,-3.93903 0.81975,-3.93903 2.79616,0 4.79243,9.19871 2.5746,11.86344 -1.67833,2.01651 -3.78984,1.26124 -4.71597,-1.68683 -0.48366,-1.53938 -1.24672,-2.62961 -1.69574,-2.42254 -0.44903,0.20704 -4.05999,3.1349 -8.02446,6.50634 -7.50914,6.38596 -8.4108,6.89035 -8.88711,4.97135 z m -41.31895,-4.23042 c 0,-0.41522 3.73159,-1.23677 8.29242,-1.82577 4.56082,-0.58891 11.90131,-2.1344 16.31221,-3.43447 4.41085,-1.29997 8.1537,-2.2027 8.31735,-2.00603 0.50653,0.60856 -13.01712,6.12329 -17.40671,7.09822 -5.00227,1.11109 -15.51527,1.22491 -15.51527,0.16805 z m 75.17448,-4.34277 c 0.22815,-2.03903 0.57418,-9.29843 0.76897,-16.13215 0.34775,-12.20488 0.39394,-12.47561 2.60838,-15.29271 1.23993,-1.57728 2.6167,-4.11912 3.05952,-5.64836 l 0.80516,-2.78049 0.0609,2.54612 c 0.0402,1.68224 -0.86657,3.77956 -2.67254,6.18135 l -2.73337,3.63522 -0.38716,14.13465 c -0.21294,7.77407 -0.73313,14.79371 -1.15602,15.59922 -0.55471,1.05667 -0.65328,0.43218 -0.35389,-2.24285 z m -76.31281,-27.305 c -0.26038,-0.50633 -0.0876,-2.64222 0.38394,-4.74639 0.47154,-2.1042 0.65944,-4.44583 0.41738,-5.20353 -0.24195,-0.75772 0.13424,-2.83143 0.83595,-4.60825 1.25413,-3.17541 1.24149,-3.27192 -0.73813,-5.65049 l -2.01408,-2.41992 -8.33872,10.36922 c -5.52809,6.87418 -8.89676,10.36917 -9.99419,10.36917 -3.13069,0 -2.65163,-4.20299 1.16159,-10.191 1.33477,-2.0959 2.06842,-4.39868 2.06842,-6.49192 0,-3.21109 0.0587,-3.26805 5.83253,-5.62828 3.20796,-1.3114 7.86896,-3.70958 10.35786,-5.32928 2.48895,-1.6197 4.99296,-2.94491 5.5645,-2.94491 1.32007,0 2.54376,3.81886 2.54376,7.9384 0,4.78522 -1.32438,3.82637 -1.92166,-1.39125 -0.40066,-3.5 -0.79052,-4.45179 -1.6595,-4.05114 -0.62468,0.28802 -0.94624,1.11731 -0.71446,1.84288 0.23172,0.72558 -0.16807,2.39998 -0.8884,3.72091 -1.2891,2.36386 -1.26871,2.44292 1.29779,5.01724 2.36775,2.37501 2.4712,2.67614 1.12551,3.27483 -2.5727,1.14459 -3.73395,4.96525 -1.50905,4.96525 0.62152,0 1.50429,0.84034 1.9617,1.8674 0.85025,1.90867 0.80085,1.96473 -2.89875,3.29001 -0.53036,0.19 -0.96428,1.58506 -0.96428,3.10024 0,2.85836 -1.08433,4.50543 -1.90971,2.90081 z M 763.9626,773.09097 c 5.38977,-6.88936 6.49461,-8.64286 5.44572,-8.64286 -1.31772,0 -8.65413,8.52463 -10.38152,12.06296 -1.40187,2.87161 -1.40187,2.92053 0,1.99788 0.79045,-0.52023 3.01162,-2.95836 4.9358,-5.41798 z m 91.57476,4.33442 c 0.5303,-0.71458 0.96421,-1.91409 0.96421,-2.66566 0,-1.01714 -0.45637,-0.85131 -1.78535,0.64878 -1.91269,2.15897 -3.98594,2.61543 -4.78892,1.05437 -0.85347,-1.65931 0.45982,-8.14899 2.31312,-11.43039 0.97784,-1.73123 2.34151,-5.59473 3.03035,-8.58555 0.8479,-3.68113 1.10104,-4.24019 0.78356,-1.73055 -0.25791,2.03901 -0.52318,4.60212 -0.58935,5.69575 -0.0663,1.09364 -0.76099,2.8386 -1.54375,3.87768 -1.4106,1.87242 -3.49172,7.83234 -3.55691,10.18619 -0.0488,1.75469 3.1003,0.97885 4.13001,-1.01767 0.65472,-1.26931 0.58918,-1.84381 -0.28457,-2.4984 -0.62411,-0.46753 -0.89288,-1.1407 -0.59717,-1.49594 0.29566,-0.35524 1.1242,-0.0651 1.84119,0.64473 1.18238,1.1705 1.25453,1.05339 0.77535,-1.25818 -0.2906,-1.40182 -0.21506,-2.54878 0.16779,-2.54878 2.01299,0 1.53674,9.39091 -0.57276,11.29416 -1.05095,0.94815 -1.09685,0.9209 -0.2868,-0.17054 z m 14.25671,-1.85532 c 0,-1.78414 0.15877,-2.51401 0.35276,-1.62194 0.19409,0.89204 0.19409,2.35181 0,3.24389 -0.19399,0.89207 -0.35276,0.16219 -0.35276,-1.62195 z m -1.7217,-4.4011 c 0,-0.57966 0.64909,-2.43325 1.44242,-4.11909 1.85595,-3.94392 2.14017,-11.2095 1.61912,-41.39332 -0.12471,-7.22897 0.50772,-13.1134 1.40887,-13.10733 0.77328,0.006 0.67414,32.91912 -0.13332,44.23236 -0.55098,7.72072 -1.01615,10.03295 -2.50682,12.46057 -1.00667,1.6394 -1.83027,2.50647 -1.83027,1.92681 z m -60.00575,-3.4189 c -0.54507,-1.4374 -2.05384,-5.9247 -3.35283,-9.9718 -1.29893,-4.04709 -2.50486,-7.18637 -2.67977,-6.97618 -0.17497,0.21021 -0.79442,3.26228 -1.3766,6.78241 l -1.05836,6.4002 -0.0782,-7.41465 c -0.0845,-8.01694 0.48016,-10.09341 2.60867,-9.59121 2.28124,0.53821 4.14086,4.56231 5.82638,12.60787 1.75025,8.35466 1.80844,12.64019 0.11075,8.16336 z m -10.71865,-3.99708 c -1.46649,-6.19744 -4.61499,-15.52443 -5.24053,-15.52443 -0.41514,0 -1.1115,2.26001 -1.54749,5.02222 -0.90947,5.76215 -2.70505,7.54308 -2.72354,2.70138 -0.009,-2.42832 -0.18577,-2.79195 -0.82464,-1.69918 -0.58602,1.00242 -0.66879,-0.16103 -0.29674,-4.17075 0.57528,-6.20068 0.89643,-7.2364 1.99162,-6.42315 0.41358,0.30709 1.2574,0.0543 1.87519,-0.56178 1.37941,-1.3755 2.97106,-0.031 4.68909,3.96072 1.61199,3.74547 4.1801,18.31693 3.22812,18.31693 -0.42197,0 -0.93992,-0.72989 -1.15108,-1.62196 z m 49.89697,-13.15264 c 0,-0.98944 -0.3674,-2.07183 -0.81654,-2.40532 -0.45626,-0.33878 -0.60882,-1.74255 -0.34586,-3.1811 0.3284,-1.79675 0.13097,-2.73135 -0.65351,-3.09304 -1.48372,-0.68406 -2.50665,-6.21284 -1.31347,-7.09885 0.95871,-0.71189 0.9741,-1.17837 0.32995,-9.99596 -0.23798,-3.25825 -0.11408,-5.79269 0.28319,-5.79269 0.38842,0 0.54845,1.29194 0.35556,2.871 -0.19289,1.57905 0.0663,4.3943 0.57643,6.25611 0.72687,2.65416 0.72136,3.98551 -0.0253,6.16559 -1.11627,3.25984 -0.98157,5.00127 0.54575,7.05583 1.12414,1.51211 2.4673,11.01738 1.55685,11.01738 -0.27124,0 -0.49314,-0.80953 -0.49314,-1.79895 z m 9.52104,-7.00595 c 0,-4.07805 0.13849,-5.63106 0.3014,-3.45112 0.1629,2.17995 0.16066,5.51654 -0.007,7.41466 -0.16578,1.89811 -0.2991,0.1145 -0.29629,-3.96354 z m 19.3247,-10.65855 c 0.27578,-1.78414 0.71279,-9.8036 0.97111,-17.82104 0.49337,-15.31239 1.81223,-19.34633 1.80689,-5.52675 0,7.72734 -1.87634,25.03237 -2.8239,26.08552 -0.25045,0.2784 -0.22977,-0.95358 0.0465,-2.73773 z m -16.69639,-0.30751 c -0.31823,-0.93377 -0.54369,-4.68743 -0.50101,-8.34148 0.0725,-6.24666 0.12074,-6.42216 0.80223,-2.9364 0.85267,4.36188 0.59757,13.91545 -0.30122,11.27788 z m 7.48094,-6.83906 c -0.30697,-3.93667 -0.32851,-12.04129 -0.0477,-18.01029 0.33213,-7.06274 0.23459,-11.05753 -0.2794,-11.43924 -0.43443,-0.32261 -0.78988,-2.73072 -0.78988,-5.35136 0,-3.77111 0.19789,-4.52703 0.949,-3.62459 0.66374,0.79745 0.98059,5.6597 1.05411,16.17321 0.0578,8.26813 0.3562,18.00894 0.66317,21.64625 0.35137,4.16394 0.27118,6.8263 -0.21644,7.18844 -0.47694,0.35417 -0.9891,-2.17507 -1.33283,-6.58242 z m -16.02329,-5.09077 c -1.0243,-5.00995 -1.36298,-11.56121 -0.70573,-13.65259 0.54857,-1.74551 0.81521,-0.28479 1.17876,6.45771 0.47453,8.80105 0.32386,11.09259 -0.47303,7.19488 z m -10.8966,-5.14074 c 2.44961,-17.2291 4.89473,-28.27636 4.952,-22.37302 0.0195,1.98174 -1.72038,13.82185 -3.49137,23.76327 -0.64944,3.64556 -1.99461,2.36524 -1.46063,-1.39025 z m 16.96964,-4.17074 c -0.68982,-2.66812 -1.16372,-15.90604 -0.52261,-14.59759 0.37475,0.76463 0.84526,4.62257 1.04579,8.57319 0.34224,6.74415 0.17146,8.71089 -0.52318,6.0244 z m 17.77543,-8.89809 c -0.90901,-1.76715 -1.45253,-9.40683 -0.66925,-9.40683 0.42283,0 0.9822,2.16509 1.24304,4.81132 0.47671,4.83637 0.29571,6.28597 -0.57379,4.59551 z m -3.74429,-8.18662 c -0.84508,-1.79498 -1.31088,-5.85437 -0.67189,-5.85437 0.38422,0 0.87035,1.35549 1.08042,3.01221 0.38986,3.07562 0.22879,4.19593 -0.40853,2.84216 z m -10.21195,-4.00071 c 0.26222,-0.50974 1.23736,-0.92044 2.16682,-0.91263 1.37413,0.012 1.47379,0.18221 0.53306,0.91263 -1.51974,1.18003 -3.30687,1.18003 -2.69988,0 z"
       id="path4147"
       inkscape:connector-curvature="0"
       sodipodi:nodetypes="ccsscssscssccccssssssccsssccsccsscscccsccssccssscssssscsscssscsscscsscssscscsscsccsssccsscscsccssccccscsccscsccccsssccsccssscccsssccsscssscssscssscsscccccscccsccsscsccssscsccscccsssccsccccccsssscccccsccccsscccscsscscssccsscccsssssccccsccsscccsccsscccccccscsssccsscssssscssccssccsscccccsssccsccssssscssscsssssccssccscssccsscssccsccscsccccccscscccscsccssssccssssccsssccscsscsscsccscccssccsscsccsccsscccscssccccsssscssccssccsccccsscsccccscccsccccsccccscsscscsssssccscssscssccsccscccsccccsc" />
    <path
       style="fill:#000000"
       d="m 526.16902,1031.4117 c -28.96131,-2.8618 -50.1738,-14.4695 -54.5953,-29.8756 -2.50461,-8.72681 -1.29088,-16.1251 3.57053,-21.76378 2.88143,-3.34217 6.68119,-4.92149 6.80226,-2.82736 0.0459,0.79367 -0.54218,1.77142 -1.30686,2.1727 -2.05884,1.08071 -5.29777,5.49639 -6.31038,8.60301 -4.1009,12.58133 7.16526,26.35373 27.12821,33.16343 15.77134,5.3798 35.77478,6.877 50.73029,3.7972 16.22999,-3.3422 26.76042,-11.7007 30.41259,-24.1401 2.58224,-8.79477 -0.11962,-22.96429 -5.53721,-29.0392 l -1.90566,-2.13696 1.64053,-0.71188 c 2.38833,-1.03642 5.2526,1.41964 7.78233,6.67322 1.96854,4.0882 2.23732,5.48676 2.7466,14.29476 0.54998,9.51258 0.50851,9.90621 -1.60184,15.33116 -2.64426,6.7962 -4.32476,9.2887 -9.45763,14.0275 -4.35414,4.0199 -10.93613,7.7044 -17.42339,9.7533 -5.92146,1.8702 -25.01543,3.4354 -32.67514,2.6786 z m 66.42296,-33.26088 c 0.073,-1.44371 0.66028,-2.2504 1.8659,-2.5633 4.51697,-1.17176 10.64018,-5.31919 13.10666,-8.87731 4.02629,-5.80826 3.24145,-11.01427 -2.90364,-19.2588 -4.74318,-6.36369 -3.13782,-8.89539 2.21108,-3.48719 3.97567,4.01976 6.30209,9.40432 6.64803,15.38701 0.22935,3.96692 -0.0485,5.3322 -1.64915,8.10567 -2.41371,4.18232 -8.67173,9.36173 -13.52102,11.19084 -5.30554,2.00126 -5.8815,1.95146 -5.75786,-0.49692 z m 40.20342,-80.76458 c -3.49418,-1.25143 -3.36122,-5.07259 0.42133,-12.11332 2.37772,-4.42562 2.32727,-4.65267 -1.17123,-5.27627 -1.24728,-0.22264 -3.79498,-1.46639 -5.66142,-2.76454 -3.14264,-2.18579 -3.53526,-2.24995 -5.31202,-0.86707 -2.46864,1.92138 -14.02514,5.74875 -15.75132,5.21674 -0.72663,-0.22398 -1.35304,-0.95924 -1.39204,-1.63392 -0.0782,-1.35367 1.80416,-2.35067 7.62398,-4.03805 7.628,-2.21147 9.7161,-3.57997 10.5676,-6.9254 0.43165,-1.69613 0.89763,-5.07948 1.03548,-7.51855 0.23513,-4.16017 1.47249,-5.95089 2.65131,-3.83699 0.40215,0.72116 0.0135,7.15754 -0.71348,11.81392 -0.24509,1.56985 0.44297,2.25848 4.03558,4.03978 2.38207,1.18097 5.58448,2.12375 7.11643,2.09502 2.73624,-0.0514 2.84399,-0.18657 6.09564,-7.66867 1.82054,-4.18906 3.29078,-7.94993 3.26719,-8.35754 -0.024,-0.40766 -4.19414,-1.65624 -9.26796,-2.77463 -16.32051,-3.59763 -20.0753,-4.94435 -20.48797,-7.34845 -0.32551,-1.89617 -0.15121,-2.0716 1.68773,-1.69664 1.12783,0.23001 4.22265,0.45698 6.87733,0.50446 3.01988,0.054 4.85053,0.49992 4.89051,1.19111 0.0368,0.63526 3.39733,1.83552 7.90639,2.8239 9.22265,2.02153 8.80256,2.012 8.69769,0.19839 -0.17468,-3.02071 -8.60946,-5.67551 -23.28188,-7.3277 -15.05673,-1.69547 -29.85223,-2.77964 -33.30272,-2.44025 l -2.13102,0.20962 2.61774,2.4997 c 1.65069,1.57629 3.43676,2.4331 4.83516,2.31939 4.64676,-0.37785 14.88101,1.49381 18.30028,3.34664 10.38355,5.62648 8.97096,16.61252 -2.73406,21.2638 -3.22378,1.28098 -7.40259,0.68621 -7.50407,-1.06867 -0.0201,-0.34558 2.28461,-1.77268 5.12127,-3.17119 2.83674,-1.39858 5.99968,-3.67877 7.02878,-5.06709 l 1.8712,-2.52419 -2.43728,-2.51124 c -3.67279,-3.78429 -8.81203,-4.95233 -19.3923,-4.40742 -17.43819,0.89797 -25.48993,6.83653 -23.36354,17.2318 0.58823,2.87595 4.64153,8.57523 6.00339,8.44129 0.34424,-0.0339 0.66207,0.56372 0.7063,1.32803 0.12494,2.1607 -2.40941,1.88603 -4.9928,-0.54102 -6.22908,-5.85225 -7.11459,-16.2201 -1.95746,-22.91718 2.4614,-3.19631 8.73616,-6.99662 12.09839,-7.32732 1.76105,-0.17324 2.21636,-2.56005 1.42207,-7.4544 l -0.57434,-3.53863 -7.23991,0.13374 c -13.6035,0.25136 -30.60412,-2.6505 -30.75439,-5.24934 -0.0635,-1.10047 3.96865,-1.09934 22.14414,0.007 6.77324,0.41193 14.62019,0.31464 18.36182,-0.22761 9.31128,-1.34953 9.64679,-1.9593 9.13454,-16.60105 l -0.38888,-11.11603 -2.02968,0.17262 c -1.1163,0.095 -6.10463,0.18429 -11.08516,0.19873 -8.8122,0.0256 -13.46546,-1.00806 -14.72753,-3.27123 -0.49378,-0.88535 2.24649,-1.23957 13.56199,-1.75329 27.92819,-1.26798 27.60832,-1.16796 30.07481,-9.40834 1.48732,-4.96926 2.96472,-17.16521 2.67867,-22.11253 -0.1574,-2.72213 -0.17882,-2.73409 -2.76015,-1.5254 -3.57444,1.6736 -9.77484,1.30327 -22.67522,-1.35447 -15.60422,-3.21481 -14.33731,-3.25045 -17.14115,0.48339 -4.47429,5.95845 -5.28797,11.62529 -2.20988,15.39084 2.02365,2.47558 7.74619,4.50946 11.61644,4.12877 3.60095,-0.35415 3.55731,1.11631 -0.0664,2.242 -5.44683,1.69222 -10.57011,0.007 -14.04235,-4.61895 -3.55782,-4.73999 -2.72524,-11.30639 2.28154,-17.995 l 2.72147,-3.63543 -4.69098,-0.59625 c -2.58009,-0.32795 -5.50956,-0.51572 -6.51007,-0.4173 -2.30401,0.22661 -3.29907,-2.14694 -1.33273,-3.17904 2.5105,-1.31769 10.52984,-0.4644 25.39542,2.70223 14.93161,3.1807 28.95248,5.25633 29.53515,4.37235 0.1828,-0.27735 0.0369,-9.24452 -0.32427,-19.92717 l -0.65666,-19.42288 -4.35013,0.74334 c -3.51651,0.60097 -4.452,0.46215 -4.88225,-0.72454 -0.81566,-2.25016 -0.0409,-2.70292 3.31399,-1.9369 4.63888,1.05917 4.83003,0.44595 4.24619,-13.61509 l -0.50678,-12.20258 1.76021,-0.44337 c 1.50541,-0.37919 2.27614,0.48411 5.32511,5.96517 3.64414,6.5509 10.9092,16.89091 11.37324,16.18704 0.14174,-0.21507 -0.79805,-4.86893 -2.08842,-10.34206 -3.02907,-12.84779 -3.34768,-17.41562 -1.29025,-18.49553 1.92533,-1.01063 3.92752,1.58314 5.2835,6.8445 0.53521,2.07659 2.3567,8.48971 4.0478,14.25128 3.02657,10.31166 4.04485,16.63496 2.85993,17.75913 -0.3316,0.31454 -1.23041,-0.86312 -1.99732,-2.61691 -1.34249,-3.06993 -1.44185,-3.12378 -2.66492,-1.44515 -1.04973,1.44046 -1.59437,1.58839 -3.13282,0.85074 -2.50898,-1.20279 -8.72749,-7.8043 -11.39729,-12.09905 -1.19248,-1.9184 -2.40135,-3.46504 -2.68634,-3.43701 -0.28495,0.028 0.0605,13.09561 0.76772,29.03906 1.33553,30.10959 1.15865,37.23803 -1.23551,49.79545 -0.74253,3.89454 -1.92697,6.98788 -3.65619,9.54891 -2.40058,3.55527 -2.89798,3.85808 -8.09349,4.92588 l -5.53585,1.13778 -0.23901,4.216 c -0.13147,2.3188 -0.0714,7.55353 0.13332,11.63271 0.41045,8.17347 -0.54522,11.21536 -4.49945,14.32411 l -1.9741,1.55207 2.43382,0.22281 c 1.33868,0.1226 5.97438,0.30228 10.30158,0.39931 4.32723,0.097 20.92638,1.687 36.88714,3.53335 l 29.01945,3.35692 3.64835,-2.79186 c 2.00653,-1.53562 4.39057,-2.86503 5.29778,-2.95427 0.90728,-0.0892 2.00063,-1.03528 2.42958,-2.10229 1.04404,-2.59656 2.30268,-2.59405 2.17534,0.004 -0.12002,2.44803 -1.50166,2.14557 21.47791,4.70177 24.07338,2.67786 41.36709,5.14346 76.14412,10.85605 0.71203,0.11687 0.77065,-2.45369 0.25518,-11.19529 -0.80517,-13.65384 -0.0138,-14.71804 3.29187,-4.42713 2.03829,6.34531 3.62557,9.625 9.42789,19.48018 0.92676,1.57417 1.97315,2.83381 2.32525,2.7992 0.35196,-0.0347 0.67622,0.56235 0.72038,1.32663 0.0575,0.99301 -0.69497,1.46585 -2.63597,1.65678 -2.12434,0.20893 -4.02929,1.59361 -8.74027,6.35278 -3.31312,3.34701 -6.73594,7.24727 -7.60631,8.66731 -1.46532,2.39065 -4.12744,3.74396 -4.21301,2.14172 -0.0222,-0.38214 0.81052,-2.66509 1.84653,-5.07288 2.06463,-4.79805 2.25916,-5.93192 0.93498,-5.44904 -0.4809,0.1754 -0.81689,-0.25005 -0.74662,-0.94553 0.0723,-0.71555 -0.25492,-1.01049 -0.75362,-0.6795 -2.95392,1.96085 -10.38048,5.4849 -10.73079,5.0921 -0.78063,-0.87549 0.30743,-2.30601 3.5786,-4.70538 1.79497,-1.31664 5.05092,-4.08036 7.23531,-6.1417 4.76142,-4.49301 5.23034,-4.20014 -9.90337,-6.18549 -5.74028,-0.75305 -11.00885,-1.53458 -11.7081,-1.73684 -0.96979,-0.28046 -1.24014,0.1714 -1.13985,1.90559 0.19863,3.43535 -4.22983,4.46347 -11.27771,2.61816 -6.71815,-1.75902 -28.22691,-1.0277 -24.95207,0.84835 1.27635,0.73114 1.96916,1.97497 2.24241,4.0258 0.21751,1.63232 0.5409,2.95347 0.71866,2.93598 0.17779,-0.0171 1.83901,-1.26309 3.69162,-2.76819 1.96195,-1.59384 3.94068,-2.56005 4.73894,-2.31398 3.84909,1.1864 6.31856,15.98751 3.52377,21.12094 -1.17422,2.15687 -5.25243,4.0165 -7.78179,3.54849 l -2.2784,-0.42168 3.69572,-2.81903 c 3.08463,-2.35296 3.74115,-3.326 3.9707,-5.88534 0.31706,-3.5367 -1.23868,-11.27976 -2.24621,-11.18069 -0.37451,0.0368 -2.25761,1.68943 -4.18482,3.67244 -1.92724,1.98303 -4.21149,3.67508 -5.07609,3.76013 -1.41572,0.13926 -1.62405,-0.37326 -2.09322,-5.15121 l -0.52095,-5.30584 -3.79512,5.39971 c -2.08731,2.96985 -3.75235,6.13888 -3.70017,7.04231 0.14849,2.5677 -0.5116,4.6496 -1.50437,4.74734 -1.01427,0.0998 -1.92273,-2.67129 -2.16468,-6.60286 -0.20899,-3.39216 -1.54683,-6.07542 -2.96022,-5.9364 -2.13211,0.20971 -7.81529,5.7589 -9.03153,8.81858 -0.67132,1.68874 -1.38596,4.72619 -1.58816,6.74998 -0.50969,5.1024 -2.29436,5.11423 -2.87601,0.0192 -0.46349,-4.05997 0.58843,-8.57508 2.88903,-12.40086 l 1.30963,-2.17772 -1.71524,-0.30699 c -0.94341,-0.16836 -7.56618,-1.42748 -14.71714,-2.79759 -14.48826,-2.77599 -14.80541,-2.79961 -14.7068,-1.09455 0.0386,0.66626 -2.34062,3.91113 -5.287,7.21079 -2.94644,3.29955 -5.19589,6.18014 -4.99875,6.40121 0.19715,0.22108 2.37738,0.48436 4.8449,0.58509 4.38341,0.17901 4.43959,0.21429 2.44502,1.53648 -1.12281,0.74426 -4.01855,1.79154 -6.435,2.32727 -4.31505,0.95678 -4.3843,1.01783 -3.8697,3.41796 1.32954,6.2011 -8.55191,14.2496 -14.76362,12.02504 z m 11.29814,-6.33066 c 1.43623,-1.43973 1.76142,-2.53215 1.5976,-5.36609 -0.20396,-3.52689 -0.23517,-3.56061 -3.50929,-3.82124 -1.81695,-0.14455 -3.59072,0.009 -3.94162,0.34207 -1.06727,1.01239 -5.72322,10.36134 -5.66464,11.37421 0.0915,1.58297 9.47026,-0.47639 11.51792,-2.52923 z m 141.15998,-25.3954 c -0.0603,-1.04303 -3.24473,1.24208 -4.28661,3.07604 -2.02057,3.55686 -1.10086,3.88526 1.64111,0.58608 1.4693,-1.76784 2.65978,-3.41575 2.6455,-3.66212 z m -131.25712,4.20059 c 3.02135,-3.51565 4.39511,-5.66845 3.69376,-5.7887 -0.61409,-0.10552 -1.14844,-0.74156 -1.1873,-1.41395 -0.0853,-1.47574 -1.07792,-1.91036 -5.28664,-2.31505 -3.1191,-0.29983 -3.23282,-0.2198 -3.99727,2.81512 -0.43283,1.71807 -1.74006,5.0351 -2.90509,7.37115 -2.81717,5.6487 -2.79578,6.45184 0.18124,6.8287 2.78298,0.35235 2.6973,0.41989 9.5013,-7.49727 z m 133.83447,-8.49434 c 1.63789,-0.75159 3.85013,-1.48496 4.91604,-1.62968 l 1.93797,-0.26325 -2.90489,-3.25731 c -1.59765,-1.79163 -3.6019,-4.74261 -4.45381,-6.55782 l -1.5489,-3.3003 -0.33139,2.50792 c -0.18214,1.37937 -0.0692,3.53569 0.25132,4.7919 0.65493,2.56747 -0.39433,5.14833 -2.16695,5.32993 -0.63584,0.0625 -2.37209,1.24997 -3.85872,2.63297 l -2.70287,2.51443 3.94206,-0.70127 c 2.16806,-0.38564 5.28213,-1.31614 6.92012,-2.06782 z m -74.36982,-1.9459 c 1.29406,-0.85241 0.42493,-0.8612 -3.50766,-0.0356 -4.59122,0.96401 -5.3579,0.89881 -6.29575,-0.53394 -1.00706,-1.53856 -1.17329,-1.53321 -2.91793,0.0934 -2.45825,2.29222 -2.13379,3.11498 1.45102,3.67861 2.14904,0.33795 3.24704,1.08735 3.91544,2.6726 l 0.92896,2.20296 2.35283,-3.47239 c 1.29399,-1.90996 3.12694,-3.98245 4.07309,-4.60563 z m -17.73679,2.09498 c -0.0456,-0.79078 0.88903,-1.98992 2.07729,-2.66484 1.9445,-1.10441 2.02212,-1.30497 0.77683,-2.00711 -0.76095,-0.42899 -1.81611,-1.38659 -2.3447,-2.1279 -0.65205,-0.91448 -4.95243,-1.7951 -13.3732,-2.73848 -14.90024,-1.66949 -14.16825,-1.69491 -13.59693,0.47307 0.33814,1.28326 -0.11778,2.21256 -1.71675,3.49835 -1.19755,0.96299 -2.04639,1.89776 -1.88645,2.0771 0.23681,0.26543 7.31133,1.76441 23.36228,4.94983 3.50741,0.69615 6.78496,-0.018 6.70163,-1.46002 z m 17.12644,-6.47433 c 6.03098,-1.36614 3.9608,-2.30415 -3.72879,-1.68962 -4.03445,0.32228 -5.02057,0.67903 -4.95617,1.7921 0.0911,1.57637 1.33841,1.56157 8.68496,-0.10252 z m -47.93359,0.22379 c 1.37038,-0.91031 2.46899,-1.96168 2.44133,-2.33639 -0.16071,-2.17509 -2.19327,-2.92163 -10.40303,-3.82106 -10.78051,-1.18103 -10.24112,-1.19133 -9.23937,0.17556 0.43798,0.59745 0.96587,2.09824 1.17331,3.33504 0.32265,1.92484 1.05523,2.41021 5.08483,3.36934 6.02591,1.43431 7.88032,1.3119 10.94293,-0.72249 z m 41.5436,-8.00331 c -4.46783,-0.91347 -6.51076,-0.38006 -4.33133,1.13123 0.60202,0.41751 2.85016,0.54375 4.99575,0.2807 l 3.9011,-0.47837 z m -5.86033,0.37149 c 0.17394,-0.049 -0.008,-0.4283 -0.40585,-0.84293 -1.30269,-1.35994 -15.81132,-3.48076 -16.03072,-2.34342 -0.28543,1.47962 -1.52804,1.41624 -4.54914,-0.23211 -1.84137,-1.00471 -3.11207,-1.15476 -4.21223,-0.49742 -0.86651,0.51781 -1.36278,1.17994 -1.10275,1.47151 0.26003,0.29154 4.94239,1.24545 10.4053,2.11977 8.18667,1.31018 12.10991,1.39034 15.89539,0.3246 z m -112.17256,48.37173 c -0.0671,-1.16105 1.24264,-2.83356 4.01198,-5.12309 4.05738,-3.35451 4.10297,-3.44163 3.45641,-6.6028 -0.51476,-2.51641 -0.34606,-3.84461 0.78616,-6.19309 1.35966,-2.81992 1.369,-3.12529 0.1645,-5.37872 -0.96967,-1.81391 -1.09354,-2.66762 -0.51446,-3.54605 1.15776,-1.75619 1.63895,-1.5161 3.44211,1.71747 2.1629,3.87847 2.22888,6.08848 0.26527,8.88581 -1.3631,1.94191 -1.46804,2.60459 -0.70099,4.42384 1.45415,3.44876 0.12924,6.30911 -4.64659,10.03189 -4.92049,3.83544 -6.12592,4.17882 -6.26434,1.78473 z m -67.23821,4.57901 c -14.62883,-1.23144 -21.84594,-1.40704 -37.55447,-0.91353 -16.91068,0.53131 -22.47342,-0.26581 -25.01976,-3.58532 -3.04013,-3.96335 -2.48716,-7.06262 2.7696,-15.52212 5.81351,-9.35536 23.50276,-28.52328 34.39333,-37.26833 5.69151,-4.57015 15.39229,-10.97997 15.43738,-10.20022 0.0109,0.19021 0.22627,0.91489 0.47839,1.61037 0.32164,0.88718 -1.23658,2.5025 -5.22289,5.41427 -13.48878,9.85273 -27.07915,23.20198 -37.88693,37.21481 -5.44387,7.05814 -8.9771,13.94942 -7.79767,15.20864 1.67587,1.78923 7.71479,2.20192 25.41321,1.73666 18.76079,-0.49316 25.0129,-0.29524 36.12001,1.14343 7.82065,1.01304 10.76685,1.88938 12.84288,3.82051 l 1.75897,1.63612 -3.20026,0.24488 c -1.76014,0.13491 -7.39945,-0.10839 -12.53181,-0.54044 z m 100.08617,-42.79956 c -0.087,-0.97361 0.049,-1.53723 0.30284,-1.2526 0.25382,0.28463 0.32526,1.08118 0.15885,1.77002 -0.18401,0.76138 -0.36506,0.55836 -0.46157,-0.51745 z m -79.53912,-28.05682 c -12.37089,-0.20131 -16.02398,-6.13483 -10.99735,-17.86243 1.04322,-2.43394 2.72409,-5.2275 3.73527,-6.20784 1.01121,-0.98034 2.30535,-2.67479 2.87593,-3.76534 1.32726,-2.53695 2.83361,-1.59283 2.42259,1.51838 -0.22722,1.71983 0.17617,2.93568 1.49614,4.51218 2.7986,3.34184 6.47517,5.51491 7.9876,4.72106 0.81834,-0.4296 1.60514,-0.20724 2.00799,0.56738 0.94033,1.80803 5.46005,2.78549 12.78192,2.76423 4.59874,-0.0133 5.99963,0.25675 5.14863,0.99276 -1.88519,1.63026 -12.3816,3.15618 -16.5692,2.40882 -2.9729,-0.52983 -4.07457,-0.40737 -4.82625,0.5399 -0.84622,1.06596 -0.79884,1.36901 0.36107,2.3093 1.20128,0.97384 1.11212,1.10419 -0.88959,1.30108 -1.22356,0.12051 -2.39809,0.65512 -2.61008,1.1884 -0.24759,0.62283 2.28141,0.70724 7.07251,0.23602 4.20577,-0.41369 7.62597,-1.15639 7.84333,-1.70313 0.57897,-1.45649 1.71131,-1.28855 1.80125,0.26723 0.22174,3.835 -7.89907,6.40355 -19.64169,6.21247 z m 1.83153,-5.38592 c -0.0446,-0.77251 -1.26594,-2.00344 -2.71394,-2.73526 -2.60409,-1.31625 -2.64579,-1.30432 -3.83268,1.09074 l -1.19996,2.42147 1.95428,0.39636 c 3.696,0.74955 5.87791,0.30751 5.7923,-1.17327 z m -8.56012,-2.75372 c 0.66478,-2.23738 0.71742,-3.51437 0.17016,-4.12808 -1.07471,-1.20506 -0.25622,-3.01669 1.11991,-2.47892 0.62022,0.2424 1.47534,-0.33796 1.94251,-1.31816 0.69729,-1.46331 0.62177,-2.16368 -0.45861,-4.25842 -0.71151,-1.37895 -1.4946,-2.48998 -1.74019,-2.469 -0.24543,0.0241 -1.47742,2.34403 -2.73736,5.16265 -2.36137,5.28252 -2.76836,9.85874 -1.04837,11.7874 1.36477,1.53038 1.69768,1.25252 2.75245,-2.29756 z m 10.61349,-2.96447 c 0.19487,-0.84846 -0.59056,-2.0048 -2.06361,-3.03819 -2.19808,-1.54194 -2.43854,-1.54511 -3.17322,-0.0413 -0.6732,1.37799 -0.48164,1.85433 1.25142,3.11194 2.47494,1.79589 3.56741,1.78701 3.98541,-0.0323 z m -38.80382,8.3587 c -0.28016,-0.77278 -0.58567,-5.45929 -0.67905,-10.41446 -0.17598,-9.344 1.93333,-26.90215 4.25738,-35.43851 2.18766,-8.03548 5.99187,-9.28915 7.40588,-2.44054 l 0.7047,3.41305 1.06888,-3.83182 c 0.58791,-2.10748 0.97484,-5.60434 0.85993,-7.7708 -0.17123,-3.22721 0.032,-3.96273 1.12494,-4.07023 0.97957,-0.0963 1.67148,-1.64732 2.6045,-5.83814 1.95077,-8.76229 4.505,-14.42613 6.59871,-14.63206 2.2266,-0.21899 2.71091,0.70527 3.59553,6.86172 l 0.72071,5.01574 2.57664,-7.10314 c 2.44887,-6.75088 6.08298,-13.50395 7.33329,-13.62693 0.31796,-0.0312 0.8053,0.67946 1.08299,1.57944 0.32624,1.05731 -0.66227,4.4259 -2.79431,9.52209 -1.81454,4.33725 -4.34242,10.98018 -5.61751,14.7622 -2.08338,6.17933 -2.51424,6.86612 -4.25125,6.77623 l -1.93292,-0.10004 -0.25939,-7.89366 c -0.30579,-9.30567 -0.39108,-9.18493 -4.59438,6.50773 -2.67308,9.97974 -2.7948,10.95571 -2.34643,18.81754 0.47905,8.39638 -0.15664,9.68907 -1.74243,3.54447 l -0.80419,-3.11605 -1.35362,3.58348 c -2.47393,6.54922 -4.80842,6.01275 -5.95845,-1.36941 l -0.67836,-4.35449 -1.19322,6.63902 c -1.05008,5.84272 -1.77253,12.45157 -3.42306,31.31458 -0.42934,4.90787 -1.33346,6.34417 -2.30547,3.66294 z m 91.64493,-41.13211 c -1.4104,-1.58142 -1.47504,-1.98646 -0.69664,-4.3569 0.47213,-1.43743 1.06989,-3.87894 1.3284,-5.42577 0.2585,-1.54686 1.2724,-3.50824 2.2532,-4.3587 1.59667,-1.3846 1.98712,-1.39934 3.73257,-0.14156 3.6455,2.62705 2.43709,11.47246 -1.96697,14.39784 -2.94599,1.95688 -2.79978,1.9605 -4.65056,-0.11491 z m 5.9107,-9.39914 c -0.0441,-0.76425 -0.55976,-1.34242 -1.14571,-1.28477 -1.84854,0.18179 -1.14389,1.94862 1.04432,2.61875 0.0999,0.0304 0.14559,-0.5697 0.10136,-1.33398 z m -17.95439,8.48742 c -0.51564,-0.69639 -1.11184,-3.17096 -1.32481,-5.49911 -0.3043,-3.32603 -0.06,-4.76181 1.14012,-6.70184 3.07142,-4.96478 7.12263,-5.44656 9.65567,-1.14824 1.20028,2.03669 1.22051,2.44473 0.27916,5.63102 -1.73661,5.878 -7.64785,10.55736 -9.75014,7.71817 z m 5.39065,-9.5808 c 0.21195,-0.53328 0.066,-0.9381 -0.32491,-0.89972 -0.39064,0.0383 -0.88365,0.50618 -1.09562,1.03943 -0.21198,0.53328 -0.0654,0.93821 0.32482,0.8997 0.39071,-0.0385 0.88373,-0.50616 1.09571,-1.03941 z M 555.08709,771.4853 c 1.10276,-9.89084 6.20015,-30.5452 8.44674,-34.22555 2.41893,-3.96263 4.54998,-3.65821 9.2495,1.32148 l 4.06374,4.30587 2.32469,-12.15466 c 3.45866,-18.08377 5.27582,-22.71799 8.78907,-22.41491 2.32805,0.20078 2.75611,3.0719 0.65001,4.36036 -1.30709,0.79973 -2.19199,3.20036 -4.00968,10.87841 -1.28284,5.41869 -2.71941,12.00537 -3.19234,14.63708 -1.86345,10.36844 -3.88264,11.4399 -9.60145,5.09484 -2.12121,-2.35342 -4.21289,-4.24393 -4.64822,-4.20112 -1.08403,0.10668 -2.4132,3.86144 -4.95463,13.99648 -2.6974,10.757 -4.53332,16.57582 -6.22191,19.72009 l -1.31561,2.44964 z m -5.87162,-8.49698 c -1.10886,-7.86069 -0.60967,-15.89157 1.02386,-16.47093 1.02117,-0.36223 1.26106,0.2823 1.47368,3.95978 0.30526,5.27964 -0.41656,16.40486 -1.14156,17.59408 -0.28539,0.46809 -0.89556,-1.81923 -1.35598,-5.08293 z"
       id="path4147-3"
       inkscape:connector-curvature="0"
       sodipodi:nodetypes="sssscsssssccsscsssccsssscsccscssssscsccccssscssssssscscssscscsscsssssccssscsccscsssssssscsccsssssscscsscsscsccccscccssscsccccccssccsccsssscssssccsccccssscssccsccccccssssscssscscscsccsscscccscccsccsccssssccsccsccccccsccccccccccscccccccscccscscssscssscscsssccscccccscsscsscscccccsscssssscsssssccccccsscccsscscccssscsssscsccscccsscccsccsccccssccssscsssssscsscscccsscscsscsscccsccscsscsscsccssssssssscsccsccssccsscscs"
       inkscape:transform-center-x="61.367776"
       inkscape:transform-center-y="27.671353" />
    <path
       style="fill:#000000"
       d="m 377.02901,1015.9421 c -3.16591,-0.4566 -7.9532,-1.654 -10.04338,-2.5121 -7.5756,-3.1104 -12.06819,-7.4663 -11.48191,-11.1327 0.2761,-1.7267 0.7193,-2.2155 1.4275,-1.5746 0.40997,0.371 0.50429,0.7966 0.38069,1.718 -0.22241,1.6583 0.84357,3.2307 3.45202,5.092 7.85895,5.6081 21.51133,7.8291 32.62942,5.3084 5.40061,-1.2244 8.45379,-2.9241 9.37109,-5.2166 0.61578,-1.539 0.59492,-2.055 -0.17539,-4.3416 -0.83716,-2.4851 -2.26428,-4.60527 -4.75377,-7.06247 -2.06105,-2.0343 -2.61155,-3.16037 -1.85285,-3.79002 1.34012,-1.11222 6.33887,4.03702 8.36361,8.61519 0.41019,0.9275 0.93244,1.6863 1.1606,1.6863 0.22813,0 1.10415,-0.2315 1.9467,-0.5145 3.11435,-1.0461 5.42563,-3.29857 5.41058,-5.27267 -0.009,-1.2268 -0.96644,-3.2336 -2.0485,-4.29524 -0.49374,-0.48439 -1.80691,-1.39234 -2.91817,-2.01768 -1.76041,-0.99063 -2.03304,-1.2656 -2.11806,-2.13624 -0.14809,-1.51673 0.62778,-1.60764 2.99169,-0.35062 4.02313,2.13936 5.96721,4.67775 6.21868,8.11968 0.16388,2.2431 -0.67129,4.09607 -2.61877,5.81027 -1.62807,1.4331 -3.11788,2.1936 -5.25064,2.68 l -1.55423,0.3546 -0.19117,1.5431 c -0.56338,4.5474 -4.2287,7.1088 -12.65967,8.847 -3.99978,0.8247 -11.55806,1.0379 -15.68607,0.4425 z m 3.09949,-23.98603 c -0.47068,-0.47067 -0.13925,-1.19015 0.99586,-2.16175 1.45835,-1.24831 2.21619,-2.74969 2.21619,-4.39068 0,-1.47566 -0.68361,-2.20307 -2.31983,-2.46863 -1.88745,-0.30628 -1.78782,-1.63451 0.1235,-1.64654 2.19254,-0.0139 4.37224,2.08134 4.37224,4.20256 0,3.07945 -3.98813,7.86485 -5.38796,6.46504 z m -17.17212,-5.50096 c -3.82581,-1.4224 -5.70934,-3.09606 -5.95699,-5.29312 -0.21075,-1.86989 0.76635,-3.90412 6.13775,-12.77828 5.24717,-8.66895 7.43141,-11.96753 7.92462,-11.96753 1.01585,0 1.04389,0.8033 0.0817,2.33986 -2.07587,3.31508 -10.62354,18.10439 -11.31342,19.57466 -1.38096,2.94315 -0.82617,4.02287 2.97534,5.79049 4.89585,2.2764 5.387,2.56371 4.78647,2.80018 -1.04658,0.41211 -2.72763,0.24301 -4.63546,-0.46632 z m 7.32872,0.10736 c 0,-0.34508 0.6947,-2.01173 1.54381,-3.7038 1.3186,-2.62757 1.63603,-3.05231 2.1759,-2.91111 0.34765,0.0909 0.6321,0.34101 0.6321,0.55578 0,0.57412 -1.18154,3.18414 -2.28815,5.05448 -0.99906,1.68866 -2.06366,2.20688 -2.06366,1.00465 z m 25.07067,-1.47141 c -0.37581,-0.6081 -0.76779,-3.22703 -1.59453,-10.65377 -0.44678,-4.01336 -0.94317,-8.20622 -1.10311,-9.31748 -0.47269,-3.28437 -0.41991,-3.73012 0.44172,-3.73012 0.6916,0 0.78,0.19436 1.23716,2.71991 0.27077,1.49593 0.70938,4.46837 0.97468,6.60545 0.90785,7.31279 0.93391,15.81581 0.0441,14.37601 z m 8.03424,-7.44873 c -2.21091,-0.38748 -3.26387,-0.82436 -3.26387,-1.35413 0,-0.864 0.48383,-0.98592 2.29987,-0.57952 4.07004,0.91081 6.4987,-1.13332 7.48281,-6.29812 0.48634,-2.55236 0.92336,-3.1837 1.58406,-2.28854 1.02057,1.38277 0.0373,5.85719 -1.76846,8.04797 -1.47367,1.7878 -4.1903,2.84814 -6.33441,2.47234 z m 2.47261,-14.5287 c -0.91761,-0.91766 -0.93854,-1.24802 -0.17389,-2.74781 0.32403,-0.63555 0.46391,-1.2329 0.31085,-1.32749 -0.15303,-0.0945 -0.27824,-0.58823 -0.27824,-1.09709 0,-0.85776 -0.0499,-0.89838 -0.68622,-0.55787 -1.06253,0.56867 -2.50118,0.4021 -3.1192,-0.36117 -0.66835,-0.82536 -0.69184,-1.73607 -0.0824,-3.1945 l 0.46393,-1.11038 -1.47418,0.45958 c -4.63519,1.44499 -6.77826,1.79888 -10.95493,1.80879 -4.21872,0.01 -6.50423,-0.36677 -7.47595,-1.23255 -0.37526,-0.33433 -0.74007,-0.35816 -1.64761,-0.10752 -3.15619,0.87144 -6.43668,-2.26117 -5.53153,-5.28221 0.92753,-3.09581 6.31405,-5.64534 8.99648,-4.25826 1.4366,0.74296 1.84477,2.35631 1.17711,4.65292 -0.28918,0.99479 -0.77727,1.92508 -1.12336,2.14124 -0.33662,0.21021 -0.61203,0.53859 -0.61203,0.72973 0,0.60345 4.44781,1.16562 7.55029,0.95426 4.83664,-0.32942 11.89586,-2.31821 13.04315,-3.67467 0.64932,-0.76768 0.72663,-3.29115 0.18368,-5.99481 l -0.36033,-1.79414 -1.11618,0.19248 c -2.12145,0.36593 -7.98503,0.58174 -9.76428,0.35944 -2.14709,-0.26828 -3.70892,-1.35245 -3.06536,-2.12792 0.31719,-0.38217 1.32296,-0.47076 5.42968,-0.47809 5.42336,-0.01 9.32222,-0.62113 12.26704,-1.92374 1.36534,-0.60399 2.87829,-1.73597 2.87385,-2.15026 0,-0.0984 -0.69925,-0.19302 -1.55155,-0.21026 -1.13362,-0.0228 -1.94521,-0.27591 -3.02297,-0.94222 -2.0751,-1.28295 -2.88382,-2.59705 -2.88382,-4.68597 0,-0.93747 -0.12583,-1.60423 -0.2843,-1.50634 -0.15636,0.0967 -0.33388,0.0272 -0.39449,-0.15487 -0.0606,-0.18182 -0.35231,-0.23761 -0.64824,-0.12406 -0.41868,0.16068 -0.53804,0.58056 -0.53804,1.89283 0,1.998 -0.61905,3.65267 -1.55369,4.15287 -0.91902,0.49182 -3.30484,0.55048 -3.76284,0.0924 -0.29042,-0.29043 -0.18921,-0.45709 0.45626,-0.75119 l 0.82952,-0.37797 -0.7045,-0.7499 c -0.57497,-0.61206 -0.70452,-1.1026 -0.70452,-2.66769 0,-2.83842 0.82457,-4.7198 2.43799,-5.56264 l 1.29214,-0.67499 -0.93253,-0.21229 c -1.52035,-0.34617 -6.79239,-0.31209 -9.29446,0.06 -2.20327,0.32768 -2.34437,0.39734 -2.67741,1.32109 -0.54637,1.51564 -0.77272,7.95526 -0.32706,9.30559 0.8127,2.46253 2.82778,2.96971 6.42278,1.61656 1.13555,-0.42741 2.56192,-0.7771 3.16975,-0.7771 l 1.10511,0 -0.7353,0.7827 c -1.22436,1.30326 -4.54607,2.69524 -6.51216,2.72893 -2.94186,0.0505 -4.65032,-1.35795 -5.38155,-4.43622 -0.25953,-1.09253 -0.50037,-1.52263 -0.79032,-1.41135 -0.22937,0.088 -0.60541,0.16003 -0.83568,0.16003 -1.10797,0 -1.39556,0.90139 -1.39556,4.37403 0,1.8684 -0.12239,3.39708 -0.27199,3.39708 -0.3553,0 -0.56788,-1.12261 -0.83422,-4.40525 l -0.21765,-2.68226 -2.05794,0.57644 c -2.34306,0.65632 -5.6435,1.78137 -8.05193,2.74474 l -1.64215,0.65686 -0.27103,-0.69887 c -0.24463,-0.6308 -0.0997,-0.78116 1.48671,-1.5426 1.96351,-0.94238 7.6563,-2.87311 9.45404,-3.20639 1.32995,-0.24653 1.3441,-0.28136 1.63613,-4.03183 0.22701,-2.91502 1.01955,-8.50838 1.26094,-8.89894 0.0921,-0.14907 0.44335,-0.27101 0.78056,-0.27101 0.72013,0 1.16545,0.88996 0.61545,1.22988 -0.36948,0.22836 -0.99368,4.27748 -1.39312,9.03682 l -0.19642,2.34021 1.20692,-0.11509 1.20688,-0.1151 0.18937,-2.24007 c 0.10413,-1.23201 0.4772,-3.172 0.82901,-4.31102 0.59879,-1.93866 0.71367,-2.09189 1.79666,-2.39709 5.22864,-1.47343 12.75372,-1.07261 13.26301,0.7064 1.02408,3.57738 1.29031,4.21863 1.65699,3.99107 0.21824,-0.13551 0.48159,-0.9623 0.58522,-1.83739 0.12313,-1.03973 0.36263,-1.66428 0.6912,-1.80236 0.92436,-0.38842 6.694,-0.52575 7.91381,-0.18832 l 1.19417,0.33041 -0.19254,-1.92562 c -0.10593,-1.05905 -0.49128,-4.23363 -0.85637,-7.05451 -0.63341,-4.89405 -0.72741,-5.24998 -2.05265,-7.77112 -0.76388,-1.45322 -1.80217,-3.24433 -2.30731,-3.98036 -0.88675,-1.29205 -0.97354,-2.42542 -0.1655,-2.1613 0.21361,0.0699 0.91295,0.8747 1.55407,1.78864 0.64111,0.91388 1.16401,1.60274 1.16196,1.5308 -0.003,-0.0719 -0.21019,-0.90017 -0.46257,-1.84045 -0.25237,-0.9403 -0.46054,-1.74807 -0.46256,-1.79503 -0.006,-0.14407 1.62997,-0.71587 1.73833,-0.60756 0.36301,0.36305 1.82444,6.86134 2.60255,11.57248 1.27614,7.72651 1.96288,14.9738 1.7084,18.02893 -0.29009,3.48269 -0.97174,6.56225 -1.76492,7.9735 -0.81011,1.44144 -3.21307,3.1402 -5.45373,3.85547 -0.89756,0.28656 -1.63193,0.56613 -1.63193,0.62132 0,0.0552 0.19661,0.9833 0.43692,2.06242 0.24028,1.07911 0.52726,2.6174 0.6377,3.41834 l 0.20077,1.45629 1.09545,-0.74341 c 1.49648,-1.0155 2.31109,-1.23979 2.63671,-0.72592 0.45585,0.71944 0.3123,1.04404 -0.73344,1.65854 -2.36204,1.38792 -5.67226,5.19845 -6.28123,7.23058 -0.20062,0.6694 -0.1511,0.68912 1.2878,0.51249 0.82305,-0.10102 1.8921,-0.4616 2.37569,-0.80128 0.48361,-0.33961 0.91925,-0.57029 0.96815,-0.51248 0.68821,0.81366 0.68535,1.41161 -0.0109,2.2819 -0.97295,1.21605 -0.9487,1.33218 0.32837,1.57172 2.0651,0.38744 2.33837,2.00208 0.33886,2.00208 -0.82384,0 -1.21665,0.19242 -1.60608,0.78681 -0.28355,0.43277 -0.42892,0.87345 -0.32305,0.97933 0.1059,0.10588 1.1325,0.0366 2.28134,-0.15363 1.14886,-0.19035 2.15978,-0.27517 2.24648,-0.18842 0.20783,0.20783 -1.48649,1.62172 -2.4027,2.00499 -1.25529,0.52517 -2.52415,0.34944 -3.33549,-0.4619 z m -24.23171,-11.62104 c 1.09283,-0.66745 2.11865,-3.155 1.96444,-4.76359 -0.0848,-0.88446 -0.23164,-1.05187 -0.99931,-1.13952 -1.96359,-0.22413 -5.06184,1.7657 -5.61689,3.6074 -0.1662,0.55152 0.0246,0.94481 0.86717,1.78735 1.24167,1.24172 2.34196,1.38951 3.78459,0.50836 z m 29.50478,-18.26743 c 0.72933,-0.27988 0.59623,-0.90726 -0.27684,-1.30505 -0.97858,-0.44589 -1.18964,-1.32505 -1.05099,-4.37799 0.0827,-1.82105 0.25731,-2.6187 0.67409,-3.07921 0.55402,-0.61221 0.53872,-0.62485 -1.01643,-0.83872 -0.8684,-0.11941 -2.43403,-0.11792 -3.47918,0.005 l -1.90026,0.22057 0.14865,2.84179 c 0.16515,3.15689 0.65439,4.44528 2.07128,5.45415 1.28736,0.9167 3.79522,1.47804 4.82968,1.0811 z m 0.80253,27.64877 c 0,-0.28368 0.77114,-1.3243 1.71366,-2.3124 1.01388,-1.06297 1.79224,-2.1896 1.9061,-2.75905 0.25955,-1.29766 1.2002,-1.80811 1.67999,-0.91161 0.65363,1.2213 0.0693,2.70455 -1.8381,4.666 -1.3073,1.34432 -2.00633,1.83297 -2.62208,1.83297 -0.57494,0 -0.83957,-0.1626 -0.83957,-0.51591 z m 1.26595,-5.27662 c -0.79109,-1.00574 -0.79228,-1.17702 -0.0335,-4.80209 0.3359,-1.60483 0.51075,-3.01128 0.38856,-3.12543 -0.12223,-0.1142 -0.50199,-0.25738 -0.84391,-0.31817 -0.41112,-0.0731 -0.65501,-0.39913 -0.72005,-0.96269 -0.0899,-0.77869 -0.009,-0.85216 0.94108,-0.85216 2.45499,0 3.11336,1.66874 2.26094,5.73075 -0.41312,1.96853 -0.46646,2.82227 -0.22045,3.52792 0.57415,1.64699 -0.66649,2.20818 -1.77269,0.80187 z m -49.82809,-5.94032 c -1.65559,-3.08728 -1.93659,-4.71127 -1.92329,-11.11424 0.0137,-6.64304 0.49891,-9.71804 2.48097,-15.72722 2.90534,-8.80832 8.73523,-14.8178 17.20184,-17.73178 2.02376,-0.69654 1.82646,-0.69287 1.95297,-0.0361 0.0808,0.41949 -0.79171,0.98583 -3.84955,2.4986 -3.26902,1.61731 -4.38601,2.36261 -6.44756,4.30191 -5.79358,5.45017 -8.683,12.58861 -9.70306,23.97178 -0.40497,4.519 -0.0677,9.81034 0.84428,13.24711 0.26577,1.00143 0.42759,1.87637 0.35961,1.94435 -0.068,0.068 -0.48025,-0.54156 -0.91621,-1.35454 z M 373.41324,939.553 c -0.0196,-1.78309 -0.0174,-1.78735 0.91282,-1.78735 0.71206,0 0.93254,0.14101 0.93254,0.59626 0,0.93253 -0.33608,1.57967 -0.82038,1.57967 -0.24367,0 -0.56952,0.3147 -0.72414,0.69941 -0.21812,0.5426 -0.28554,0.29875 -0.30084,-1.08799 z m 4.9538,-11.35591 c 0,-4.03536 1.83806,-12.81221 2.68315,-12.81221 0.23391,0 0.42529,0.0372 0.42529,0.0824 0,0.0451 -0.40752,1.89873 -0.90558,4.11869 -0.49806,2.21992 -1.14294,5.57493 -1.43305,7.45557 -0.29015,1.88054 -0.58203,3.47754 -0.64864,3.54878 -0.0667,0.0712 -0.12116,-1.00574 -0.12116,-2.39327 z m 13.48297,-12.02402 c -0.30071,-0.78364 1.06218,-4.26306 2.6221,-6.69423 1.85029,-2.8837 5.68257,-7.47747 8.0204,-9.61409 1.80436,-1.64908 3.93432,-2.94306 4.2783,-2.59913 0.5032,0.50322 0.0562,1.25931 -1.24804,2.11077 -2.97947,1.94539 -10.77233,11.77089 -12.58397,15.86639 -0.66179,1.49608 -0.81984,1.63114 -1.08879,0.93029 z m 24.75088,-1.15497 c 0,-0.5855 0.49166,-2.80577 1.09261,-4.93383 2.65287,-9.39477 2.06849,-13.61611 -2.17223,-15.69091 -1.40095,-0.68539 -1.96261,-0.80147 -3.07295,-0.63496 -0.74727,0.11208 -1.62195,0.39626 -1.94373,0.63154 -0.5885,0.43034 -1.36396,0.14284 -1.36396,-0.50565 0,-0.51421 3.23145,-1.80677 4.50724,-1.80285 3.34416,0.0104 6.40081,2.72328 7.29691,6.47673 0.78029,3.26836 -0.39004,10.05975 -2.53817,14.72871 -1.22404,2.66057 -1.80572,3.21823 -1.80572,1.73122 z m -26.19317,-1.81465 c -1.02824,-2.06845 -1.62071,-5.03153 -2.06889,-10.347 -0.59551,-7.06248 -0.4091,-10.16319 0.61103,-10.16319 0.62278,0 0.61498,-0.0575 1.21813,8.99202 0.1872,2.80855 0.55371,6.63607 0.81445,8.5056 0.63826,4.57603 0.5174,5.20951 -0.57472,3.01257 z"
       id="path4147-6"
       inkscape:connector-curvature="0"
       sodipodi:nodetypes="sssscsssssccscccscsscccssssssscssssssssscssccscscssssscsssscsscccsscccccccscccsssccsssscccsscscsccscsssccsccsscscscssscccccccsscscsccccsssccssccssscccsccssssscccscscccccsscsccsccsccscsccsccscssccssccssssccccssssscssssssccscsssccssssccssssccssscsscssssssssscs" />
    <path
       style="fill:#000000"
       d="m 199.03669,908.14506 c -9.16725,-2.39531 -22.1805,-4.75605 -30.52956,-5.53834 -5.87525,-0.55056 -13.23134,-1.89398 -17.40413,-3.17866 l -7.22764,-2.22504 -5.00701,2.27539 c -3.34069,1.51815 -5.28932,1.98516 -5.85564,1.40331 -0.56624,-0.58197 0.54198,-1.47736 3.33009,-2.69067 2.29844,-1.00006 6.93834,-3.23852 10.31103,-4.97426 6.42451,-3.30633 9.49511,-3.40698 4.09731,-0.13455 -1.72101,1.04347 -2.81854,2.18226 -2.43906,2.53082 1.63528,1.50176 7.11102,2.65239 18.76754,3.94369 6.84862,0.75869 16.8407,2.43569 22.20455,3.72671 9.48351,2.2825 11.35864,2.41486 27.13739,1.9151 3.49821,-0.11068 11.4441,-0.15479 17.65754,-0.0979 8.77708,0.0803 12.78162,-0.28583 17.95118,-1.64212 9.72494,-2.55149 14.42582,-4.80339 14.42582,-6.91027 0,-3.30292 -3.42737,-10.96557 -6.33955,-14.17327 l -2.92025,-3.21656 -7.87869,2.18871 c -4.33334,1.20382 -10.85599,3.14144 -14.49485,4.30587 -7.55073,2.41625 -9.07273,2.58014 -9.07273,0.9768 0,-2.60516 38.00157,-13.64195 71.23563,-20.68883 7.22956,-1.53296 13.81251,-3.14452 14.62874,-3.58127 1.11441,-0.59624 1.48408,-0.44967 1.48408,0.58831 0,2.03479 -3.93562,3.41595 -22.16574,7.77872 -22.72856,5.43936 -30.6928,7.45473 -31.09564,7.86866 -0.18976,0.19502 1.17965,1.84893 3.04314,3.67538 5.12285,5.02098 7.00503,14.22963 3.57882,17.50973 -2.56107,2.4518 -11.93806,6.12484 -18.41047,7.21152 -3.18781,0.53514 -12.39144,0.85097 -20.60245,0.70691 -8.16243,-0.14337 -17.51209,0 -20.77707,0.31432 -3.26496,0.31609 -6.69953,0.37534 -7.63238,0.13162 z m -85.54651,-5.96902 c -4.40408,-1.6131 -8.86759,-6.20168 -9.52252,-9.7894 -0.67732,-3.70997 0.90885,-7.65297 3.9836,-9.90285 3.4395,-2.5167 11.16262,-5.06497 16.62833,-5.48657 2.58578,-0.19948 5.00066,-0.86021 5.36643,-1.4682 0.52798,-0.87799 1.77222,-0.78701 6.04425,0.44183 12.40738,3.56887 18.26795,7.29071 20.13187,12.78512 1.29657,3.82197 -0.42672,3.85135 -2.87538,0.0489 -3.65846,-5.68083 -5.28289,-6.0763 -11.89626,-2.89615 -5.70097,2.74147 -12.27738,7.47965 -12.27738,8.84573 0,0.40565 0.85864,0.90752 1.90809,1.11526 1.40666,0.27842 1.19694,0.40889 -0.79801,0.49638 -1.48831,0.0653 -2.96551,-0.31268 -3.28251,-0.83981 -1.43473,-2.38546 6.13576,-9.05426 13.62102,-11.99858 l 4.24021,-1.66793 -6.78435,-2.15254 c -3.7314,-1.18385 -7.16595,-1.86865 -7.63239,-1.52163 -0.46641,0.34692 -2.7603,0.85121 -5.0975,1.12057 -5.60674,0.64618 -13.24193,3.63663 -16.00613,6.26915 -1.5643,1.4897 -2.21755,2.9959 -2.21755,5.11318 0,5.64046 8.87807,10.93247 18.59886,11.0861 2.94398,0.0461 3.46704,0.24112 2.17818,0.81015 -2.62249,1.15806 -10.66014,0.92844 -14.31086,-0.40877 z m 21.9743,-7.48573 c 0.2712,-0.45089 1.86986,-0.81986 3.55255,-0.81986 3.75351,0 3.4121,0.45673 -0.84644,1.13226 -1.9075,0.30258 -3.00012,0.1764 -2.70611,-0.3124 z m 89.01351,-13.47542 c -0.75893,-0.28443 -30.6487,-3.9098 -53.65485,-6.50783 -8.4851,-0.95823 -15.43845,-2.62947 -17.99768,-4.32582 -1.00748,-0.66777 -1.05066,-1.05879 -0.21202,-1.92048 1.26088,-1.29574 1.40003,-5.63882 0.20488,-6.39783 -0.46642,-0.29619 -0.84804,-1.15414 -0.84804,-1.90654 0,-2.03072 6.02687,-0.97505 21.44252,3.75582 13.9002,4.26586 32.03296,8.8893 44.28084,11.29073 4.19781,0.82305 8.07539,1.8496 8.61696,2.28133 1.32203,1.054 1.3779,0.91745 4.52804,-11.06412 5.19408,-19.75565 8.55489,-31.39868 13.25917,-45.93413 2.5921,-8.00928 4.56482,-15.01898 4.38378,-15.57705 -0.18096,-0.55815 -0.95932,0.50483 -1.72959,2.36212 -8.09677,19.52399 -13.36661,32.81963 -13.3531,33.68959 0.0349,2.23717 -9.78295,27.64133 -10.03644,25.97045 -0.32624,-2.15053 3.1493,-15.28879 6.70524,-25.34703 3.85815,-10.91278 3.82457,-10.73865 1.95482,-10.14519 -0.88451,0.28084 -5.23361,1.1311 -9.66464,1.88952 -19.30376,3.30423 -37.86064,7.39722 -40.03631,8.83056 -0.60161,0.39642 -1.85704,0.76887 -2.78987,0.82779 -3.28991,0.20766 -7.01223,1.214 -12.80326,3.46143 -30.69009,11.9104 -85.017164,27.68424 -101.682579,29.52359 -2.798541,0.30883 -5.946906,0.74448 -6.996357,0.96808 -1.274181,0.27143 -1.908094,-0.009 -1.908094,-0.84067 0,-0.79797 1.298097,-1.44992 3.604182,-1.81017 21.697704,-3.38895 58.327898,-13.5425 99.048718,-27.45539 25.21836,-8.61618 43.32661,-12.99325 71.12369,-17.19182 l 4.59191,-0.69359 4.49047,-12.63587 c 5.49914,-15.47415 7.97908,-21.05554 9.16479,-20.62609 0.49832,0.18047 0.79394,0.97365 0.65692,1.76274 -0.15538,0.8947 0.32327,1.43336 1.27205,1.43133 1.00348,0 2.05478,-1.33668 3.08931,-3.92148 1.98773,-4.96701 3.50761,-5.16909 2.7603,-0.36714 -0.48737,3.13216 -0.37508,3.49517 0.95167,3.07706 0.82736,-0.26073 4.93884,-1.29523 9.13667,-2.29896 28.33141,-6.7743 45.92364,-9.27993 57.93712,-8.25207 6.69446,0.57279 7.07835,0.51031 7.51932,-1.22255 0.55948,-2.19863 0.61229,-2.20464 3.32241,-0.37993 1.18131,0.79535 3.45764,1.39551 5.05848,1.33372 3.00827,-0.1163 3.67042,1.1429 2.3958,4.55605 -0.84337,2.25843 -2.26307,1.58264 -1.68118,-0.80015 0.50809,-2.07985 0.36087,-2.17858 -3.2501,-2.17858 -2.08033,0 -3.99607,0.35545 -4.25736,0.78984 -0.26127,0.43434 -2.47807,1.04261 -4.92629,1.35162 -10.2703,1.29644 -56.11797,9.42689 -65.51039,11.61742 l -10.17651,2.37336 -6.11742,18.73063 c -3.36464,10.30189 -8.19896,26.18144 -10.74302,35.28796 -2.54396,9.10655 -4.91033,17.30236 -5.25855,18.21283 -0.55274,1.44557 -0.34649,1.58157 1.62657,1.07274 2.74134,-0.70706 3.20787,1.48191 0.61914,2.90556 -1.56439,0.86028 -6.31104,1.12163 -8.11212,0.44661 z m -32.49066,-7.98282 c -0.61221,-0.25167 -1.34364,-0.22073 -1.62546,0.0689 -0.2818,0.2896 0.21914,0.4956 1.11307,0.4577 0.98798,-0.0419 1.18889,-0.24828 0.51239,-0.52646 z m -3.12717,-0.76033 c -0.85338,-0.34876 -17.46086,-5.38934 -27.38688,-8.31221 l -5.33767,-1.57182 -0.81063,2.1908 c -0.44581,1.20493 -0.81057,2.51487 -0.81057,2.91094 0,1.69566 7.7625,3.74031 16.53685,4.35581 10.54737,0.73985 19.07537,0.94412 17.8089,0.42648 z M 64.197823,868.80916 c 0.466409,-0.47126 1.992899,-1.1089 3.392175,-1.41705 2.919039,-0.64276 1.303866,0.60279 -2.120112,1.63493 -1.392825,0.41983 -1.829226,0.34509 -1.272063,-0.21788 z m 136.958967,-1.95331 c 0,-0.47931 1.04945,-0.86544 2.33213,-0.85811 1.81725,0.0105 2.05132,0.19992 1.06005,0.85811 -1.65919,1.10184 -3.39218,1.10184 -3.39218,0 z m 115.58937,-5.71508 c 0.6876,-6.39297 6.49177,-23.57392 12.51787,-37.0543 2.87556,-6.43252 7.50257,-16.79352 10.28235,-23.02429 2.77973,-6.23079 5.36457,-11.65697 5.74415,-12.0582 3.2693,-3.45561 -1.85475,11.33785 -10.82664,31.25732 -5.42942,12.05462 -9.35103,22.09751 -13.31876,34.10901 -3.64201,11.02501 -5.09759,13.26538 -4.39897,6.77046 z m -275.760638,1.92838 c -0.520788,-0.64476 -1.189209,-2.4176 -1.485434,-3.93959 -0.296213,-1.52195 -0.846254,-2.96264 -1.222197,-3.2014 -0.376039,-0.23876 -2.500376,0.74978 -4.720794,2.19674 -9.302787,6.06241 -14.403092,0.91867 -9.301262,-9.38036 2.301589,-4.64607 5.892628,-8.48502 7.175296,-7.67049 0.498464,0.31659 -0.569289,2.66729 -2.554312,5.62323 -2.150718,3.2028 -3.462209,6.17456 -3.549918,8.04391 -0.130319,2.77996 0.01858,2.95262 2.391077,2.77266 1.391543,-0.10571 4.7627,-1.77504 7.491421,-3.70992 2.728686,-1.93495 5.310886,-3.29594 5.738299,-3.02458 0.427316,0.27135 0.776974,2.06471 0.776974,3.98511 0,8.00329 3.171095,8.8247 9.673201,2.50555 2.46588,-2.39647 4.732764,-4.35719 5.037464,-4.35719 1.788289,0 -0.02191,3.50561 -3.683301,7.13176 -3.580183,3.54607 -4.747858,4.19696 -7.528516,4.19696 -1.810122,0 -3.717211,-0.52758 -4.237998,-1.17239 z m 147.663648,0.0803 c 0.36466,-1.12398 16.89532,-5.85999 20.4934,-5.87123 3.79245,-0.0118 2.5079,0.55013 -7.58491,3.31818 -13.21742,3.62509 -13.2588,3.63329 -12.90849,2.55305 z m -9.54151,-1.51413 c 0,-0.44504 1.52649,-1.27909 3.3922,-1.85345 1.86569,-0.57437 3.39215,-1.35135 3.39215,-1.72641 0,-1.73539 -2.0705,-1.48555 -8.10593,0.9781 -3.58909,1.46515 -6.7008,2.48384 -6.91486,2.26381 -0.59863,-0.61506 2.76106,-2.2525 9.33907,-4.55159 6.2723,-2.19222 8.67014,-2.63952 6.52977,-1.21821 -0.92454,0.61401 -0.21982,0.84844 2.5794,0.85812 2.34384,0.009 8.30573,-1.52181 15.22951,-3.90816 6.25786,-2.1568 11.77551,-3.90612 12.26136,-3.88729 2.22533,0.0865 -16.90711,7.50945 -27.95017,10.84489 -4.19782,1.26784 -8.10941,2.46364 -8.69243,2.65727 -0.58306,0.19363 -1.06007,-0.0118 -1.06007,-0.45708 z m -20.79589,-6.13894 c -0.31623,-0.52593 -0.39839,-1.13766 -0.18257,-1.35943 0.21582,-0.2218 8.55423,-1.74465 18.52983,-3.38417 16.46959,-2.70688 34.74944,-6.3513 47.60694,-9.49136 10.43925,-2.54947 2.45459,1.64694 -9.54048,5.01409 -8.0582,2.26207 -20.25257,4.6616 -35.61783,7.00855 -8.16242,1.24678 -16.05124,2.46974 -17.53074,2.71767 -1.513,0.25358 -2.9417,0.0324 -3.26515,-0.50535 z m 115.31436,-9.61835 c -0.35584,-0.5916 -0.0186,-1.3853 0.78512,-1.84743 0.77493,-0.44566 1.20668,-1.14673 0.9593,-1.55789 -0.48585,-0.80782 3.28193,-2.21048 8.04641,-2.99547 2.54675,-0.41969 2.36622,-0.24593 -1.27206,1.22394 -2.33213,0.94211 -3.47699,1.66313 -2.54414,1.60213 0.93284,-0.061 2.63674,0.28234 3.78634,0.76295 2.08688,0.87248 2.08543,0.87545 -0.84803,1.81243 -5.53596,1.76822 -8.26638,2.07437 -8.91294,0.99934 z M 15.658127,841.41088 c -4.984394,-1.34698 -4.220471,-7.86031 1.404436,-11.97618 4.512274,-3.30164 13.637557,-5.74584 13.637557,-3.65292 0,0.41508 -2.258002,1.60076 -5.017865,2.6348 -4.620565,1.7312 -10.246909,6.55341 -10.246909,8.78229 0,1.37321 3.265385,1.91028 8.277142,1.36137 l 4.86752,-0.53316 -2.540666,1.48309 c -3.601189,2.10218 -7.198333,2.76082 -10.381215,1.90071 z m 141.669333,-4.67056 c -1.38027,-2.46879 -3.58214,-15.71345 -4.22886,-25.43837 -0.45732,-6.87652 -0.34649,-8.06082 0.75433,-8.06082 0.95813,0 1.43398,1.40259 1.84773,5.4465 0.30657,2.99557 1.14468,9.42175 1.86255,14.28029 0.71787,4.8586 1.18422,10.34869 1.03632,12.20014 -0.24511,3.06859 -0.35771,3.20768 -1.27207,1.57226 z M 56.14141,828.61476 c 0,-0.74509 4.353015,-5.0467 31.697636,-31.32372 5.07343,-4.87535 9.72579,-8.86436 10.33851,-8.86436 2.621714,0 1.78206,1.91247 -2.74665,6.25615 -2.65886,2.55025 -8.67521,8.41942 -13.36948,13.04257 -14.22295,14.00725 -25.920016,23.43405 -25.920016,20.88936 z m -5.665355,-9.03413 c 0.28392,-2.99558 0.74043,-7.79939 1.014595,-10.67513 0.611517,-6.41623 -0.132791,-7.80592 -3.744023,-6.99079 -5.325717,1.202 -8.025124,4.78789 -9.820261,13.04545 -0.43129,1.984 -0.735247,2.28162 -1.33525,1.30717 -1.347867,-2.18931 -0.873138,-8.10394 0.888746,-11.07338 3.259133,-5.49285 11.044744,-8.51335 15.02913,-5.83063 2.111015,1.42132 2.150384,1.62926 1.617375,8.54952 -1.143485,14.84592 -1.524874,17.11428 -2.87681,17.11428 -1.071762,0 -1.202447,-0.92049 -0.773502,-5.44649 z m 146.618195,-2.00928 c -2.46765,-0.68251 -6.62154,-2.27881 -9.23087,-3.54729 -5.66571,-2.75419 -16.39598,-12.81433 -15.11036,-14.16663 0.58118,-0.6113 2.6118,0.64244 6.36033,3.92696 6.84599,5.99855 10.81271,8.10509 21.83144,11.59391 4.78084,1.51368 8.69242,2.93143 8.69242,3.1505 0,0.8527 -8.2851,0.22029 -12.54296,-0.95745 z M 58.875589,814.3424 c -1.46779,-1.86401 -3.52329,-12.7997 -4.846655,-25.78543 -1.296325,-12.72041 -1.085659,-15.62022 0.92912,-12.78882 0.728366,1.02368 1.618656,1.33714 2.62674,0.92512 8.57191,-3.50433 19.144559,-4.73994 25.269982,-2.9533 4.18356,1.22017 3.90735,1.31116 -7.63239,2.51349 -14.749842,1.53678 -16.916169,1.85154 -17.658634,2.56586 -0.383747,0.36922 -0.302509,2.19175 0.180705,4.05003 0.483143,1.85833 1.09034,5.81404 1.349327,8.79053 0.259011,2.9765 0.8455,7.44165 1.303364,9.92267 1.624604,8.80267 0.800973,15.70942 -1.521559,12.75985 z m -0.207517,-16.89198 c -0.560551,-4.05768 -1.218307,-7.17289 -1.461782,-6.92271 -0.243463,0.25019 0.06535,4.29142 0.68683,8.98061 0.621201,4.68914 1.278946,7.80435 1.46177,6.92273 0.182765,-0.88172 -0.126292,-4.92302 -0.686818,-8.98063 z m 4.227752,14.72299 c -0.08319,-4.24175 -1.666486,-25.33274 -2.150803,-28.65138 -0.448036,-3.06973 -0.307093,-3.80975 0.725325,-3.80975 1.720015,0 3.057624,8.12182 3.735286,22.68068 0.472705,10.15541 0.383483,11.30544 -0.876777,11.30544 -0.77172,0 -1.416585,-0.68625 -1.433031,-1.52499 z m 76.353806,-24.67004 c -2.56533,-0.39089 -5.99989,-1.33782 -7.63239,-2.10407 -2.82787,-1.32747 -2.36687,-1.36887 9.75251,-0.87555 13.89154,0.56557 22.32454,-0.29828 30.71763,-3.14659 8.90949,-3.02353 11.24533,-7.89471 9.78279,-20.40082 -0.55174,-4.71762 -0.99357,-6.01597 -1.94999,-5.72928 -0.68003,0.20399 -8.4873,0.52887 -17.34935,0.72198 -13.36975,0.29143 -16.40142,0.12899 -17.80789,-0.95334 -1.66504,-1.28144 -1.6576,-1.31257 0.42402,-1.7605 1.16546,-0.25069 8.4158,-0.6594 16.1118,-0.90812 27.06792,-0.87474 35.23915,-4.7991 39.7689,-19.09933 2.53565,-8.00511 3.48131,-17.28195 3.48131,-34.15144 0,-12.1476 -0.33509,-16.56068 -1.69872,-22.37649 -0.93429,-3.98451 -2.08238,-13.12677 -2.55133,-20.31617 -0.46897,-7.18937 -1.08041,-16.37979 -1.35873,-20.42319 l -0.50612,-7.35158 -1.57025,2.12295 c -0.86363,1.16765 -4.89464,9.37771 -8.95778,18.24461 -11.66874,25.46438 -15.11333,30.93714 -19.10423,30.35254 -3.17837,-0.46561 -5.57274,-6.1989 -7.70388,-18.44749 -1.05561,-6.06694 -2.14883,-11.03139 -2.42936,-11.0322 -0.28063,-7.7e-4 -1.93142,6.03644 -3.66848,13.41607 -3.3513,14.23731 -4.95706,18.45205 -7.69404,20.19452 -4.31121,2.74466 -7.92327,-2.71375 -11.86243,-17.9261 -1.3032,-5.03257 -2.64871,-9.47286 -2.9902,-9.86732 -0.66715,-0.7708 -1.78785,4.93616 -3.80628,19.38402 -1.5357,10.9922 -3.29991,15.20799 -6.52398,15.59045 -2.85401,0.33856 -4.9039,-2.70748 -10.12733,-15.04824 l -3.67262,-8.67702 -0.57957,3.8841 c -0.31876,2.13626 -1.01451,13.81217 -1.54606,25.9465 -0.53163,12.13424 -1.1764,22.62419 -1.43285,23.31099 -0.25654,0.68678 -1.02086,1.2486 -1.69871,1.2486 -1.33049,0 -1.36977,2.45676 0.61186,-38.2432 0.47575,-9.77042 1.25823,-18.51953 1.73891,-19.44241 0.54138,-1.03956 1.57372,-1.575 2.71306,-1.40726 1.44702,0.21301 2.8363,2.51519 6.51502,10.79613 2.57168,5.78897 5.28611,11.4617 6.03203,12.60612 l 1.35627,2.08069 1.01239,-1.94385 c 0.55684,-1.06912 1.76198,-7.2658 2.67813,-13.77039 2.63028,-18.67519 3.69526,-22.13382 6.81564,-22.13382 2.11289,0 2.72221,1.40795 5.72421,13.22603 2.48042,9.76544 5.12589,16.56912 6.87414,17.67944 1.42439,0.90459 3.37895,-4.33072 6.41191,-17.17445 3.92295,-16.61245 4.99487,-20.01845 6.63456,-21.08132 2.57635,-1.66994 3.7587,1.28628 5.98126,14.95503 1.97635,12.15479 3.84494,18.54107 5.42357,18.53676 1.4437,-0.005 6.58523,-9.34302 13.19359,-23.96478 9.3898,-20.77602 11.06824,-24.08425 13.244,-26.10465 1.40825,-1.30781 2.17234,-1.49145 3.27174,-0.78641 2.62215,1.68141 3.64362,7.34472 4.14338,22.97149 0.26814,8.38758 0.79631,15.65574 1.1735,16.15149 1.44669,1.90109 2.57686,12.83567 3.05949,29.59902 0.75707,26.29567 -1.50722,41.65863 -7.36451,49.96737 -2.86153,4.05924 -9.22253,8.54761 -13.2526,9.35107 l -2.65065,0.52844 0.42395,9.29138 c 0.49456,10.84008 -0.485,14.29151 -5.07791,17.89132 -7.56898,5.93241 -25.59879,8.86961 -40.50333,6.59827 z m -18.76447,-14.8731 c -1.53148,-1.57373 -1.73407,-2.54608 -1.34253,-6.44464 0.37593,-3.74248 0.0821,-5.3603 -1.58847,-8.75151 -2.13149,-4.32635 -2.77055,-9.4858 -1.10434,-8.91501 0.52003,0.17819 1.61071,2.12465 2.42373,4.32574 4.66066,12.61678 15.76486,17.73727 30.94066,14.26782 3.59308,-0.82142 6.70456,-1.31711 6.91445,-1.10141 0.71421,0.73392 -8.29005,4.22997 -12.86566,4.99517 -2.50733,0.41934 -5.88221,0.54177 -7.49967,0.27207 -2.04278,-0.34066 -4.07494,0.0739 -6.65528,1.35734 -4.69121,2.33366 -6.94786,2.33231 -9.22289,-0.009 z m 6.86727,-2.46974 c 0.68616,-0.44592 1.06779,-0.95518 0.84804,-1.13164 -5.81087,-4.66883 -6.75975,-5.01402 -6.75975,-2.45949 0,4.09272 2.65666,5.70646 5.91171,3.59113 z m 42.0633,-27.54663 c -2.7112,-2.78608 -0.54852,-20.11796 3.2546,-26.08243 1.71221,-2.68525 4.74864,-2.83402 6.94192,-0.34021 1.28096,1.45643 1.60738,3.12558 1.57601,8.06081 -0.0484,7.60886 -2.62292,14.26284 -6.77925,17.52055 -3.32518,2.60619 -3.28269,2.59905 -4.99328,0.84128 z m 8.83237,-18.02015 c -0.0158,-3.6163 -0.82939,-6.75366 -1.75359,-6.75366 -0.89002,0 -2.06142,2.2803 -2.79796,5.44651 -0.46812,2.01224 -0.28289,2.39645 1.1548,2.39645 0.94165,0 1.7122,0.39216 1.7122,0.87145 0,0.47929 0.38163,0.87143 0.84803,0.87143 0.46643,0 0.84286,-1.27448 0.83652,-2.83218 z m 7.55487,10.89299 c -1.30828,-3.50265 0.0388,-8.82646 2.76054,-10.90885 3.31967,-2.53989 4.42272,-1.30551 3.78855,4.23956 -0.29205,2.55374 -0.97226,5.6382 -1.51153,6.85446 -1.3066,2.94661 -3.90347,2.85117 -5.03756,-0.18517 z"
       id="path4147-7"
       inkscape:connector-curvature="0"
       sodipodi:nodetypes="scccsccsccscccssscsssscssssccscsccsscsscsscccscccscscccccsccsssccssscsscccscccccsccscsscssccccssscccscsccscsscccscsccccsccsscscsssccssscssssssccsccscccssscssccscsssccsccscssscssssscccccccscscscsssscssssscscssssssssccscscssscsssssccscccsccsccssccscsssscscssscsccsssssscsssccssscsssccscssccsscssscsscscsccccssscsssccsccsssscccscsscssssccscssscscscs" />
    <flowRoot
       xml:space="preserve"
       id="flowRoot4176"
       style="font-style:normal;font-weight:normal;font-size:40px;line-height:1000%;font-family:sans-serif;letter-spacing:0px;word-spacing:0px;fill:#000000;fill-opacity:1;stroke:none;stroke-width:1px;stroke-linecap:butt;stroke-linejoin:miter;stroke-opacity:1"
       transform="translate(0,308.26772)"><flowRegion
         id="flowRegion4178"><rect
           id="rect4180"
           width="808.12201"
           height="204.05081"
           x="2.0203052"
           y="-136.75853" /></flowRegion><flowPara
         id="flowPara4182">Ca</flowPara></flowRoot>    <text
       xml:space="preserve"
       style="font-style:normal;font-weight:normal;font-size:18.9776001px;line-height:150%;font-family:sans-serif;letter-spacing:0px;word-spacing:0px;fill:#000000;fill-opacity:1;stroke:none;stroke-width:1px;stroke-linecap:butt;stroke-linejoin:miter;stroke-opacity:1"
       x="438.27002"
       y="576.47583"
       id="text4184"
       sodipodi:linespacing="150%"><tspan
         sodipodi:role="line"
         x="438.27002"
         y="576.47583"
         id="tspan4188"
         style="font-style:normal;font-variant:normal;font-weight:bold;font-stretch:normal;line-height:150%;font-family:Purisa;-inkscape-font-specification:'Purisa Bold';text-align:end;text-anchor:end">Enfin, j'ai mis le</tspan><tspan
         sodipodi:role="line"
         x="438.27002"
         y="604.9422"
         style="font-style:normal;font-variant:normal;font-weight:bold;font-stretch:normal;line-height:150%;font-family:Purisa;-inkscape-font-specification:'Purisa Bold';text-align:end;text-anchor:end"
         id="tspan4255">temps mais j'ai réussi à</tspan><tspan
         sodipodi:role="line"
         x="438.27002"
         y="633.40863"
         style="font-style:normal;font-variant:normal;font-weight:bold;font-stretch:normal;line-height:150%;font-family:Purisa;-inkscape-font-specification:'Purisa Bold';text-align:end;text-anchor:end"
         id="tspan4396">tout chiffrer mon</tspan><tspan
         sodipodi:role="line"
         x="450.53873"
         y="661.87506"
         style="font-style:normal;font-variant:normal;font-weight:bold;font-stretch:normal;line-height:150%;font-family:Purisa;-inkscape-font-specification:'Purisa Bold';text-align:end;text-anchor:end"
         id="tspan4398">disque dur. </tspan><tspan
         sodipodi:role="line"
         x="438.27002"
         y="690.34143"
         id="tspan4192"
         style="font-style:normal;font-variant:normal;font-weight:bold;font-stretch:normal;line-height:150%;font-family:Purisa;-inkscape-font-specification:'Purisa Bold';text-align:end;text-anchor:end">            Avec une clé à</tspan><tspan
         sodipodi:role="line"
         x="438.27002"
         y="718.8078"
         style="font-style:normal;font-variant:normal;font-weight:bold;font-stretch:normal;line-height:150%;font-family:Purisa;-inkscape-font-specification:'Purisa Bold';text-align:end;text-anchor:end"
         id="tspan4400"><tspan
   style="font-size:22.50000536px"
   id="tspan4181">4096</tspan> bits,</tspan><tspan
         sodipodi:role="line"
         x="438.27002"
         y="747.27423"
         style="font-style:normal;font-variant:normal;font-weight:bold;font-stretch:normal;line-height:150%;font-family:Purisa;-inkscape-font-specification:'Purisa Bold';text-align:end;text-anchor:end"
         id="tspan4257">                 je suis</tspan><tspan
         sodipodi:role="line"
         x="438.27002"
         y="775.74066"
         style="font-style:normal;font-variant:normal;font-weight:bold;font-stretch:normal;line-height:150%;font-family:Purisa;-inkscape-font-specification:'Purisa Bold';text-align:end;text-anchor:end"
         id="tspan4402">tranquille !</tspan></text>
    <flowRoot
       xml:space="preserve"
       id="flowRoot4194"
       style="font-style:normal;font-weight:normal;font-size:40px;line-height:1000%;font-family:sans-serif;letter-spacing:0px;word-spacing:0px;fill:#000000;fill-opacity:1;stroke:none;stroke-width:1px;stroke-linecap:butt;stroke-linejoin:miter;stroke-opacity:1"
       transform="translate(0,308.26772)"><flowRegion
         id="flowRegion4196"><rect
           id="rect4198"
           width="472.7514"
           height="145.46196"
           x="-701.04584"
           y="832.98792" /></flowRegion><flowPara
         id="flowPara4200">ff</flowPara></flowRoot>    <text
       xml:space="preserve"
       style="font-style:normal;font-weight:normal;font-size:17.67623138px;line-height:150%;font-family:sans-serif;letter-spacing:0px;word-spacing:0px;fill:#000000;fill-opacity:1;stroke:none;stroke-width:1px;stroke-linecap:butt;stroke-linejoin:miter;stroke-opacity:1"
       x="95.354546"
       y="982.80933"
       id="text4202"
       sodipodi:linespacing="150%"><tspan
         sodipodi:role="line"
         x="95.354546"
         y="982.80933"
         style="font-style:normal;font-variant:normal;font-weight:bold;font-stretch:normal;line-height:150%;font-family:Purisa;-inkscape-font-specification:'Purisa Bold'"
         id="tspan4265">Mais la vraie vie réserve</tspan><tspan
         sodipodi:role="line"
         x="95.354546"
         y="1009.3237"
         style="font-style:normal;font-variant:normal;font-weight:bold;font-stretch:normal;line-height:150%;font-family:Purisa;-inkscape-font-specification:'Purisa Bold'"
         id="tspan4310">parfois des surprises...</tspan></text>
    <flowRoot
       xml:space="preserve"
       id="flowRoot4206"
       style="font-style:normal;font-weight:normal;font-size:40px;line-height:1000%;font-family:sans-serif;letter-spacing:0px;word-spacing:0px;fill:#000000;fill-opacity:1;stroke:none;stroke-width:1px;stroke-linecap:butt;stroke-linejoin:miter;stroke-opacity:1"
       transform="translate(0,308.26772)"><flowRegion
         id="flowRegion4208"><rect
           id="rect4210"
           width="424.26407"
           height="137.38075"
           x="846.50781"
           y="12.74404" /></flowRegion><flowPara
         id="flowPara4212" /></flowRoot>    <text
       xml:space="preserve"
       style="font-style:normal;font-weight:normal;font-size:22.97673416px;line-height:150%;font-family:sans-serif;letter-spacing:0px;word-spacing:0px;fill:#000000;fill-opacity:1;stroke:none;stroke-width:1px;stroke-linecap:butt;stroke-linejoin:miter;stroke-opacity:1"
       x="558.86206"
       y="579.72412"
       id="text4214"
       sodipodi:linespacing="150%"><tspan
         sodipodi:role="line"
         id="tspan4216"
         x="558.86206"
         y="579.72412"
         style="font-style:normal;font-variant:normal;font-weight:bold;font-stretch:normal;line-height:150%;font-family:Purisa;-inkscape-font-specification:'Purisa Bold'">File-nous le</tspan><tspan
         sodipodi:role="line"
         x="558.86206"
         y="614.18921"
         style="font-style:normal;font-variant:normal;font-weight:bold;font-stretch:normal;line-height:150%;font-family:Purisa;-inkscape-font-specification:'Purisa Bold'"
         id="tspan4267">mot de passe</tspan><tspan
         sodipodi:role="line"
         x="558.86206"
         y="648.6543"
         style="font-style:normal;font-variant:normal;font-weight:bold;font-stretch:normal;line-height:150%;font-family:Purisa;-inkscape-font-specification:'Purisa Bold'"
         id="tspan4339">et en vitesse !</tspan></text>
    <flowRoot
       xml:space="preserve"
       id="flowRoot4218"
       style="font-style:normal;font-weight:normal;font-size:40px;line-height:1000%;font-family:sans-serif;letter-spacing:0px;word-spacing:0px;fill:#000000;fill-opacity:1;stroke:none;stroke-width:1px;stroke-linecap:butt;stroke-linejoin:miter;stroke-opacity:1"
       transform="translate(0,308.26772)"><flowRegion
         id="flowRegion4220"><rect
           id="rect4222"
           width="204.05081"
           height="145.46196"
           x="971.76672"
           y="810.76453" /></flowRegion><flowPara
         id="flowPara4224" /></flowRoot>    <text
       xml:space="preserve"
       style="font-style:normal;font-weight:normal;font-size:22.97673416px;line-height:150%;font-family:sans-serif;letter-spacing:0px;word-spacing:0px;fill:#000000;fill-opacity:1;stroke:none;stroke-width:1px;stroke-linecap:butt;stroke-linejoin:miter;stroke-opacity:1"
       x="816.64374"
       y="584.04144"
       id="text4226"
       sodipodi:linespacing="150%"><tspan
         sodipodi:role="line"
         id="tspan4228"
         x="816.64374"
         y="584.04144"
         style="font-style:normal;font-variant:normal;font-weight:bold;font-stretch:normal;line-height:150%;font-family:Purisa;-inkscape-font-specification:'Purisa Bold'">Heu d'accord,</tspan><tspan
         sodipodi:role="line"
         x="816.64374"
         y="618.50653"
         id="tspan4230"
         style="font-style:normal;font-variant:normal;font-weight:bold;font-stretch:normal;line-height:150%;font-family:Purisa;-inkscape-font-specification:'Purisa Bold'">mais vous ne</tspan><tspan
         sodipodi:role="line"
         x="816.64374"
         y="652.97162"
         style="font-style:normal;font-variant:normal;font-weight:bold;font-stretch:normal;line-height:150%;font-family:Purisa;-inkscape-font-specification:'Purisa Bold'"
         id="tspan4283">ferez pas de</tspan><tspan
         sodipodi:role="line"
         x="816.64374"
         y="687.43677"
         style="font-style:normal;font-variant:normal;font-weight:bold;font-stretch:normal;line-height:150%;font-family:Purisa;-inkscape-font-specification:'Purisa Bold'"
         id="tspan4314">      mal à </tspan><tspan
         sodipodi:role="line"
         x="816.64374"
         y="721.90186"
         style="font-style:normal;font-variant:normal;font-weight:bold;font-stretch:normal;line-height:150%;font-family:Purisa;-inkscape-font-specification:'Purisa Bold'"
         id="tspan4316">      mon </tspan><tspan
         sodipodi:role="line"
         x="816.64374"
         y="756.36694"
         style="font-style:normal;font-variant:normal;font-weight:bold;font-stretch:normal;line-height:150%;font-family:Purisa;-inkscape-font-specification:'Purisa Bold'"
         id="tspan4318">     hamster ?</tspan></text>
    <text
       xml:space="preserve"
       style="font-style:normal;font-weight:normal;font-size:17.55319023px;line-height:150%;font-family:sans-serif;letter-spacing:0px;word-spacing:0px;fill:#000000;fill-opacity:1;stroke:none;stroke-width:1px;stroke-linecap:butt;stroke-linejoin:miter;stroke-opacity:1"
       x="625.75067"
       y="839.15735"
       id="text4226-5"
       sodipodi:linespacing="150%"><tspan
         sodipodi:role="line"
         x="625.75067"
         y="839.15735"
         id="tspan4230-5"
         style="font-style:normal;font-variant:normal;font-weight:bold;font-stretch:normal;line-height:150%;font-family:Purisa;-inkscape-font-specification:'Purisa Bold'">T'inquiète <tspan
   style="font-size:22.50000572px"
   id="tspan4179">!</tspan></tspan></text>
  </g>
</svg>
